\BOOKMARK [1][-]{section.1}{Introduction}{}% 1
\BOOKMARK [1][-]{section.2}{Observations}{}% 2
\BOOKMARK [2][-]{subsection.2.1}{Calibration and imaging}{section.2}% 3
\BOOKMARK [2][-]{subsection.2.2}{Relevant point sources in the ATCA mosaics}{section.2}% 4
\BOOKMARK [2][-]{subsection.2.3}{ATCA - IRAC8m cross-correlations}{section.2}% 5
\BOOKMARK [1][-]{section.3}{Spectral variations }{}% 6
\BOOKMARK [2][-]{subsection.3.1}{Morphological trends with frequency}{section.3}% 7
\BOOKMARK [2][-]{subsection.3.2}{Spectral energy distribution}{section.3}% 8
\BOOKMARK [1][-]{section.4}{Carbon RRL search}{}% 9
\BOOKMARK [1][-]{section.5}{Conclusion}{}% 10
\BOOKMARK [1][-]{section.A1}{}{}% 11
