This is BibTeX, Version 0.99d (TeX Live 2020/Arch Linux)
Capacity: max_strings=100000, hash_size=100000, hash_prime=85009
The top-level auxiliary file: report_ATCA_ROPHW.aux
The style file: mnras.bst
Database file #1: merged_EME.bib
Reallocated singl_function (elt_size=8) to 100 items from 50.
Reallocated singl_function (elt_size=8) to 100 items from 50.
You've used 59 entries,
            2881 wiz_defined-function locations,
            1251 strings with 44761 characters,
and the built_in function-call counts, 27615 in all, are:
= -- 2387
> -- 1833
< -- 114
+ -- 815
- -- 240
* -- 3549
:= -- 4143
add.period$ -- 0
call.type$ -- 59
change.case$ -- 118
chr.to.int$ -- 57
cite$ -- 59
duplicate$ -- 1375
empty$ -- 1366
format.name$ -- 448
if$ -- 4825
int.to.chr$ -- 3
int.to.str$ -- 0
missing$ -- 59
newline$ -- 190
num.names$ -- 378
pop$ -- 277
preamble$ -- 1
purify$ -- 236
quote$ -- 0
skip$ -- 843
stack$ -- 0
substring$ -- 1693
swap$ -- 740
text.length$ -- 244
text.prefix$ -- 0
top$ -- 0
type$ -- 531
warning$ -- 0
while$ -- 428
width$ -- 0
write$ -- 604
