\relax 
\providecommand\hyper@newdestlabel[2]{}
\providecommand\HyperFirstAtBeginDocument{\AtBeginDocument}
\HyperFirstAtBeginDocument{\ifx\hyper@anchor\@undefined
\global\let\oldcontentsline\contentsline
\gdef\contentsline#1#2#3#4{\oldcontentsline{#1}{#2}{#3}}
\global\let\oldnewlabel\newlabel
\gdef\newlabel#1#2{\newlabelxx{#1}#2}
\gdef\newlabelxx#1#2#3#4#5#6{\oldnewlabel{#1}{{#2}{#3}}}
\AtEndDocument{\ifx\hyper@anchor\@undefined
\let\contentsline\oldcontentsline
\let\newlabel\oldnewlabel
\fi}
\fi}
\global\let\hyper@last\relax 
\gdef\HyperFirstAtBeginDocument#1{#1}
\providecommand\HyField@AuxAddToFields[1]{}
\providecommand\HyField@AuxAddToCoFields[2]{}
\citation{kog96,lei97}
\citation{Gold2011ApJS..192...15G}
\citation{Planck2016A&A...594A...1P}
\citation{Dickinson2018NewAR..80....1D}
\citation{kog96}
\citation{dav06}
\citation{lei97}
\citation{Finkbeiner2002ApJ...566..898F,Watson2005ApJ...624L..89W,Casassus2006ApJ...639..951C,Scaife2009MNRAS.394L..46A,Castellanos2011MNRAS.411.1137C,Scaife2010,Vidal2011MNRAS.414.2424V,Tibss2012ApJ...754...94T,Vidal2020MNRAS.495.1122V,Cepeda-Arroita2020arXiv200107159C}
\citation{Planck2013A&A...557A..53P,Planck2016A&A...594A..10P}
\citation{dra98}
\citation{Dickinson2018NewAR..80....1D}
\citation{Ali-Haimoud2014}
\citation{Hoang2016ApJ...824...18H,Hensley2017ApJ...836..179H}
\citation{HoangLazarian2016ApJ...821...91H,Hensley2017ApJ...836..179H}
\citation{DraineLazarian1999ApJ...512..740D}
\citation{DraineHensley2012ApJ...757..103D}
\newlabel{firstpage}{{}{1}{}{Doc-Start}{}}
\@writefile{toc}{\contentsline {section}{\numberline {1}Introduction}{1}{section.1}\protected@file@percent }
\citation{Ali-Haimoud2009,Hoang2010ApJ...715.1462H,Ysard2010A&A...509A..12Y,Silsbee2011MNRAS.411.2750S}
\citation{LePetit2006ApJS..164..506L}
\citation{Gaia2018yCat.1345....0G}
\citation{White2015MNRAS.447.1996W,Pattle2015MNRAS.450.1094P}
\citation{1999A&A...344..342L,Habart2003}
\citation{rid06}
\citation{cas08}
\citation{LadaWilking1984ApJ...287..610L}
\citation{Elias1978ApJ...224..453E}
\citation{cas08}
\citation{Arce-Tord2020MNRAS.495.3482A}
\citation{cas08}
\citation{cas08}
\citation{Planck2011A&A...536A..20P}
\citation{Arce-Tord2020MNRAS.495.3482A}
\citation{cas08}
\citation{Arce-Tord2020MNRAS.495.3482A}
\citation{CABB2011MNRAS.416..832W}
\citation{Miriad1995ASPC...77..433S}
\citation{Hogbom1974A&AS...15..417H}
\citation{cas08,Arce-Tord2020MNRAS.495.3482A}
\citation{cas08}
\@writefile{toc}{\contentsline {section}{\numberline {2}Observations}{2}{section.2}\protected@file@percent }
\newlabel{sec:cabbobs}{{2}{2}{Observations}{section.2}{}}
\@writefile{toc}{\contentsline {subsection}{\numberline {2.1}Calibration and imaging}{2}{subsection.2.1}\protected@file@percent }
\citation{Arce-Tord2020MNRAS.495.3482A}
\citation{Arce-Tord2020MNRAS.495.3482A}
\citation{Garufi2020A&A...633A..82G}
\citation{Cieza2019MNRAS.482..698C}
\citation{Scaife2010}
\citation{Castellanos2011MNRAS.411.1137C}
\@writefile{lot}{\contentsline {table}{\numberline {1}{\ignorespaces Log of observations for ATCA project C1845.}}{3}{table.1}\protected@file@percent }
\newlabel{table:log}{{1}{3}{Log of observations for ATCA project C1845}{table.1}{}}
\@writefile{toc}{\contentsline {subsection}{\numberline {2.2}Relevant point sources in the ATCA mosaics}{3}{subsection.2.2}\protected@file@percent }
\newlabel{sec:PSs}{{2.2}{3}{Relevant point sources in the ATCA mosaics}{subsection.2.2}{}}
\@writefile{toc}{\contentsline {subsection}{\numberline {2.3}ATCA - IRAC\,8$\mu $m cross-correlations}{3}{subsection.2.3}\protected@file@percent }
\newlabel{sec:xcorr}{{2.3}{3}{ATCA - IRAC\,8$\mu $m cross-correlations}{subsection.2.3}{}}
\@writefile{lot}{\contentsline {table}{\numberline {2}{\ignorespaces ATCA - IRAC\,8\,$\mu $m correlation statistics}}{3}{table.2}\protected@file@percent }
\newlabel{table:xcorr}{{2}{3}{ATCA - IRAC\,8\,$\mu $m correlation statistics}{table.2}{}}
\newlabel{eq:rw}{{2}{3}{ATCA - IRAC\,8$\mu $m cross-correlations}{equation.2}{}}
\@writefile{toc}{\contentsline {section}{\numberline {3}Spectral variations }{3}{section.3}\protected@file@percent }
\newlabel{sec:specvar}{{3}{3}{Spectral variations}{section.3}{}}
\@writefile{toc}{\contentsline {subsection}{\numberline {3.1}Morphological trends with frequency}{3}{subsection.3.1}\protected@file@percent }
\citation{Cepeda-Arroita2020arXiv200107159C}
\@writefile{lof}{\contentsline {figure}{\numberline {1}{\ignorespaces  ATCA observations of $\rho $\,Oph\,W, and comparison with the 8\,$\mu $m emission, illustrating the systematic shift of the filament towards HD\,147889 (to the south-west) with increasing frequency. $x-$ and $y-$axis show offset RA and DEC from $\rho $\,Oph\,W (J2000 16h25m57s, -24d20m50s), in degrees of arc. Note that fields of view are different as appropriate for each frequency. The restored mosaics are shown in colour scale. Identical restorations of IRAC\,8\,$\mu $m visibilities, obtained by simulating the same ATCA observations at each frequency, are shown in white contours, with levels at 0.25, 0.5, and 0.75 times the peak IRAC\,8\,$\mu $m restored intensities. All colour scales range linearly from 0 to 1, and all images have been linearly scaled and normalised so that their entire intensity range, shown in parenthesis at the bottom of each image, is matched by the colour scale. Frequencies are given in MHz at the bottom left of each image. At 33.157\,GHz we have also overlaid the CBI2 {\tt  uvmem} image of the 31\,GHz continuum from \citet  {Arce-Tord2020MNRAS.495.3482A}, in blue contours at 0.5, 0.75, 0.95 times the peak. }}{4}{figure.1}\protected@file@percent }
\newlabel{fig:ATCA}{{1}{4}{ATCA observations of $\rho $\,Oph\,W, and comparison with the 8\,$\mu $m emission, illustrating the systematic shift of the filament towards HD\,147889 (to the south-west) with increasing frequency. $x-$ and $y-$axis show offset RA and DEC from $\rho $\,Oph\,W (J2000 16h25m57s, -24d20m50s), in degrees of arc. Note that fields of view are different as appropriate for each frequency. The restored mosaics are shown in colour scale. Identical restorations of IRAC\,8\,$\mu $m visibilities, obtained by simulating the same ATCA observations at each frequency, are shown in white contours, with levels at 0.25, 0.5, and 0.75 times the peak IRAC\,8\,$\mu $m restored intensities. All colour scales range linearly from 0 to 1, and all images have been linearly scaled and normalised so that their entire intensity range, shown in parenthesis at the bottom of each image, is matched by the colour scale. Frequencies are given in MHz at the bottom left of each image. At 33.157\,GHz we have also overlaid the CBI2 {\tt uvmem} image of the 31\,GHz continuum from \citet {Arce-Tord2020MNRAS.495.3482A}, in blue contours at 0.5, 0.75, 0.95 times the peak}{figure.1}{}}
\@writefile{toc}{\contentsline {subsection}{\numberline {3.2}Spectral energy distribution}{4}{subsection.3.2}\protected@file@percent }
\newlabel{sec:sed}{{3.2}{4}{Spectral energy distribution}{subsection.3.2}{}}
\citation{cas08,Planck2011A&A...536A..20P,Arce-Tord2020MNRAS.495.3482A}
\citation{Ali-Haimoud2009}
\citation{cas08,Arce-Tord2020MNRAS.495.3482A}
\citation{Habart2003}
\citation{dl98b}
\@writefile{lof}{\contentsline {figure}{\numberline {2}{\ignorespaces  Profiles from the restored ATCA mosaics, extracted perpendicularly to the $\rho $\,Oph\,W PDR. Frequencies are indicated on the top left. The following number is the radio-IR correlation slope $a$ (same as in Table\,\ref  {table:xcorr} and described in Sec.\,\ref  {sec:xcorr}). The profile at each frequency is divided by $a$. The $x-$axis shows offset in arcmin from the reference position, at J2000 16:25:57.984 -24:20:37.760. $y-$axis shows specific intensities averaged in a region $\pm $1\,arcmin along the filament. The ATCA profiles are shown in {\bf  red}, with the restored image in solid line, its average residuals in dotted line, and the rms-dispersion of residuals in dashed line. The {\bf  blue} dashed line is the average profile of the IRAC\,8$\mu $m template, which is the original IRAC image filtered and scaled by a reference radio/IR correlation slop (see Sec.\,\ref  {sec:xcorr}). The {\bf  green} dashed line is the corresponding profile of a simulation of the ATCA observations and {\tt  skymem} restoration. }}{5}{figure.2}\protected@file@percent }
\newlabel{fig:prof}{{2}{5}{Profiles from the restored ATCA mosaics, extracted perpendicularly to the $\rho $\,Oph\,W PDR. Frequencies are indicated on the top left. The following number is the radio-IR correlation slope $a$ (same as in Table\,\ref {table:xcorr} and described in Sec.\,\ref {sec:xcorr}). The profile at each frequency is divided by $a$. The $x-$axis shows offset in arcmin from the reference position, at J2000 16:25:57.984 -24:20:37.760. $y-$axis shows specific intensities averaged in a region $\pm $1\,arcmin along the filament. The ATCA profiles are shown in {\bf red}, with the restored image in solid line, its average residuals in dotted line, and the rms-dispersion of residuals in dashed line. The {\bf blue} dashed line is the average profile of the IRAC\,8$\mu $m template, which is the original IRAC image filtered and scaled by a reference radio/IR correlation slop (see Sec.\,\ref {sec:xcorr}). The {\bf green} dashed line is the corresponding profile of a simulation of the ATCA observations and {\tt skymem} restoration}{figure.2}{}}
\@writefile{toc}{\contentsline {subsubsection}{\numberline {3.2.1}SED modeling}{5}{subsubsection.3.2.1}\protected@file@percent }
\newlabel{sec:sed_modelling}{{3.2.1}{5}{SED modeling}{subsubsection.3.2.1}{}}
\@writefile{lot}{\contentsline {table}{\numberline {3}{\ignorespaces ATCA mean intensities and their ratio measured in two masks shown in Fig. \ref  {fig:rgb_mask}. The quoted uncertainties refer to the thermal errors only - the actual uncertainties should include 10\% in quadrature, and have been applied to the ratio $ \rm  {I}^{39}_{\nu } / \rm  {I}^{17}_{\nu } $.}}{5}{table.3}\protected@file@percent }
\newlabel{tab:intensities}{{3}{5}{ATCA mean intensities and their ratio measured in two masks shown in Fig. \ref {fig:rgb_mask}. The quoted uncertainties refer to the thermal errors only - the actual uncertainties should include 10\% in quadrature, and have been applied to the ratio $ \rm {I}^{39}_{\nu } / \rm {I}^{17}_{\nu } $}{table.3}{}}
\citation{Weingartner2001}
\citation{MPFIT_2009}
\citation{Weingartner2001}
\citation{Weingartner2001}
\citation{Habart2003}
\citation{Vidal2020MNRAS.495.1122V}
\citation{dl98b,Dickinson2018NewAR..80....1D}
\citation{dl98b}
\citation{Habart2003}
\citation{Habart2003}
\citation{allamandola+85,ricca+12,croiset+16}
\citation{Arce-Tord2020MNRAS.495.3482A}
\citation{Arce-Tord2020MNRAS.495.3482A}
\citation{Hensley2016}
\citation{cas08}
\citation{Scaife2010}
\@writefile{lot}{\contentsline {table}{\numberline {4}{\ignorespaces SPDUST2 fit parameters. Parameters without uncertainty were fixed to the ones reported in \citet  {Habart2003}.}}{6}{table.4}\protected@file@percent }
\newlabel{tab:fit_params}{{4}{6}{SPDUST2 fit parameters. Parameters without uncertainty were fixed to the ones reported in \citet {Habart2003}}{table.4}{}}
\citation{dl98b}
\citation{cas08}
\citation{Arce-Tord2020MNRAS.495.3482A}
\citation{cas08}
\citation{pan78}
\citation{pan78}
\citation{1974ApJ...189..253B,pan78}
\citation{cas08}
\citation{Habart2003}
\@writefile{lot}{\contentsline {table}{\numberline {5}{\ignorespaces ATCA - {\em  WISE} correlation statistics}}{7}{table.5}\protected@file@percent }
\newlabel{table:r_WISE}{{5}{7}{ATCA - {\em WISE} correlation statistics}{table.5}{}}
\@writefile{toc}{\contentsline {section}{\numberline {4}Carbon RRL search}{7}{section.4}\protected@file@percent }
\newlabel{sec:crrls}{{4}{7}{Carbon RRL search}{section.4}{}}
\@writefile{toc}{\contentsline {section}{\numberline {5}Conclusion}{7}{section.5}\protected@file@percent }
\newlabel{sec:conc}{{5}{7}{Conclusion}{section.5}{}}
\bibstyle{mnras}
\bibdata{merged_EME.bib}
\bibcite{Ali-Haimoud2014}{{1}{2014}{{{Ali-Ha{\"\i }moud}}}{{{Ali-Ha{\"\i }moud}}}}
\bibcite{Ali-Haimoud2009}{{2}{2009}{{Ali-Ha\"{\i }moud et~al.}}{{Ali-Ha\"{\i }moud, Hirata \& Dickinson}}}
\bibcite{allamandola+85}{{3}{1985}{{{Allamandola} et~al.}}{{{Allamandola}, {Tielens} \& {Barker}}}}
\bibcite{Arce-Tord2020MNRAS.495.3482A}{{4}{2020}{{{Arce-Tord} et~al.}}{{{Arce-Tord} et~al.,}}}
\bibcite{1974ApJ...189..253B}{{5}{1974}{{{Brown} \& {Knapp}}}{{{Brown} \& {Knapp}}}}
\bibcite{Carcamo2018A&C....22...16C}{{6}{2018}{{{C{\'a}rcamo} et~al.}}{{{C{\'a}rcamo}, {Rom{\'a}n}, {Casassus}, {Moral} \& {Rannou}}}}
\bibcite{Casassus2006ApJ...639..951C}{{7}{2006}{{{Casassus} et~al.}}{{{Casassus}, {Cabrera}, {F{\"o}rster}, {Pearson}, {Readhead} \& {Dickinson}}}}
\bibcite{cas08}{{8}{2008}{{{Casassus} et~al.}}{{{Casassus} et~al.,}}}
\bibcite{Casassus2018MNRAS.477.5104C}{{9}{2018}{{{Casassus} et~al.}}{{{Casassus} et~al.,}}}
\bibcite{Casassus2019MNRAS.483.3278C}{{10}{2019}{{{Casassus} et~al.}}{{{Casassus} et~al.,}}}
\bibcite{Castellanos2011MNRAS.411.1137C}{{11}{2011}{{{Castellanos} et~al.}}{{{Castellanos} et~al.,}}}
\bibcite{Cepeda-Arroita2020arXiv200107159C}{{12}{2020}{{{Cepeda-Arroita} et~al.}}{{{Cepeda-Arroita} et~al.,}}}
\bibcite{Cieza2019MNRAS.482..698C}{{13}{2019}{{{Cieza} et~al.}}{{{Cieza} et~al.,}}}
\bibcite{croiset+16}{{14}{2016}{{{Croiset} et~al.}}{{{Croiset}, {Candian}, {Bern{\'e}} \& {Tielens}}}}
\bibcite{dav06}{{15}{2006}{{{Davies} et~al.}}{{{Davies}, {Dickinson}, {Banday}, {Jaffe}, {G{\'o}rski} \& {Davis}}}}
\bibcite{Dickinson2018NewAR..80....1D}{{16}{2018}{{{Dickinson} et~al.}}{{{Dickinson} et~al.,}}}
\bibcite{DraineHensley2012ApJ...757..103D}{{17}{2012}{{{Draine} \& {Hensley}}}{{{Draine} \& {Hensley}}}}
\bibcite{dra98}{{18}{1998a}{{{Draine} \& {Lazarian}}}{{{Draine} \& {Lazarian}}}}
\bibcite{dl98b}{{19}{1998b}{{{Draine} \& {Lazarian}}}{{{Draine} \& {Lazarian}}}}
\bibcite{DraineLazarian1999ApJ...512..740D}{{20}{1999}{{{Draine} \& {Lazarian}}}{{{Draine} \& {Lazarian}}}}
\bibcite{Elias1978ApJ...224..453E}{{21}{1978}{{{Elias}}}{{{Elias}}}}
\bibcite{Finkbeiner2002ApJ...566..898F}{{22}{2002}{{{Finkbeiner} et~al.}}{{{Finkbeiner}, {Schlegel}, {Frank} \& {Heiles}}}}
\bibcite{Gaia2018yCat.1345....0G}{{23}{2018}{{{Gaia Collaboration}}}{{{Gaia Collaboration}}}}
\bibcite{Garufi2020A&A...633A..82G}{{24}{2020}{{{Garufi} et~al.}}{{{Garufi} et~al.,}}}
\bibcite{Gold2011ApJS..192...15G}{{25}{2011}{{{Gold} et~al.}}{{{Gold} et~al.,}}}
\bibcite{Habart2003}{{26}{2003}{{{Habart} et~al.}}{{{Habart}, {Boulanger}, {Verstraete}, {Pineau des For{\^e}ts}, {Falgarone} \& {Abergel}}}}
\bibcite{Hensley2017ApJ...836..179H}{{27}{2017}{{{Hensley} \& {Draine}}}{{{Hensley} \& {Draine}}}}
\bibcite{Hensley2016}{{28}{2016}{{{Hensley} et~al.}}{{{Hensley}, {Draine} \& {Meisner}}}}
\bibcite{HoangLazarian2016ApJ...821...91H}{{29}{2016}{{{Hoang} \& {Lazarian}}}{{{Hoang} \& {Lazarian}}}}
\bibcite{Hoang2010ApJ...715.1462H}{{30}{2010}{{{Hoang} et~al.}}{{{Hoang}, {Draine} \& {Lazarian}}}}
\bibcite{Hoang2016ApJ...824...18H}{{31}{2016}{{{Hoang} et~al.}}{{{Hoang}, {Vinh} \& {Quynh Lan}}}}
\bibcite{Hogbom1974A&AS...15..417H}{{32}{1974}{{{H{\"o}gbom}}}{{{H{\"o}gbom}}}}
\bibcite{kog96}{{33}{1996}{{{Kogut} et~al.}}{{{Kogut}, {Banday}, {Bennett}, {Gorski}, {Hinshaw} \& {Reach}}}}
\bibcite{LadaWilking1984ApJ...287..610L}{{34}{1984}{{{Lada} \& {Wilking}}}{{{Lada} \& {Wilking}}}}
\bibcite{LePetit2006ApJS..164..506L}{{35}{2006}{{{Le Petit} et~al.}}{{{Le Petit}, {Nehm{\'e}}, {Le Bourlot} \& {Roueff}}}}
\bibcite{lei97}{{36}{1997}{{{Leitch} et~al.}}{{{Leitch}, {Readhead}, {Pearson} \& {Myers}}}}
\bibcite{1999A&A...344..342L}{{37}{1999}{{{Liseau} et~al.}}{{{Liseau} et~al.,}}}
\bibcite{MPFIT_2009}{{38}{2009}{{{Markwardt}}}{{{Markwardt}}}}
\bibcite{pan78}{{39}{1978}{{{Pankonin} \& {Walmsley}}}{{{Pankonin} \& {Walmsley}}}}
\bibcite{Pattle2015MNRAS.450.1094P}{{40}{2015}{{{Pattle} et~al.}}{{{Pattle} et~al.,}}}
\bibcite{Perez2019AJ....158...15P}{{41}{2019}{{{P{\'e}rez} et~al.}}{{{P{\'e}rez}, {Casassus}, {Baruteau}, {Dong}, {Hales} \& {Cieza}}}}
\bibcite{Planck2011A&A...536A..20P}{{42}{2011}{{{Planck Collaboration} et~al.}}{{{Planck Collaboration} et~al.,}}}
\bibcite{Planck2013A&A...557A..53P}{{43}{2013}{{{Planck Collaboration} et~al.}}{{{Planck Collaboration} et~al.,}}}
\bibcite{Planck2016A&A...594A...1P}{{44}{2016a}{{{Planck Collaboration} et~al.}}{{{Planck Collaboration} et~al.,}}}
\bibcite{Planck2016A&A...594A..10P}{{45}{2016b}{{{Planck Collaboration} et~al.}}{{{Planck Collaboration} et~al.,}}}
\bibcite{ricca+12}{{46}{2012}{{{Ricca} et~al.}}{{{Ricca}, {Bauschlicher}, {Boersma}, {Tielens} \& {Allamandola}}}}
\bibcite{rid06}{{47}{2006}{{{Ridge} et~al.}}{{{Ridge} et~al.,}}}
\bibcite{Miriad1995ASPC...77..433S}{{48}{1995}{{{Sault} et~al.}}{{{Sault}, {Teuben} \& {Wright}}}}
\bibcite{Scaife2009MNRAS.394L..46A}{{49}{2009}{{{Scaife} et~al.}}{{{Scaife} et~al.,}}}
\bibcite{Scaife2010}{{50}{2010}{{{Scaife} et~al.}}{{{Scaife} et~al.,}}}
\bibcite{Silsbee2011MNRAS.411.2750S}{{51}{2011}{{{Silsbee} et~al.}}{{{Silsbee}, {Ali-Ha{\"i}moud} \& {Hirata}}}}
\bibcite{Tibss2012ApJ...754...94T}{{52}{2012}{{{Tibbs} et~al.}}{{{Tibbs} et~al.,}}}
\bibcite{Vidal2011MNRAS.414.2424V}{{53}{2011}{{{Vidal} et~al.}}{{{Vidal} et~al.,}}}
\bibcite{Vidal2020MNRAS.495.1122V}{{54}{2020}{{{Vidal} et~al.}}{{{Vidal}, {Dickinson}, {Harper}, {Casassus} \& {Witt}}}}
\bibcite{Watson2005ApJ...624L..89W}{{55}{2005}{{{Watson} et~al.}}{{{Watson}, {Rebolo}, {Rubi{\~n}o-Mart{\'{\i }}n}, {Hildebrandt}, {Guti{\'e}rrez}, {Fern{\'a}ndez-Cerezo}, {Hoyland} \& {Battistelli}}}}
\bibcite{Weingartner2001}{{56}{2001}{{{Weingartner} \& {Draine}}}{{{Weingartner} \& {Draine}}}}
\bibcite{White2015MNRAS.447.1996W}{{57}{2015}{{{White} et~al.}}{{{White} et~al.,}}}
\bibcite{CABB2011MNRAS.416..832W}{{58}{2011}{{{Wilson} et~al.}}{{{Wilson} et~al.,}}}
\bibcite{Ysard2010A&A...509A..12Y}{{59}{2010}{{{Ysard} \& {Verstraete}}}{{{Ysard} \& {Verstraete}}}}
\citation{Casassus2006ApJ...639..951C,Carcamo2018A&C....22...16C}
\citation{cas08,Arce-Tord2020MNRAS.495.3482A}
\citation{Casassus2018MNRAS.477.5104C,Casassus2019MNRAS.483.3278C,Perez2019AJ....158...15P}
\@writefile{toc}{\contentsline {section}{\numberline {A}}{8}{section.A1}\protected@file@percent }
\newlabel{sec:appendix}{{A}{8}{}{section.A1}{}}
\citation{Castellanos2011MNRAS.411.1137C}
\newlabel{eq:L}{{A1}{9}{}{equation.A1.1}{}}
\newlabel{eq:IDm}{{A3}{9}{}{equation.A1.3}{}}
\@writefile{lot}{\contentsline {table}{\numberline {A1}{\ignorespaces Scale factors for the {\tt  skymem} priors}}{9}{table.A1.1}\protected@file@percent }
\newlabel{table:sfactors}{{A1}{9}{Scale factors for the {\tt skymem} priors}{table.A1.1}{}}
\newlabel{eq:mosaic}{{A7}{9}{}{equation.A1.7}{}}
\newlabel{eq:noisemosaictheor}{{A9}{9}{}{equation.A1.9}{}}
\@writefile{lot}{\contentsline {table}{\numberline {A2}{\ignorespaces Dispersion of residuals and expected theoretical noise, in $\mu $Jy\,beam$^{-1}$}}{10}{table.A1.2}\protected@file@percent }
\newlabel{table:noise}{{A2}{10}{Dispersion of residuals and expected theoretical noise, in $\mu $Jy\,beam$^{-1}$}{table.A1.2}{}}
\newlabel{eq:noisemosaic}{{A12}{10}{}{equation.A1.12}{}}
\newlabel{lastpage}{{A}{10}{}{figure.A1.1}{}}
\@writefile{lof}{\contentsline {figure}{\numberline {3}{\ignorespaces  The $\rho $\,Oph\,W filament shifts towards the exciting star with increasing frequency, as illustrated in these colour-coded versions of the restored maps shown in Fig.\,\ref  {fig:ATCA}, after subtraction of the SR\,4 point source at 39\,GHz, and degraded to a common angular resolution. {\bf  a:} This RGB image is linearly scaled to cover the whole range of intensities at each frequency: 17\,GHz in red and 33\,GHz in green and 39\,GHz in blue. The contours are taken at 90\% peak intensity, with matching colours. The common beam corresponds to that of the 17\,GHz map, and is indicated by the yellow ellipse (see Table\,\ref  {table:log}). {\bf  b:} In this Red-Green version, with 17\,GHz in red and 39\,GHz in green, we illustrate the photometric apertures used to measure the SED (Sec.\,\ref  {sec:sed}). The contours correspond to the 85\%-peak level at 17\,GHz (in red), and 80\% at 39\,GHz, (in green), but are modified to avoid overlap.}}{10}{figure.3}\protected@file@percent }
\newlabel{fig:rgb_mask}{{3}{10}{The $\rho $\,Oph\,W filament shifts towards the exciting star with increasing frequency, as illustrated in these colour-coded versions of the restored maps shown in Fig.\,\ref {fig:ATCA}, after subtraction of the SR\,4 point source at 39\,GHz, and degraded to a common angular resolution. {\bf a:} This RGB image is linearly scaled to cover the whole range of intensities at each frequency: 17\,GHz in red and 33\,GHz in green and 39\,GHz in blue. The contours are taken at 90\% peak intensity, with matching colours. The common beam corresponds to that of the 17\,GHz map, and is indicated by the yellow ellipse (see Table\,\ref {table:log}). {\bf b:} In this Red-Green version, with 17\,GHz in red and 39\,GHz in green, we illustrate the photometric apertures used to measure the SED (Sec.\,\ref {sec:sed}). The contours correspond to the 85\%-peak level at 17\,GHz (in red), and 80\% at 39\,GHz, (in green), but are modified to avoid overlap}{figure.3}{}}
\@writefile{lof}{\contentsline {figure}{\numberline {4}{\ignorespaces SED of the $\rho $\,Oph\,W filament measured between 5.5 and 39\,GHz within the two apertures shown in Fig. \ref  {fig:rgb_mask}. The red and blue lines correspond to the best fit spinning dust models.}}{11}{figure.4}\protected@file@percent }
\newlabel{fig:sed}{{4}{11}{SED of the $\rho $\,Oph\,W filament measured between 5.5 and 39\,GHz within the two apertures shown in Fig. \ref {fig:rgb_mask}. The red and blue lines correspond to the best fit spinning dust models}{figure.4}{}}
\@writefile{lof}{\contentsline {figure}{\numberline {5}{\ignorespaces Grain size distribution for sizes around 1\,nm for 3 cases. In black is the prescription from \citet  {Weingartner2001} for typical Milky Way parameters. In red and blue are the distributions arising from the spinning dust fit in the two studied regions. In these cases, a cutoff is needed in order to fit the SEDs in Fig. \ref  {fig:sed}.}}{11}{figure.5}\protected@file@percent }
\newlabel{fig:gsd}{{5}{11}{Grain size distribution for sizes around 1\,nm for 3 cases. In black is the prescription from \citet {Weingartner2001} for typical Milky Way parameters. In red and blue are the distributions arising from the spinning dust fit in the two studied regions. In these cases, a cutoff is needed in order to fit the SEDs in Fig. \ref {fig:sed}}{figure.5}{}}
\@writefile{lof}{\contentsline {figure}{\numberline {6}{\ignorespaces Comparison between the ATCA continuum and a proxy for PAH size. We show an overlay of a 17\,GHz contour (in red, at 85\%-peak) and a 39\,GHz contour (in green, at 80\%-peak), on the ratio of {\em  WISE} 12$\mu $m to 3.4$\mu $m. The increasing value of the ratio deeper into the PDR is consistent with the larger PAHs.}}{11}{figure.6}\protected@file@percent }
\newlabel{fig:12_3}{{6}{11}{Comparison between the ATCA continuum and a proxy for PAH size. We show an overlay of a 17\,GHz contour (in red, at 85\%-peak) and a 39\,GHz contour (in green, at 80\%-peak), on the ratio of {\em WISE} 12$\mu $m to 3.4$\mu $m. The increasing value of the ratio deeper into the PDR is consistent with the larger PAHs}{figure.6}{}}
\@writefile{lof}{\contentsline {figure}{\numberline {A1}{\ignorespaces  Synthesis imaging of the ATCA observations of $\rho $\,Oph\,W. $x-$ and $y-$ axis correspond to offset R.A. and Dec. in arcmin. This panel of images is organized as a table, where each image corresponds to the frequency given in column headers, for the synthesis imaging schemes given in line headers. We have, from top to bottom, the dirty and clean mosaics calculated with Miriad, the prior image scaled to each frequency, followed by the {\tt  skymem} model image, its associated residual mosaic, and the restored mosaic, shown also also after multiplication by the mosaic attenuation (labeled `skymem restored PB'). The beam ellipses are shown in the restored images. The colour units are mJy\,beam$^{-1}$. These images have not been point-source subtracted. }}{12}{figure.A1.1}\protected@file@percent }
\newlabel{fig:skymem}{{A1}{12}{Synthesis imaging of the ATCA observations of $\rho $\,Oph\,W. $x-$ and $y-$ axis correspond to offset R.A. and Dec. in arcmin. This panel of images is organized as a table, where each image corresponds to the frequency given in column headers, for the synthesis imaging schemes given in line headers. We have, from top to bottom, the dirty and clean mosaics calculated with Miriad, the prior image scaled to each frequency, followed by the {\tt skymem} model image, its associated residual mosaic, and the restored mosaic, shown also also after multiplication by the mosaic attenuation (labeled `skymem restored PB'). The beam ellipses are shown in the restored images. The colour units are mJy\,beam$^{-1}$. These images have not been point-source subtracted}{figure.A1.1}{}}
\gdef \@abspage@last{12}
