%!PS-Adobe-3.0 EPSF-3.0
%%For: simon
%%Title: PGPLOT PostScript plot
%%Creator: PGPLOT [PSDRIV 6.6]
%%CreationDate: 21-Sep-2020 18:09
%%BoundingBox: (atend)
%%DocumentFonts: (atend)
%%LanguageLevel: 1
%%Orientation: Portrait
%%Pages: (atend)
%%EndComments
%%BeginProlog
/L {moveto rlineto currentpoint stroke moveto} bind def
/C {rlineto currentpoint stroke moveto} bind def
/D {moveto 0 0 rlineto currentpoint stroke moveto} bind def
/LW {5 mul setlinewidth} bind def
/BP {newpath moveto} bind def
/LP /rlineto load def
/EP {rlineto closepath eofill} bind def
/MB {gsave translate MFAC dup scale 1 setlinewidth 2 setlinecap 0 setlinejoin newpath} bind def
/ME /grestore load def
/CC {0 360 arc stroke} bind def
/FC {0 360 arc fill} bind def
/G {1024 div setgray} bind def
/K {3 -1 roll 1024 div 3 -1 roll 1024 div 3 -1 roll 1024 div setrgbcolor} bind def
% Uncomment next line to convert color to grey shades
%/K {3 -1 roll 3413 div 3 -1 roll 1739 div 3 -1 roll 9309 div add add setgray} bind def
%%EndProlog
%%BeginSetup
/#copies 1 def
%%EndSetup
 
%%Page: 1 1
%%BeginPageSetup
/PGPLOT save def
0.072 0.072 scale
350 250 translate
1 setlinejoin 1 setlinecap 1 LW 1
%%EndPageSetup
%%PageBoundingBox: (atend)
0 0 0 K 1 LW 1629 0 906 630 L 0 2205 C -1629 0 C 0 -2205 C 0 73 1069 630 L 0 73 1720 630 L 0 73 2372 630 L 0 73 1069 2762 L
0 73 1720 2762 L 0 73 2372 2762 L 5 -5 1039 523 L -5 -4 C -4 4 C 0 5 C 4 10 C 5 5 C 15 5 C 19 0 C 15 -5 C 5 -5 C 4 -10 C 0 -9 C
-4 -10 C -15 -10 C -24 -9 C -10 -5 C -10 -10 C -4 -15 C 0 -14 C 10 -5 1078 543 L 5 -5 C 5 -10 C 0 -9 C -5 -10 C -15 -10 C -19 -9 C
4 4 1035 451 L 10 0 C 24 -9 C 15 0 C 10 5 C 4 4 C 24 -14 1049 455 L 20 0 C 5 5 C 4 9 C 0 10 C -15 -5 1716 543 L -10 -15 C -4 -24 C
0 -14 C 4 -25 C 10 -14 C 15 -5 C 9 0 C 15 5 C 10 14 C 4 25 C 0 14 C -4 24 C -10 15 C -15 5 C -9 0 C -10 -5 C -5 -5 C -5 -10 C
-5 -24 C 0 -14 C 5 -25 C 5 -9 C 5 -5 C 10 -5 C 10 5 1725 441 L 5 5 C 5 9 C 5 25 C 0 14 C -5 24 C -5 10 C -5 5 C -10 5 C
88 0 2280 485 L 5 -5 2406 523 L -5 -4 C -4 4 C 0 5 C 4 10 C 5 5 C 15 5 C 19 0 C 15 -5 C 5 -5 C 4 -10 C 0 -9 C -4 -10 C -15 -10 C
-24 -9 C -10 -5 C -10 -10 C -4 -15 C 0 -14 C 10 -5 2445 543 L 5 -5 C 5 -10 C 0 -9 C -5 -10 C -15 -10 C -19 -9 C 4 4 2402 451 L
10 0 C 24 -9 C 15 0 C 10 5 C 4 4 C 24 -14 2416 455 L 20 0 C 5 5 C 4 9 C 0 10 C 72 0 906 752 L 72 0 906 1361 L 72 0 906 1970 L
72 0 906 2579 L 72 0 2463 752 L 72 0 2463 1361 L 72 0 2463 1970 L 72 0 2463 2579 L 4 -15 694 747 L 15 -9 C 24 -5 C 15 0 C 24 5 C
14 9 C 5 15 C 0 10 C -5 14 C -14 10 C -24 5 C -15 0 C -24 -5 C -15 -10 C -4 -14 C 0 -10 C 4 -10 C 5 -5 C 10 -4 C 24 -5 C 15 0 C
24 5 C 10 4 C 4 5 C 5 10 C -5 9 795 757 L -4 5 C -10 5 C -24 5 C -15 0 C -24 -5 C -10 -5 C -5 -5 C -4 -9 C 48 -10 694 1337 L
-10 10 C -5 14 C 0 15 C 5 14 C 10 10 C 15 5 C 9 0 C 15 -5 C 9 -10 C 5 -14 C 0 -15 C -5 -14 C -4 -5 C -10 -5 C -5 0 C -5 5 C 5 5 C
5 -5 C 5 9 727 1366 L 10 10 C 15 5 C 9 0 C 15 -5 C 9 -10 C 5 -9 C 0 48 694 1337 L 0 24 698 1337 L -4 24 C -5 10 713 1902 L -14 14 C
101 0 C 97 0 698 1921 L 0 44 795 1902 L 4 -14 694 2013 L 15 -10 C 24 -5 C 15 0 C 24 5 C 14 10 C 5 14 C 0 10 C -5 15 C -14 9 C
-24 5 C -15 0 C -24 -5 C -15 -9 C -4 -15 C 0 -10 C 4 -9 C 5 -5 C 10 -5 C 24 -5 C 15 0 C 24 5 C 10 5 C 4 5 C 5 9 C -5 10 795 2023 L
-4 5 C -10 4 C -24 5 C -15 0 C -24 -5 C -10 -4 C -5 -5 C -4 -10 C -5 10 713 2511 L -14 14 C 101 0 C 97 0 698 2530 L 0 44 795 2511 L
48 -10 694 2603 L -10 10 C -5 15 C 0 14 C 5 15 C 10 9 C 15 5 C 9 0 C 15 -5 C 9 -9 C 5 -15 C 0 -14 C -5 -15 C -4 -5 C -10 -5 C -5 0 C
-5 5 C 5 5 C 5 -5 C 5 10 727 2632 L 10 10 C 15 4 C 9 0 C 15 -4 C 9 -10 C 5 -10 C 0 49 694 2603 L 0 24 698 2603 L -4 25 C
-15 -5 1127 194 L -9 -10 C -5 -14 C 0 -10 C 5 -14 C 9 -10 C 15 -5 C 10 0 C 14 5 C 10 10 C 5 14 C 0 10 C -5 14 C -10 10 C -14 5 C
-10 0 C -10 -5 C -9 -10 C -5 -14 C 0 -10 C 5 -14 C 9 -10 C 10 -5 C 9 5 1137 126 L 10 10 C 5 14 C 0 10 C -5 14 C -10 10 C -9 5 C
-5 -5 1229 223 L 5 -5 C 4 5 C 0 5 C -4 5 C -10 0 C -10 -5 C -5 -10 C 0 -87 C -5 -5 1219 228 L -5 -10 C 0 -87 C 39 0 1190 194 L
34 0 1190 126 L -5 -5 1292 223 L 5 -5 C 4 5 C 0 5 C -4 5 C -10 0 C -10 -5 C -5 -10 C 0 -87 C -5 -5 1282 228 L -5 -10 C 0 -87 C
39 0 1253 194 L 34 0 1253 126 L 5 10 1369 184 L 0 -20 C -5 10 C -5 5 C -9 5 C -20 0 C -9 -5 C -5 -5 C 0 -10 C 5 -4 C 9 -5 C 24 -10 C
10 -5 C 5 -5 C 5 -5 1321 179 L 9 -4 C 24 -10 C 10 -5 C 5 -5 C 0 -14 C -5 -5 C -10 -5 C -19 0 C -10 5 C -4 5 C -5 9 C 0 -19 C 5 10 C
58 0 1408 165 L 0 9 C -5 10 C -5 5 C -9 5 C -15 0 C -14 -5 C -10 -10 C -5 -14 C 0 -10 C 5 -14 C 10 -10 C 14 -5 C 10 0 C 14 5 C
10 10 C 0 14 1461 165 L -5 10 C -10 -5 1432 194 L -9 -10 C -5 -14 C 0 -10 C 5 -14 C 9 -10 C 10 -5 C 0 -83 1505 228 L 5 -14 C 9 -5 C
10 0 C 10 5 C 5 10 C 0 -83 1510 228 L 5 -14 C 4 -5 C 39 0 1490 194 L 0 -155 1650 247 L 0 -155 1655 247 L 34 0 1650 247 L
34 0 1650 92 L 0 -5 1723 184 L -5 0 C 0 5 C 5 5 C 10 5 C 19 0 C 10 -5 C 5 -5 C 4 -10 C 0 -33 C 5 -10 C 5 -5 C 0 -43 1767 184 L
4 -10 C 10 -5 C 5 0 C -5 -4 1767 174 L -29 -5 C -15 -5 C -5 -10 C 0 -9 C 5 -10 C 15 -5 C 14 0 C 10 5 C 10 10 C -10 -5 1733 165 L
-5 -10 C 0 -9 C 5 -10 C 10 -5 C 0 -68 1820 194 L 0 -68 1825 194 L 4 14 1825 165 L 10 10 C 10 5 C 14 0 C 5 -5 C 0 -5 C -5 -5 C -4 5 C
4 5 C 20 0 1805 194 L 34 0 1805 126 L -5 -5 1951 179 L 5 -4 C 4 4 C 0 5 C -9 10 C -10 5 C -14 0 C -15 -5 C -10 -10 C -5 -14 C
0 -10 C 5 -14 C 10 -10 C 15 -5 C 9 0 C 15 5 C 9 10 C -10 -5 1922 194 L -10 -10 C -5 -14 C 0 -10 C 5 -14 C 10 -10 C 10 -5 C
0 -68 1994 194 L 0 -68 1999 194 L 10 10 1999 179 L 14 5 C 10 0 C 15 -5 C 4 -10 C 0 -53 C 10 -5 2033 194 L 5 -10 C 0 -53 C
10 10 2052 179 L 15 5 C 9 0 C 15 -5 C 5 -10 C 0 -53 C 10 -5 2086 194 L 5 -10 C 0 -53 C 19 0 1980 194 L 34 0 1980 126 L
34 0 2033 126 L 34 0 2086 126 L -5 -5 2154 228 L 5 -5 C 5 5 C -5 5 C 0 -68 2154 194 L 0 -68 2159 194 L 19 0 2140 194 L
34 0 2140 126 L 0 -68 2207 194 L 0 -68 2212 194 L 10 10 2212 179 L 15 5 C 9 0 C 15 -5 C 5 -10 C 0 -53 C 10 -5 2246 194 L 5 -10 C
0 -53 C 19 0 2193 194 L 34 0 2193 126 L 34 0 2246 126 L 0 -155 2333 247 L 0 -155 2338 247 L 34 0 2304 247 L 34 0 2304 92 L
102 0 457 1044 L 102 0 457 1049 L 0 34 457 1030 L 0 34 559 1030 L 51 -7 566 1095 L 22 -4 566 1099 L 18 -4 C 11 -3 C 15 -4 566 1135 L
14 -7 C 11 -4 566 1139 L 7 -4 C 11 -7 C 8 -7 C 7 -11 C 4 -7 C 3 -11 C 0 15 566 1084 L 155 0 438 1243 L 155 0 438 1248 L
0 34 438 1243 L 0 34 593 1243 L 68 0 491 1316 L 68 0 491 1320 L -10 10 506 1320 L -5 15 C 0 9 C 5 15 C 10 5 C 53 0 C 5 10 491 1354 L
10 5 C 53 0 C -10 9 506 1374 L -5 15 C 0 10 C 5 14 C 10 5 C 53 0 C 5 9 491 1408 L 10 5 C 53 0 C 0 19 491 1301 L 0 34 559 1301 L
0 34 559 1354 L 0 34 559 1408 L 83 0 457 1500 L 14 -5 C 5 -10 C 0 -10 C -5 -9 C -9 -5 C -10 0 C -5 5 C 5 5 C 5 -5 C 83 0 457 1495 L
14 -5 C 5 -5 C 0 34 457 1480 L 68 29 491 1543 L 58 24 491 1548 L 68 -29 491 1601 L 19 -9 C 10 -10 C 5 -10 C 0 -5 C -5 -4 C -5 4 C
5 5 C 0 29 491 1534 L 0 29 491 1582 L 5 0 501 1718 L 0 -5 C -5 0 C -5 5 C -5 9 C 0 20 C 5 10 C 5 4 C 10 5 C 34 0 C 9 5 C 5 5 C
44 0 501 1761 L 9 5 C 5 10 C 0 5 C 4 -4 511 1761 L 5 -30 C 5 -14 C 10 -5 C 10 0 C 9 5 C 5 14 C 0 15 C -5 10 C -9 9 C 5 -9 520 1727 L
10 -5 C 10 0 C 9 5 C 5 9 C 68 0 491 1815 L 68 0 491 1820 L -14 4 520 1820 L -10 10 C -5 10 C 0 14 C 5 5 C 5 0 C 5 -5 C -5 -5 C
-5 5 C 0 20 491 1800 L 0 34 559 1800 L 5 -4 506 1945 L 4 4 C -4 5 C -5 0 C -10 -9 C -5 -10 C 0 -15 C 5 -14 C 10 -10 C 14 -5 C 10 0 C
15 5 C 9 10 C 5 14 C 0 10 C -5 15 C -9 9 C 5 -9 491 1916 L 10 -10 C 14 -5 C 10 0 C 15 5 C 9 10 C 5 9 C 68 0 491 1989 L
68 0 491 1994 L -10 10 506 1994 L -5 14 C 0 10 C 5 14 C 10 5 C 53 0 C 5 10 491 2028 L 10 4 C 53 0 C -10 10 506 2047 L -5 14 C 0 10 C
5 15 C 10 5 C 53 0 C 5 10 491 2081 L 10 5 C 53 0 C 0 19 491 1975 L 0 33 559 1975 L 0 34 559 2028 L 0 34 559 2081 L 5 -5 457 2149 L
5 5 C -5 5 C -5 -5 C 68 0 491 2149 L 68 0 491 2154 L 0 20 491 2134 L 0 34 559 2134 L 68 0 491 2202 L 68 0 491 2207 L
-10 10 506 2207 L -5 14 C 0 10 C 5 15 C 10 4 C 53 0 C 5 10 491 2241 L 10 5 C 53 0 C 0 19 491 2188 L 0 34 559 2188 L 0 34 559 2241 L
0 66 449 2299 L 3 3 420 2394 L 4 -3 C -4 -4 C -3 0 C -8 4 C -3 3 C -4 11 C 0 15 C 4 11 C 3 3 C 8 4 C 7 0 C 7 -4 C 8 -11 C 7 -18 C
3 -7 C 8 -7 C 11 -4 C 11 0 C 4 7 405 2423 L 3 4 C 8 3 C 7 0 C 7 -3 C 8 -11 C 7 -15 C -3 4 474 2390 L 0 7 C 7 18 C 0 11 C -4 7 C
-3 4 C 11 18 471 2401 L 0 15 C -4 3 C -7 4 C -8 0 C 116 0 391 2485 L 116 0 391 2488 L 0 25 391 2463 L 0 25 507 2463 L
1024 0 0 K 0 0 906 1210 L 32 -33 C 33 10 C 32 64 C 33 88 C 33 66 C 32 5 C 33 -62 C 32 -94 C 33 -80 C 32 -33 C 33 15 C 33 48 C
32 59 C 33 59 C 32 64 C 33 78 C 33 98 C 32 111 C 33 122 C 32 141 C 33 168 C 33 186 C 32 165 C 33 81 C 32 -49 C 33 -181 C 33 -252 C
32 -240 C 33 -163 C 32 -75 C 33 -13 C 33 -1 C 32 -20 C 33 -32 C 32 -19 C 33 17 C 33 52 C 32 66 C 33 55 C 32 31 C 33 20 C 33 22 C
32 32 C 33 25 C 32 -2 C 33 -47 C 33 -82 C 32 -92 C 33 -75 C 32 -45 C
0 0 0 K -11 -3 933 3010 L -3 -7 C 0 -10 C 3 -7 C 11 -4 C 13 0 C 10 4 C 4 7 C 0 10 C -4 7 C -10 3 C -13 0 C -7 -3 C -4 -7 C 0 -10 C
4 -7 C 7 -4 C 7 4 946 2979 L 3 7 C 0 10 C -3 7 C -7 3 C -11 -3 933 2979 L -3 -3 C -3 -7 C 0 -14 C 3 -6 C 3 -4 C 11 -3 C 13 0 C
10 3 C 4 4 C 3 6 C 0 14 C -3 7 C -4 3 C -10 3 C -7 -3 933 2979 L -4 -3 C -3 -7 C 0 -14 C 3 -6 C 4 -4 C 7 -3 C 7 3 946 2939 L 3 4 C
4 6 C 0 14 C -4 7 C -3 3 C -7 3 C -10 -3 1000 3010 L -3 -7 C 0 -10 C 3 -7 C 10 -4 C 14 0 C 10 4 C 4 7 C 0 10 C -4 7 C -10 3 C
-14 0 C -6 -3 C -4 -7 C 0 -10 C 4 -7 C 6 -4 C 7 4 1014 2979 L 3 7 C 0 10 C -3 7 C -7 3 C -10 -3 1000 2979 L -3 -3 C -3 -7 C 0 -14 C
3 -6 C 3 -4 C 10 -3 C 14 0 C 10 3 C 4 4 C 3 6 C 0 14 C -3 7 C -4 3 C -10 3 C -6 -3 1000 2979 L -4 -3 C -3 -7 C 0 -14 C 3 -6 C 4 -4 C
6 -3 C 7 3 1014 2939 L 3 4 C 4 6 C 0 14 C -4 7 C -3 3 C -7 3 C -10 -3 1072 3010 L -7 -11 C -4 -17 C 0 -10 C 4 -17 C 7 -10 C 10 -3 C
6 0 C 11 3 C 6 10 C 4 17 C 0 10 C -4 17 C -6 11 C -11 3 C -6 0 C -7 -3 C -3 -4 C -4 -7 C -3 -17 C 0 -10 C 3 -17 C 4 -6 C 3 -4 C
7 -3 C 7 3 1078 2939 L 4 4 C 3 6 C 3 17 C 0 10 C -3 17 C -3 7 C -4 4 C -7 3 C -11 -3 1140 3010 L -6 -11 C -4 -17 C 0 -10 C 4 -17 C
6 -10 C 11 -3 C 6 0 C 11 3 C 6 10 C 4 17 C 0 10 C -4 17 C -6 11 C -11 3 C -6 0 C -7 -3 C -4 -4 C -3 -7 C -3 -17 C 0 -10 C 3 -17 C
3 -6 C 4 -4 C 7 -3 C 7 3 1146 2939 L 4 4 C 3 6 C 3 17 C 0 10 C -3 17 C -3 7 C -4 4 C -7 3 C 0 -71 1194 3010 L 21 -61 1197 3010 L
24 -71 1194 3010 L -23 -71 1241 3010 L 0 -71 1241 3010 L 0 -71 1245 3010 L 13 0 1184 3010 L 14 0 1241 3010 L 20 0 1184 2939 L
24 0 1231 2939 L 0 -71 1279 3010 L 0 -71 1282 3010 L 0 -71 1323 3010 L 0 -71 1326 3010 L 24 0 1268 3010 L 23 0 1313 3010 L
41 0 1282 2976 L 24 0 1268 2939 L 23 0 1313 2939 L -38 -47 1391 2986 L -37 -47 1394 2986 L -4 -13 1357 2986 L 0 13 C 41 0 C
41 0 1353 2939 L 0 13 C -3 -13 C -10 -3 1492 2986 L -7 -7 C -3 -7 C -3 -10 C 0 -10 C 3 -7 C 10 -3 C 7 0 C 7 3 C 10 10 C 7 11 C
6 13 C 4 10 C -6 -3 1492 2986 L -7 -7 C -4 -7 C -3 -10 C 0 -10 C 3 -7 C 7 -3 C 7 0 1492 2986 L 7 -3 C 3 -7 C 7 -27 C 3 -7 C 4 -3 C
3 -3 1499 2986 L 4 -7 C 7 -27 C 3 -7 C 7 -3 C 3 0 C 61 0 1550 2979 L 61 0 1550 2959 L -10 -3 1655 3010 L -7 -11 C -3 -17 C 0 -10 C
3 -17 C 7 -10 C 10 -3 C 7 0 C 10 3 C 7 10 C 3 17 C 0 10 C -3 17 C -7 11 C -10 3 C -7 0 C -7 -3 C -3 -4 C -3 -7 C -4 -17 C 0 -10 C
4 -17 C 3 -6 C 3 -4 C 7 -3 C 7 3 1662 2939 L 3 4 C 3 6 C 4 17 C 0 10 C -4 17 C -3 7 C -3 4 C -7 3 C -3 -4 1709 2946 L 3 -3 C 4 3 C
-4 4 C 6 4 1747 2996 L 11 10 C 0 -71 C 0 -68 1760 3007 L 30 0 1747 2939 L
0 1024 0 K 0 0 906 925 L 32 5 C 33 8 C 32 9 C 33 12 C 33 13 C 32 15 C 33 18 C 32 23 C 33 30 C 32 38 C 33 48 C 33 59 C 32 68 C
33 77 C 32 85 C 33 91 C 33 100 C 32 106 C 33 112 C 32 114 C 33 111 C 33 98 C 32 69 C 33 27 C 32 -25 C 33 -73 C 33 -106 C 32 -120 C
33 -118 C 32 -104 C 33 -83 C 33 -60 C 32 -38 C 33 -22 C 32 -10 C 33 -4 C 33 1 C 32 2 C 33 4 C 32 3 C 33 4 C 33 6 C 32 9 C 33 12 C
32 17 C 33 22 C 33 24 C 32 27 C 33 28 C 32 25 C
0 0 0 K 1024 0 0 K 1 -2 906 760 L 2 -3 919 743 L 1 -2 933 725 L 3 -1 950 714 L 3 1 971 708 L 2 1 990 720 L 3 2 1007 733 L
2 3 1023 748 L 2 2 1039 764 L 3 2 1056 777 L 3 0 1075 788 L 3 0 1097 791 L 3 -1 1117 784 L 3 -2 1137 775 L 2 -2 1156 763 L
2 -1 1175 752 L 2 -1 1195 743 L 3 0 1216 739 L 3 1 1238 739 L 3 1 1260 744 L 3 0 1281 750 L 3 0 1302 755 L 3 0 1324 759 L
3 0 1346 758 L 3 -1 1368 756 L 3 -1 1389 751 L 3 -1 1411 746 L 3 0 1432 741 L 3 -1 1454 738 L 3 0 1476 737 L 3 1 1498 739 L
3 1 1519 745 L 3 1 1540 753 L 3 1 1560 761 L 3 1 1581 769 L 3 1 1602 774 L 3 -1 1624 778 L 3 0 1645 773 L 2 -1 1666 765 L
3 -2 1685 755 L 3 -1 1703 742 L 3 -2 1721 730 L 3 -2 1741 720 L 4 0 1761 712 L 3 0 1783 710 L 3 1 1804 716 L 2 2 1825 724 L
2 2 1844 735 L 3 2 1863 745 L 0 0 1883 755 L 3 1 C 3 0 1905 759 L 4 -1 1926 759 L 1 0 1948 754 L 2 -1 C 3 -1 1968 745 L
3 -1 1988 736 L 2 -1 2009 727 L 3 0 2030 722 L 3 1 2052 720 L 3 0 2073 725 L 3 1 2093 734 L 3 2 2112 745 L 3 2 2129 759 L
2 2 2147 772 L 3 2 2164 786 L 3 1 2182 798 L 3 2 2203 806 L 3 0 2224 806 L 2 -3 2245 801 L 3 -2 2261 786 L 2 -2 2277 771 L
2 -2 2290 753 L 2 -3 2304 736 L 2 -2 2317 718 L 2 -3 2331 701 L 3 -2 2346 686 L 3 -2 2365 674 L 3 1 2384 675 L 1 1 2404 684 L 1 2 C
2 3 2417 702 L 1 2 2430 721 L 1 3 2442 739 L 2 3 2452 758 L 1 2 2463 778 L 1 3 2475 796 L 2 2 2488 814 L 1 1 2502 831 L 2 0 C
3 0 2524 832 L
0 0 0 K 1024 0 0 K 4 -31 906 1410 L 4 -31 915 1348 L 5 -32 923 1286 L 5 -31 932 1223 L 15 -28 950 1164 L 9 30 977 1147 L
8 25 995 1207 L 1 5 C 6 31 1011 1268 L 7 31 1023 1329 L 6 31 1036 1391 L 6 31 1048 1453 L 6 31 1060 1515 L 10 30 1074 1576 L
7 23 1094 1636 L 7 0 C 17 -27 1137 1653 L 16 -27 1170 1600 L 12 -29 1202 1545 L 4 -10 1227 1487 L 6 -19 C 9 -30 1246 1427 L
11 -29 1264 1367 L 10 -26 1287 1308 L 2 -3 C 10 -13 1319 1255 L 10 -12 C 4 -5 1358 1206 L 16 -20 C 28 13 1399 1163 L 1 0 C
8 6 1452 1196 L 12 -18 C 3 -5 1489 1158 L 8 -25 C 9 -30 1510 1098 L 21 -15 1536 1044 L 3 5 C 14 28 1574 1062 L 7 1 1616 1102 L
9 -23 C 10 -25 1645 1051 L 1 -4 C 10 -30 1665 992 L 4 -15 1684 932 L 8 -14 C 8 -15 1712 876 L 10 11 C 3 4 1750 896 L 9 25 C
10 29 1773 955 L 12 29 1794 1014 L 1 4 1817 1073 L 16 22 C 29 -6 1854 1122 L 1 -1 C 11 -12 1905 1091 L 8 -13 C 8 -13 1941 1040 L
9 -14 C 5 -8 1976 987 L 17 14 C 9 30 2017 1017 L 9 30 2036 1077 L 14 28 2058 1136 L 18 -26 2089 1166 L 7 -31 2117 1111 L
7 -31 2132 1050 L 6 -31 2146 988 L 7 -30 2158 926 L 6 -30 2171 865 L 0 2 C 9 30 2187 867 L 3 12 2206 927 L 4 19 C 6 31 2218 989 L
6 31 2229 1051 L 2 10 2240 1113 L 4 21 C 6 31 2253 1174 L 6 31 2266 1236 L 11 30 2281 1297 L 4 12 2303 1356 L 17 -9 C
9 -30 2344 1338 L 9 -30 2363 1278 L 9 -30 2380 1217 L 8 -29 2397 1156 L 0 -1 C 12 -29 2417 1097 L 16 -27 2442 1039 L
26 -18 2475 986 L 12 13 2523 987 L
0 0 0 K 0 0 1024 K 31 3 906 927 L 3 1 968 937 L 26 10 C 10 5 1026 960 L 19 8 C 17 7 1084 984 L 13 5 C 24 14 1142 1010 L 3 2 C
6 5 1193 1046 L 16 18 C 18 26 1235 1093 L 15 28 1270 1145 L 13 29 1299 1201 L 5 11 1324 1259 L 7 18 C 11 29 1347 1318 L
11 29 1370 1377 L 1 5 1393 1435 L 9 25 C 11 30 1414 1494 L 10 30 1435 1554 L 6 16 1454 1614 L 4 14 C 9 31 1472 1674 L
3 12 1489 1735 L 5 18 C 8 30 1505 1796 L 4 13 1521 1857 L 5 17 C 8 30 1538 1918 L 3 14 1554 1978 L 5 17 C 7 30 1569 2040 L
6 25 1584 2101 L 1 5 C 8 31 1598 2162 L 7 31 1613 2223 L 9 30 1628 2285 L 8 31 1645 2345 L 17 26 1669 2403 L 17 -27 1703 2407 L
9 -31 1728 2350 L 8 -30 1745 2289 L 6 -31 1759 2228 L 6 -31 1770 2166 L 4 -19 1782 2104 L 3 -12 C 7 -30 1796 2042 L
8 -31 1810 1981 L 8 -31 1825 1920 L 7 -31 1841 1859 L 8 -31 1857 1798 L 9 -30 1874 1737 L 11 -29 1893 1677 L 1 -4 1915 1618 L
14 -24 C 4 -6 1945 1563 L 18 -16 C 20 -6 1994 1526 L 11 0 C 23 -3 2056 1517 L 9 1 C 25 5 2119 1518 L 6 1 C 28 5 2181 1530 L 3 0 C
32 0 2243 1534 L 2 0 2305 1541 L 27 14 C 11 7 2361 1569 L 17 9 C 23 18 2415 1602 L 1 2 C 9 10 2461 1645 L 12 13 C 23 21 2504 1691 L
0 0 0 K 1630 0 2535 630 L 0 2205 C -1630 0 C 0 -2205 C 0 73 2627 630 L 0 73 2969 630 L 0 73 3311 630 L 0 73 3652 630 L
0 73 3994 630 L 0 73 2627 2762 L 0 73 2969 2762 L 0 73 3311 2762 L 0 73 3652 2762 L 0 73 3994 2762 L 4 -5 2598 523 L -4 -4 C -5 4 C
0 5 C 5 10 C 4 5 C 15 5 C 19 0 C 15 -5 C 5 -5 C 5 -10 C 0 -9 C -5 -10 C -15 -10 C -24 -9 C -10 -5 C -9 -10 C -5 -15 C 0 -14 C
10 -5 2636 543 L 5 -5 C 5 -10 C 0 -9 C -5 -10 C -15 -10 C -19 -9 C 5 4 2593 451 L 9 0 C 24 -9 C 15 0 C 10 5 C 5 4 C
24 -14 2607 455 L 20 0 C 5 5 C 5 9 C 0 10 C 10 5 2949 523 L 14 15 C 0 -102 C 0 -97 2969 538 L 44 0 2949 441 L -15 -5 3306 543 L
-10 -15 C -4 -24 C 0 -14 C 4 -25 C 10 -14 C 15 -5 C 9 0 C 15 5 C 10 14 C 4 25 C 0 14 C -4 24 C -10 15 C -15 5 C -9 0 C -10 -5 C
-5 -5 C -5 -10 C -5 -24 C 0 -14 C 5 -25 C 5 -9 C 5 -5 C 10 -5 C 10 5 3315 441 L 5 5 C 5 9 C 5 25 C 0 14 C -5 24 C -5 10 C -5 5 C
-10 5 C 88 0 3560 485 L 10 5 3696 523 L 14 15 C 0 -102 C 0 -97 3715 538 L 44 0 3696 441 L 88 0 3902 485 L 5 -5 4028 523 L -5 -4 C
-5 4 C 0 5 C 5 10 C 5 5 C 15 5 C 19 0 C 15 -5 C 4 -5 C 5 -10 C 0 -9 C -5 -10 C -14 -10 C -24 -9 C -10 -5 C -10 -10 C -5 -15 C
0 -14 C 10 -5 4067 543 L 5 -5 C 4 -10 C 0 -9 C -4 -10 C -15 -10 C -19 -9 C 5 4 4023 451 L 10 0 C 24 -9 C 15 0 C 9 5 C 5 4 C
24 -14 4038 455 L 20 0 C 4 5 C 5 9 C 0 10 C 73 0 2535 752 L 73 0 2535 1361 L 73 0 2535 1970 L 73 0 2535 2579 L 72 0 4093 752 L
72 0 4093 1361 L 72 0 4093 1970 L 72 0 4093 2579 L
1024 0 0 K 0 0 2535 890 L 23 17 C 23 19 C 23 24 C 23 26 C 22 31 C 23 35 C 23 38 C 23 40 C 23 42 C 22 44 C 23 45 C 23 46 C 23 48 C
23 50 C 22 54 C 23 57 C 23 61 C 23 62 C 23 62 C 22 62 C 23 59 C 23 56 C 23 52 C 23 48 C 22 45 C 23 43 C 23 41 C 23 40 C 23 37 C
22 33 C 23 25 C 23 13 C 23 -2 C 23 -20 C 22 -39 C 23 -58 C 23 -72 C 23 -83 C 22 -88 C 23 -86 C 23 -80 C 23 -69 C 23 -57 C 22 -44 C
23 -31 C 23 -20 C 23 -11 C 23 -5 C 22 -1 C 23 4 C 23 6 C 23 9 C 23 11 C 22 13 C 23 15 C 23 16 C 23 17 C 23 18 C 22 20 C 23 20 C
23 21 C 23 21 C 23 21 C 22 19 C 23 18 C 23 14 C 23 12 C 23 8 C 22 6 C 23 3 C 23 2 C 11 1 C
0 0 0 K 7 4 2556 2996 L 10 10 C 0 -71 C 0 -68 2569 3007 L 30 0 2556 2939 L 0 -20 2613 3010 L 4 7 2613 2996 L 7 7 C 6 0 C 17 -10 C
7 0 C 4 3 C 3 7 C 7 4 2617 3003 L 6 0 C 17 -7 C 0 -10 2661 3010 L -3 -10 C -14 -17 C -3 -7 C -4 -10 C 0 -17 C -17 -17 2658 2990 L
-4 -7 C -3 -10 C 0 -17 C 0 -64 2712 3003 L 0 -71 2715 3010 L -37 -51 2715 3010 L 54 0 C 23 0 2702 2939 L -10 -3 2766 3010 L -3 -7 C
0 -10 C 3 -7 C 10 -4 C 14 0 C 10 4 C 3 7 C 0 10 C -3 7 C -10 3 C -14 0 C -7 -3 C -3 -7 C 0 -10 C 3 -7 C 7 -4 C 6 4 2780 2979 L 4 7 C
0 10 C -4 7 C -6 3 C -10 -3 2766 2979 L -3 -3 C -4 -7 C 0 -14 C 4 -6 C 3 -4 C 10 -3 C 14 0 C 10 3 C 3 4 C 4 6 C 0 14 C -4 7 C -3 3 C
-10 3 C -7 -3 2766 2979 L -3 -3 C -3 -7 C 0 -14 C 3 -6 C 3 -4 C 7 -3 C 6 3 2780 2939 L 4 4 C 3 6 C 0 14 C -3 7 C -4 3 C -6 3 C
7 4 2827 2996 L 10 10 C 0 -71 C 0 -68 2841 3007 L 31 0 2827 2939 L 0 -71 2892 3010 L 20 -61 2895 3010 L 23 -71 2892 3010 L
-24 -71 2939 3010 L 0 -71 2939 3010 L 0 -71 2942 3010 L 14 0 2881 3010 L 14 0 2939 3010 L 21 0 2881 2939 L 24 0 2929 2939 L
0 -71 2976 3010 L 0 -71 2980 3010 L 0 -71 3020 3010 L 0 -71 3024 3010 L 24 0 2966 3010 L 24 0 3010 3010 L 40 0 2980 2976 L
24 0 2966 2939 L 24 0 3010 2939 L -37 -47 3088 2986 L -38 -47 3092 2986 L -3 -13 3054 2986 L 0 13 C 41 0 C 41 0 3051 2939 L 0 13 C
-4 -13 C -10 -3 3190 2986 L -7 -7 C -3 -7 C -4 -10 C 0 -10 C 4 -7 C 10 -3 C 7 0 C 6 3 C 11 10 C 6 11 C 7 13 C 4 10 C
-7 -3 3190 2986 L -7 -7 C -3 -7 C -3 -10 C 0 -10 C 3 -7 C 7 -3 C 7 0 3190 2986 L 7 -3 C 3 -7 C 7 -27 C 3 -7 C 4 -3 C
3 -3 3197 2986 L 4 -7 C 6 -27 C 4 -7 C 7 -3 C 3 0 C 61 0 3248 2979 L 61 0 3248 2959 L 6 4 3343 2996 L 11 10 C 0 -71 C
0 -68 3356 3007 L 30 0 3343 2939 L -3 -4 3407 2946 L 3 -3 C 4 3 C -4 4 C -3 -4 3475 3000 L 3 -3 C 3 3 C 0 4 C -3 7 C -7 3 C -10 0 C
-10 -3 C -7 -7 C -3 -7 C -4 -14 C 0 -20 C 4 -10 C 6 -7 C 11 -3 C 6 0 C 11 3 C 6 7 C 4 10 C 0 4 C -4 10 C -6 6 C -11 4 C -3 0 C
-10 -4 C -7 -6 C -3 -10 C -7 -3 3458 3010 L -7 -7 C -3 -7 C -3 -14 C 0 -20 C 3 -10 C 7 -7 C 7 -3 C 7 3 3461 2939 L 7 7 C 3 10 C
0 4 C -3 10 C -7 6 C -7 4 C
0 1024 0 K 0 0 2535 946 L 23 6 C 23 7 C 23 8 C 23 9 C 22 10 C 23 10 C 23 13 C 23 15 C 23 17 C 22 20 C 23 24 C 23 28 C 23 32 C
23 37 C 22 41 C 23 46 C 23 49 C 23 54 C 23 57 C 22 60 C 23 64 C 23 67 C 23 70 C 23 72 C 22 75 C 23 76 C 23 74 C 23 72 C 23 65 C
22 56 C 23 43 C 23 27 C 23 8 C 23 -11 C 22 -31 C 23 -48 C 23 -61 C 23 -70 C 22 -75 C 23 -74 C 23 -71 C 23 -64 C 23 -57 C 22 -48 C
23 -38 C 23 -30 C 23 -22 C 23 -16 C 22 -10 C 23 -6 C 23 -3 C 23 -1 C 23 1 C 22 1 C 23 2 C 23 2 C 23 3 C 23 3 C 22 4 C 23 5 C 23 6 C
23 7 C 23 9 C 22 12 C 23 13 C 23 14 C 23 16 C 23 17 C 22 18 C 23 17 C 23 17 C 11 8 C
0 0 0 K 1024 0 0 K 0 0 2535 762 L 3 1 C 1 0 2557 768 L 2 1 C 3 0 2578 772 L 3 0 2600 774 L 3 0 2622 774 L 3 0 2644 772 L
3 0 2666 770 L 3 0 2688 767 L 3 -1 2710 765 L 3 -1 2732 762 L 3 0 2754 759 L 3 0 2776 757 L 3 0 2798 755 L 3 0 2820 753 L
3 0 2842 752 L 3 0 2864 751 L 3 -1 2886 751 L 3 0 2908 750 L 3 0 2930 750 L 3 0 2952 750 L 3 0 2974 750 L 3 0 2996 750 L
3 0 3018 750 L 3 0 3040 750 L 3 0 3062 750 L 3 0 3084 749 L 3 0 3106 749 L 3 0 3128 749 L 1 0 3150 749 L 2 1 C 2 0 3172 750 L 2 0 C
3 0 3194 750 L 1 0 C 3 0 3216 751 L 1 0 C 4 0 3238 751 L 3 0 3261 751 L 3 0 3283 751 L 3 0 3305 751 L 3 0 3327 751 L 3 0 3349 751 L
3 0 3371 751 L 3 0 3393 750 L 3 0 3415 750 L 3 0 3437 750 L 3 0 3459 751 L 3 0 3481 751 L 3 0 3503 752 L 3 0 3525 752 L
3 0 3547 753 L 3 0 3569 754 L 3 0 3591 754 L 3 0 3613 754 L 3 0 3635 754 L 4 0 3657 754 L 4 0 3679 753 L 4 0 3701 752 L
3 0 3724 752 L 3 0 3746 751 L 3 0 3768 750 L 3 0 3790 750 L 0 0 3812 750 L 3 0 C 1 0 3834 751 L 2 0 C 2 0 3856 752 L 1 0 C
2 0 3878 753 L 1 0 C 3 0 3900 754 L 3 0 3922 755 L 3 0 3944 756 L 3 0 3966 757 L 3 0 3988 757 L 3 0 4010 756 L 3 0 4032 755 L
3 0 4054 753 L 3 0 4076 751 L 3 0 4098 749 L 3 0 4120 747 L 3 0 4142 745 L 1 0 4164 744 L
0 0 0 K 1024 0 0 K 0 0 2535 957 L 15 -28 C 15 -22 2566 902 L 4 -3 C 15 1 2612 864 L 16 5 C 21 -7 2674 870 L 8 -5 C 11 -7 2730 841 L
15 -10 C 2 -2 2784 809 L 23 -8 C 4 -1 C 11 -2 2844 791 L 20 -3 C 17 -3 2906 782 L 14 -3 C 1 0 2968 769 L 22 -3 C 8 0 C
7 1 3030 769 L 23 4 C 2 0 C 12 0 3093 775 L 19 -1 C 18 -1 3156 771 L 13 1 C 0 0 3219 774 L 23 4 C 8 0 C 7 0 3281 779 L 23 -3 C 1 0 C
13 -2 3343 770 L 19 2 C 19 6 3405 779 L 12 1 C 3 0 3467 788 L 23 -3 C 5 -2 C 10 -4 3528 774 L 20 -5 C 17 2 3590 764 L 14 1 C
0 0 3652 768 L 23 -1 C 9 -1 C 6 -1 3715 765 L 23 -1 C 3 0 C 11 1 3778 764 L 21 1 C 17 0 3841 765 L 14 4 C 4 3 3899 784 L 21 17 C
0 0 3949 824 L 23 14 C 3 2 C 11 -1 4006 845 L 18 -10 C 5 -5 4058 813 L 15 -19 C 3 -1 4105 774 L 19 22 C 7 7 4147 819 L 11 12 C
0 0 0 K 0 0 1024 K 0 0 2535 938 L 23 8 C 7 2 C 10 4 2594 961 L 19 8 C 19 7 2653 984 L 10 4 C 7 3 2711 1009 L 20 13 C 0 1 2763 1044 L
22 21 C 3 4 2806 1089 L 17 21 C 12 18 2843 1140 L 4 9 C 3 6 2874 1195 L 11 22 C 12 29 2901 1252 L 12 29 2925 1310 L
12 29 2948 1369 L 12 29 2973 1427 L 11 30 2996 1485 L 10 30 3018 1544 L 10 30 3039 1604 L 1 3 3059 1664 L 7 27 C 7 23 3076 1724 L
2 7 C 9 30 3093 1785 L 9 31 3111 1845 L 9 30 3128 1906 L 6 21 3145 1966 L 2 10 C 8 31 3161 2027 L 7 31 3177 2088 L 5 20 3192 2150 L
2 10 C 8 31 3206 2211 L 9 31 3221 2272 L 4 16 3238 2333 L 5 14 C 8 22 3257 2393 L 5 6 C 19 -19 3292 2435 L 1 -4 C 11 -30 3322 2382 L
8 -31 3341 2322 L 6 -31 3357 2261 L 6 -31 3369 2199 L 7 -31 3381 2137 L 6 -31 3395 2076 L 7 -31 3408 2014 L 1 -8 3423 1953 L 6 -23 C
7 -31 3438 1892 L 8 -31 3454 1831 L 9 -30 3471 1770 L 4 -11 3489 1710 L 7 -19 C 5 -13 3511 1650 L 7 -15 C 1 -3 3537 1593 L 16 -23 C
10 -8 3574 1543 L 17 -8 C 20 -2 3632 1520 L 11 -1 C 4 0 3694 1514 L 23 1 C 5 0 C 9 2 3757 1521 L 22 4 C 16 3 3819 1532 L 15 -1 C
22 0 3881 1533 L 10 2 C 6 2 3943 1544 L 22 12 C 18 9 3999 1573 L 10 5 C 10 8 4053 1604 L 14 12 C 8 9 4100 1647 L 13 14 C
10 9 4144 1692 L 11 9 C
0 0 0 K 1630 0 4165 630 L 0 2205 C -1630 0 C 0 -2205 C 0 73 4511 630 L 0 73 4882 630 L 0 73 5252 630 L 0 73 5622 630 L
0 73 4511 2762 L 0 73 4882 2762 L 0 73 5252 2762 L 0 73 5622 2762 L 9 5 4492 523 L 15 15 C 0 -102 C 0 -97 4511 538 L 43 0 4492 441 L
-15 -5 4877 543 L -10 -15 C -4 -24 C 0 -14 C 4 -25 C 10 -14 C 15 -5 C 9 0 C 15 5 C 10 14 C 4 25 C 0 14 C -4 24 C -10 15 C -15 5 C
-9 0 C -10 -5 C -5 -5 C -5 -10 C -5 -24 C 0 -14 C 5 -25 C 5 -9 C 5 -5 C 10 -5 C 10 5 4886 441 L 5 5 C 5 9 C 5 25 C 0 14 C -5 24 C
-5 10 C -5 5 C -10 5 C 87 0 5160 485 L 9 5 5296 523 L 15 15 C 0 -102 C 0 -97 5315 538 L 43 0 5296 441 L 88 0 5530 485 L
5 -5 5656 523 L -5 -4 C -5 4 C 0 5 C 5 10 C 5 5 C 15 5 C 19 0 C 15 -5 C 4 -5 C 5 -10 C 0 -9 C -5 -10 C -14 -10 C -24 -9 C -10 -5 C
-10 -10 C -5 -15 C 0 -14 C 10 -5 5695 543 L 5 -5 C 4 -10 C 0 -9 C -4 -10 C -15 -10 C -19 -9 C 5 4 5651 451 L 10 0 C 24 -9 C 15 0 C
9 5 C 5 4 C 24 -14 5666 455 L 20 0 C 4 5 C 5 9 C 0 10 C 73 0 4165 752 L 73 0 4165 1361 L 73 0 4165 1970 L 73 0 4165 2579 L
72 0 5723 752 L 72 0 5723 1361 L 72 0 5723 1970 L 72 0 5723 2579 L
1024 0 0 K 0 0 4165 973 L 25 24 C 25 25 C 24 27 C 25 31 C 25 35 C 25 40 C 24 43 C 25 46 C 25 51 C 24 54 C 25 58 C 25 62 C 24 64 C
25 66 C 25 65 C 24 64 C 25 64 C 25 63 C 25 63 C 24 62 C 25 61 C 25 58 C 24 55 C 25 52 C 25 47 C 24 41 C 25 29 C 25 13 C 25 -6 C
24 -31 C 25 -55 C 25 -77 C 24 -95 C 25 -104 C 25 -105 C 24 -99 C 25 -85 C 25 -68 C 24 -50 C 25 -32 C 25 -16 C 25 -4 C 24 5 C 25 9 C
25 12 C 24 14 C 25 13 C 25 15 C 24 15 C 25 15 C 25 13 C 25 11 C 24 7 C 25 2 C 25 -2 C 24 -4 C 25 -7 C 25 -6 C 24 -5 C 25 -4 C
25 -2 C 24 2 C 25 5 C 25 7 C 25 9 C 24 7 C
0 0 0 K 3 -3 4179 2996 L -3 -3 C -3 3 C 0 3 C 3 7 C 3 4 C 10 3 C 14 0 C 10 -3 C 4 -4 C 3 -7 C 0 -6 C -3 -7 C -11 -7 C -17 -7 C
-6 -3 C -7 -7 C -3 -10 C 0 -10 C 7 -3 4206 3010 L 3 -4 C 4 -7 C 0 -6 C -4 -7 C -10 -7 C -14 -7 C 3 3 4176 2946 L 7 0 C 17 -7 C
10 0 C 7 4 C 3 3 C 17 -10 4186 2949 L 13 0 C 4 3 C 3 7 C 0 7 C -10 -3 4264 3010 L -7 -11 C -4 -17 C 0 -10 C 4 -17 C 7 -10 C 10 -3 C
7 0 C 10 3 C 6 10 C 4 17 C 0 10 C -4 17 C -6 11 C -10 3 C -7 0 C -7 -3 C -3 -4 C -4 -7 C -3 -17 C 0 -10 C 3 -17 C 4 -6 C 3 -4 C
7 -3 C 6 3 4271 2939 L 4 4 C 3 6 C 3 17 C 0 10 C -3 17 C -3 7 C -4 4 C -6 3 C 7 4 4321 2996 L 10 10 C 0 -71 C 0 -68 4335 3007 L
31 0 4321 2939 L -4 -4 4420 3000 L 4 -3 C 3 3 C 0 4 C -3 7 C -7 3 C -10 0 C -10 -3 C -7 -7 C -4 -7 C -3 -14 C 0 -20 C 3 -10 C 7 -7 C
10 -3 C 7 0 C 10 3 C 7 7 C 4 10 C 0 4 C -4 10 C -7 6 C -10 4 C -3 0 C -10 -4 C -7 -6 C -4 -10 C -7 -3 4403 3010 L -7 -7 C -3 -7 C
-4 -14 C 0 -20 C 4 -10 C 7 -7 C 6 -3 C 7 3 4406 2939 L 7 7 C 3 10 C 0 4 C -3 10 C -7 6 C -7 4 C -10 -3 4467 3010 L -7 -11 C -3 -17 C
0 -10 C 3 -17 C 7 -10 C 10 -3 C 7 0 C 10 3 C 7 10 C 3 17 C 0 10 C -3 17 C -7 11 C -10 3 C -7 0 C -7 -3 C -3 -4 C -3 -7 C -4 -17 C
0 -10 C 4 -17 C 3 -6 C 3 -4 C 7 -3 C 7 3 4474 2939 L 3 4 C 4 6 C 3 17 C 0 10 C -3 17 C -4 7 C -3 4 C -7 3 C 0 -71 4522 3010 L
20 -61 4525 3010 L 23 -71 4522 3010 L -24 -71 4569 3010 L 0 -71 4569 3010 L 0 -71 4572 3010 L 14 0 4511 3010 L 14 0 4569 3010 L
21 0 4511 2939 L 24 0 4559 2939 L 0 -71 4606 3010 L 0 -71 4610 3010 L 0 -71 4650 3010 L 0 -71 4654 3010 L 24 0 4596 3010 L
24 0 4640 3010 L 40 0 4610 2976 L 24 0 4596 2939 L 24 0 4640 2939 L -37 -47 4718 2986 L -38 -47 4722 2986 L -3 -13 4684 2986 L
0 13 C 41 0 C 41 0 4681 2939 L 0 13 C -4 -13 C -10 -3 4820 2986 L -7 -7 C -3 -7 C -4 -10 C 0 -10 C 4 -7 C 10 -3 C 7 0 C 6 3 C
11 10 C 6 11 C 7 13 C 4 10 C -7 -3 4820 2986 L -7 -7 C -3 -7 C -3 -10 C 0 -10 C 3 -7 C 7 -3 C 7 0 4820 2986 L 7 -3 C 3 -7 C 7 -27 C
3 -7 C 4 -3 C 3 -3 4827 2986 L 4 -7 C 6 -27 C 4 -7 C 7 -3 C 3 0 C 61 0 4878 2979 L 61 0 4878 2959 L 3 -3 4966 2996 L -3 -3 C -4 3 C
0 3 C 4 7 C 3 4 C 10 3 C 14 0 C 10 -3 C 4 -7 C 0 -10 C -4 -7 C -10 -4 C -10 0 C 7 -3 4993 3010 L 3 -7 C 0 -10 C -3 -7 C -7 -4 C
7 -3 C 7 -7 C 3 -6 C 0 -11 C -3 -6 C -4 -4 C -10 -3 C -14 0 C -10 3 C -3 4 C -4 6 C 0 4 C 4 3 C 3 -3 C -3 -4 C 4 -10 5003 2973 L
0 -11 C -4 -6 C -3 -4 C -7 -3 C -3 -4 5037 2946 L 3 -3 C 3 3 C -3 4 C 7 4 5074 2996 L 10 10 C 0 -71 C 0 -68 5088 3007 L
31 0 5074 2939 L
0 1024 0 K 0 0 4165 991 L 25 11 C 25 12 C 24 15 C 25 16 C 25 20 C 25 23 C 24 28 C 25 33 C 25 37 C 24 42 C 25 48 C 25 51 C 24 55 C
25 59 C 25 63 C 24 65 C 25 70 C 25 72 C 25 76 C 24 79 C 25 80 C 25 80 C 24 78 C 25 73 C 25 63 C 24 51 C 25 32 C 25 10 C 25 -14 C
24 -36 C 25 -56 C 25 -70 C 24 -79 C 25 -83 C 25 -82 C 24 -77 C 25 -69 C 25 -59 C 24 -49 C 25 -39 C 25 -29 C 25 -21 C 24 -13 C
25 -9 C 25 -4 C 24 -2 C 25 0 C 25 1 C 24 2 C 25 2 C 25 2 C 25 2 C 24 3 C 25 3 C 25 4 C 24 6 C 25 8 C 25 10 C 24 11 C 25 14 C 25 15 C
24 17 C 25 18 C 25 18 C 25 19 C 24 18 C
0 0 0 K 1024 0 0 K 3 1 4165 749 L 3 1 4186 756 L 3 0 4208 761 L 3 0 4230 763 L 3 0 4252 763 L 3 0 4274 762 L 3 0 4296 761 L
3 0 4318 760 L 3 0 4340 759 L 1 0 4362 758 L 2 0 C 3 0 4384 757 L 3 0 4406 756 L 3 -1 4428 755 L 3 0 4450 753 L 3 0 4472 752 L
3 0 4494 751 L 3 0 4516 750 L 3 0 4538 749 L 0 0 4560 749 L 3 0 C 3 0 4582 749 L 3 0 4604 749 L 3 1 4626 749 L 3 0 4648 750 L
3 0 4670 751 L 4 0 4692 751 L 4 0 4714 752 L 4 0 4736 753 L 3 0 4759 753 L 2 0 4781 754 L 1 0 C 3 0 4803 754 L 3 0 4825 754 L
3 0 4847 754 L 3 0 4869 754 L 3 0 4891 753 L 3 0 4913 752 L 3 -1 4935 752 L 3 0 4957 751 L 1 0 4979 750 L 2 0 C 3 0 5001 750 L
3 0 5023 750 L 3 0 5045 751 L 3 0 5067 751 L 3 0 5089 752 L 3 0 5111 752 L 3 0 5133 752 L 3 0 5155 752 L 1 0 5177 752 L 3 0 C
4 0 5199 751 L 4 0 5221 750 L 4 0 5243 750 L 3 0 5266 749 L 3 -1 5288 749 L 3 0 5310 748 L 3 0 5332 747 L 3 0 5354 747 L
3 0 5376 746 L 2 0 5398 746 L 1 0 C 3 0 5420 747 L 3 0 5442 748 L 3 0 5464 749 L 3 0 5486 751 L 3 1 5508 752 L 3 0 5530 754 L
3 0 5552 756 L 3 1 5574 757 L 2 1 5596 759 L 1 0 C 3 0 5618 762 L 4 1 5639 765 L 3 1 5661 769 L 3 1 5683 773 L 4 0 5704 778 L
3 1 5726 781 L 3 0 5748 783 L 1 0 5770 781 L 2 -1 C 3 -1 5791 773 L
0 0 0 K 1024 0 0 K 9 -30 4165 989 L 7 -22 4183 929 L 3 -8 C 10 -23 4205 870 L 6 -2 C 13 6 4251 842 L 17 3 C 2 0 4312 849 L 24 -10 C
3 -2 C 19 -9 4369 823 L 9 -5 C 11 -5 4426 795 L 19 -4 C 24 -2 4487 783 L 7 0 C 10 1 4550 780 L 21 4 C 23 -1 4612 790 L 8 -2 C
11 -4 4673 779 L 20 -1 C 23 3 4735 778 L 9 0 C 9 -1 4798 780 L 22 -3 C 21 1 4861 776 L 10 0 C 7 0 4924 776 L 24 -1 C 18 0 4987 776 L
13 1 C 4 0 5050 777 L 25 1 C 2 0 C 15 -1 5113 779 L 16 -1 C 3 0 5175 774 L 25 1 C 4 1 C 14 1 5238 780 L 17 -2 C 1 0 5300 772 L
25 -5 C 5 0 C 13 2 5362 770 L 19 1 C 25 2 5425 772 L 6 2 C 13 7 5486 787 L 14 9 C 10 7 5538 821 L 16 12 C 8 4 5590 857 L 21 7 C
22 6 5650 873 L 7 6 C 18 18 5703 905 L 6 3 C 17 -12 5754 930 L 9 5 C
0 0 0 K 0 0 1024 K 25 9 4165 982 L 5 2 C 15 7 4224 1005 L 13 7 C 11 8 4278 1037 L 14 12 C 13 14 4325 1079 L 8 9 C 18 26 4366 1127 L
12 21 4400 1180 L 4 6 C 7 14 4430 1235 L 6 14 C 6 13 4456 1292 L 7 16 C 5 13 4481 1350 L 8 16 C 4 9 4507 1408 L 9 19 C
3 7 4533 1465 L 9 22 C 4 11 4556 1523 L 8 19 C 6 17 4579 1582 L 5 13 C 9 26 4601 1641 L 1 4 C 9 30 4621 1701 L 9 30 4639 1761 L
1 5 4658 1822 L 8 25 C 7 23 4677 1882 L 2 7 C 9 30 4695 1942 L 8 31 4713 2002 L 3 13 4730 2063 L 5 17 C 8 30 4746 2124 L
8 30 4762 2185 L 5 18 4778 2246 L 3 12 C 9 31 4795 2306 L 11 30 4814 2366 L 17 17 4840 2423 L 5 -6 C 11 -29 4883 2411 L
1 -2 4905 2352 L 8 -28 C 8 -29 4923 2292 L 0 -2 C 7 -31 4938 2231 L 5 -20 4951 2169 L 2 -11 C 7 -31 4965 2108 L 1 -4 4979 2046 L
7 -26 C 7 -30 4995 1985 L 8 -30 5011 1924 L 3 -9 5027 1863 L 6 -21 C 9 -30 5045 1803 L 10 -30 5064 1743 L 12 -30 5085 1684 L
14 -28 5110 1626 L 11 -16 5142 1571 L 9 -7 C 15 -6 5188 1531 L 15 -3 C 3 0 5249 1518 L 25 -2 C 4 0 C 14 1 5312 1514 L 18 2 C
1 0 5374 1523 L 25 4 C 6 1 C 13 2 5437 1533 L 18 -1 C 25 0 5499 1533 L 7 1 C 12 4 5561 1542 L 17 8 C 4 2 5618 1568 L 25 12 C
21 16 5675 1596 L 4 3 C 22 21 5724 1635 L 1 1 C 2 1 5769 1679 L 22 19 C
0 0 0 K 1630 0 5795 630 L 0 2205 C -1630 0 C 0 -2205 C 0 73 5847 630 L 0 73 6468 630 L 0 73 7089 630 L 0 73 5847 2762 L
0 73 6468 2762 L 0 73 7089 2762 L 9 5 5828 523 L 15 15 C 0 -102 C 0 -97 5847 538 L 43 0 5828 441 L -14 -5 6463 543 L -10 -15 C
-5 -24 C 0 -14 C 5 -25 C 10 -14 C 14 -5 C 10 0 C 14 5 C 10 14 C 5 25 C 0 14 C -5 24 C -10 15 C -14 5 C -10 0 C -10 -5 C -4 -5 C
-5 -10 C -5 -24 C 0 -14 C 5 -25 C 5 -9 C 4 -5 C 10 -5 C 9 5 6473 441 L 5 5 C 5 9 C 5 25 C 0 14 C -5 24 C -5 10 C -5 5 C -9 5 C
87 0 6997 485 L 10 5 7132 523 L 15 15 C 0 -102 C 0 -97 7152 538 L 44 0 7132 441 L 73 0 5795 752 L 73 0 5795 1361 L 73 0 5795 1970 L
73 0 5795 2579 L 72 0 7353 752 L 72 0 7353 1361 L 72 0 7353 1970 L 72 0 7353 2579 L
1024 0 0 K 0 0 5795 1264 L 26 45 C 26 35 C 26 26 C 26 22 C 26 17 C 26 17 C 25 17 C 26 20 C 26 22 C 26 27 C 26 31 C 26 35 C 26 41 C
25 43 C 26 47 C 26 49 C 26 49 C 26 51 C 26 51 C 26 51 C 26 54 C 25 54 C 26 56 C 26 54 C 26 51 C 26 46 C 26 39 C 26 28 C 26 17 C
25 4 C 26 -11 C 26 -26 C 26 -41 C 26 -56 C 26 -70 C 26 -81 C 26 -90 C 25 -95 C 26 -96 C 26 -94 C 26 -87 C 26 -78 C 26 -67 C 26 -57 C
26 -47 C 25 -37 C 26 -28 C 26 -22 C 26 -16 C 26 -10 C 26 -6 C 26 0 C 25 5 C 26 11 C 26 15 C 26 20 C 26 24 C 26 27 C 26 30 C 26 29 C
25 25 C 26 17 C 26 13 C
0 0 0 K 3 -3 5809 2996 L -3 -3 C -4 3 C 0 3 C 4 7 C 3 4 C 10 3 C 14 0 C 10 -3 C 4 -7 C 0 -10 C -4 -7 C -10 -4 C -10 0 C
7 -3 5836 3010 L 3 -7 C 0 -10 C -3 -7 C -7 -4 C 7 -3 C 7 -7 C 3 -6 C 0 -11 C -3 -6 C -4 -4 C -10 -3 C -14 0 C -10 3 C -3 4 C -4 6 C
0 4 C 4 3 C 3 -3 C -3 -4 C 4 -10 5846 2973 L 0 -11 C -4 -6 C -3 -4 C -7 -3 C 3 -3 5877 2996 L -3 -3 C -4 3 C 0 3 C 4 7 C 3 4 C
10 3 C 14 0 C 10 -3 C 3 -7 C 0 -10 C -3 -7 C -10 -4 C -10 0 C 7 -3 5904 3010 L 3 -7 C 0 -10 C -3 -7 C -7 -4 C 7 -3 C 6 -7 C 4 -6 C
0 -11 C -4 -6 C -3 -4 C -10 -3 C -14 0 C -10 3 C -3 4 C -4 6 C 0 4 C 4 3 C 3 -3 C -3 -4 C 3 -10 5914 2973 L 0 -11 C -3 -6 C -3 -4 C
-7 -3 C 7 4 5951 2996 L 10 10 C 0 -71 C 0 -68 5965 3007 L 31 0 5951 2939 L -7 -34 6016 3010 L 7 7 C 10 3 C 10 0 C 10 -3 C 7 -7 C
3 -10 C 0 -7 C -3 -10 C -7 -7 C -10 -3 C -10 0 C -10 3 C -4 4 C -3 6 C 0 4 C 3 3 C 4 -3 C -4 -4 C 7 -3 6036 2986 L 7 -7 C 3 -10 C
0 -7 C -3 -10 C -7 -7 C -7 -3 C 34 0 6016 3010 L 17 0 6016 3007 L 17 3 C 0 -20 6077 3010 L 3 7 6077 2996 L 7 7 C 7 0 C 17 -10 C
7 0 C 3 3 C 3 7 C 7 4 6080 3003 L 7 0 C 17 -7 C 0 -10 6124 3010 L -3 -10 C -14 -17 C -3 -7 C -3 -10 C 0 -17 C -17 -17 6121 2990 L
-3 -7 C -4 -10 C 0 -17 C 0 -71 6151 3010 L 20 -61 6155 3010 L 24 -71 6151 3010 L -24 -71 6199 3010 L 0 -71 6199 3010 L
0 -71 6202 3010 L 14 0 6141 3010 L 13 0 6199 3010 L 21 0 6141 2939 L 23 0 6189 2939 L 0 -71 6236 3010 L 0 -71 6240 3010 L
0 -71 6280 3010 L 0 -71 6284 3010 L 24 0 6226 3010 L 24 0 6270 3010 L 40 0 6240 2976 L 24 0 6226 2939 L 24 0 6270 2939 L
-37 -47 6348 2986 L -38 -47 6352 2986 L -3 -13 6314 2986 L 0 13 C 41 0 C 41 0 6311 2939 L 0 13 C -4 -13 C -10 -3 6450 2986 L -7 -7 C
-3 -7 C -4 -10 C 0 -10 C 4 -7 C 10 -3 C 7 0 C 6 3 C 10 10 C 7 11 C 7 13 C 3 10 C -7 -3 6450 2986 L -7 -7 C -3 -7 C -3 -10 C 0 -10 C
3 -7 C 7 -3 C 7 0 6450 2986 L 6 -3 C 4 -7 C 7 -27 C 3 -7 C 3 -3 C 3 -3 6457 2986 L 3 -7 C 7 -27 C 4 -7 C 6 -3 C 4 0 C
61 0 6508 2979 L 61 0 6508 2959 L 3 -3 6596 2996 L -3 -3 C -4 3 C 0 3 C 4 7 C 3 4 C 10 3 C 14 0 C 10 -3 C 3 -4 C 4 -7 C 0 -6 C
-4 -7 C -10 -7 C -17 -7 C -6 -3 C -7 -7 C -4 -10 C 0 -10 C 7 -3 6623 3010 L 3 -4 C 3 -7 C 0 -6 C -3 -7 C -10 -7 C -14 -7 C
4 3 6592 2946 L 7 0 C 17 -7 C 10 0 C 6 4 C 4 3 C 17 -10 6603 2949 L 13 0 C 3 3 C 4 7 C 0 7 C -3 -4 6667 2946 L 3 -3 C 3 3 C -3 4 C
-10 -3 6711 3010 L -3 -7 C 0 -10 C 3 -7 C 10 -4 C 14 0 C 10 4 C 3 7 C 0 10 C -3 7 C -10 3 C -14 0 C -7 -3 C -3 -7 C 0 -10 C 3 -7 C
7 -4 C 6 4 6725 2979 L 4 7 C 0 10 C -4 7 C -6 3 C -10 -3 6711 2979 L -3 -3 C -4 -7 C 0 -14 C 4 -6 C 3 -4 C 10 -3 C 14 0 C 10 3 C
3 4 C 4 6 C 0 14 C -4 7 C -3 3 C -10 3 C -7 -3 6711 2979 L -3 -3 C -3 -7 C 0 -14 C 3 -6 C 3 -4 C 7 -3 C 6 3 6725 2939 L 4 4 C 3 6 C
0 14 C -3 7 C -4 3 C -6 3 C
0 1024 0 K 0 0 5795 1309 L 26 33 C 26 33 C 26 34 C 26 36 C 26 37 C 26 39 C 25 40 C 26 43 C 26 44 C 26 47 C 26 47 C 26 49 C 26 49 C
25 50 C 26 51 C 26 51 C 26 52 C 26 51 C 26 50 C 26 48 C 26 42 C 25 36 C 26 28 C 26 16 C 26 4 C 26 -8 C 26 -21 C 26 -32 C 26 -42 C
25 -49 C 26 -54 C 26 -57 C 26 -57 C 26 -57 C 26 -55 C 26 -52 C 26 -49 C 25 -46 C 26 -43 C 26 -38 C 26 -34 C 26 -30 C 26 -25 C
26 -20 C 26 -17 C 25 -12 C 26 -9 C 26 -6 C 26 -5 C 26 -3 C 26 -2 C 26 -1 C 25 -1 C 26 0 C 26 0 C 26 1 C 26 1 C 26 2 C 26 1 C 26 2 C
25 2 C 26 1 C 26 2 C
0 0 0 K 1024 0 0 K 3 1 5795 733 L 3 1 5814 744 L 3 0 5835 751 L 3 0 5857 753 L 3 0 5879 752 L 3 0 5901 749 L 3 0 5922 744 L
3 -1 5944 740 L 3 0 5965 736 L 3 -1 5987 734 L 3 0 6009 732 L 3 0 6031 732 L 1 0 6053 733 L 2 0 C 3 0 6075 735 L 3 1 6097 737 L
3 0 6119 741 L 3 0 6141 745 L 3 0 6162 749 L 3 0 6184 753 L 3 0 6206 756 L 3 0 6228 758 L 3 0 6250 758 L 3 0 6272 758 L
3 0 6294 756 L 3 0 6316 754 L 1 0 6338 752 L 2 0 C 3 0 6360 750 L 3 0 6382 750 L 3 0 6404 750 L 3 1 6426 751 L 3 0 6448 754 L
3 0 6470 757 L 3 0 6491 760 L 1 0 C 3 0 6513 762 L 3 0 6535 764 L 3 0 6557 765 L 3 0 6579 765 L 3 -1 6601 764 L 3 -1 6623 762 L
3 -1 6645 759 L 3 0 6667 755 L 3 -1 6689 752 L 3 -1 6711 749 L 4 -1 6732 746 L 3 -1 6754 744 L 2 0 6776 742 L 2 0 C 4 0 6798 742 L
4 0 6820 743 L 4 0 6842 745 L 3 0 6864 747 L 3 1 6886 749 L 3 0 6908 752 L 3 0 6930 754 L 3 0 6952 755 L 3 0 6974 755 L
3 -1 6996 754 L 3 0 7018 752 L 3 -1 7040 750 L 1 0 7062 747 L 2 0 C 3 -1 7084 746 L 3 0 7106 744 L 3 0 7128 744 L 3 0 7150 744 L
3 0 7172 744 L 3 0 7194 745 L 2 0 7216 745 L 1 0 C 3 0 7238 745 L 4 0 7260 745 L 4 0 7282 746 L 4 0 7304 747 L 4 1 7326 748 L
4 0 7348 750 L 3 0 7370 751 L 1 0 C 3 0 7392 747 L 3 -1 7414 744 L
0 0 0 K 1024 0 0 K 6 -31 5795 1713 L 6 -31 5806 1651 L 3 -19 5818 1589 L 3 -12 C 7 -31 5831 1527 L 2 -11 5845 1466 L 6 -20 C
9 -30 5862 1405 L 12 -29 5882 1345 L 17 -26 5908 1289 L 1 -1 C 2 -1 5949 1242 L 22 -20 C 8 -10 5994 1197 L 9 -16 C 1 -2 6027 1144 L
13 -26 C 16 -27 6056 1088 L 16 -19 6090 1035 L 5 -4 C 19 -8 6138 996 L 10 -5 C 16 -14 6193 965 L 6 -7 C 22 -23 6236 920 L
5 -5 6282 877 L 23 -9 C 23 -4 6341 857 L 8 -1 C 13 -1 6403 849 L 18 4 C 4 2 6464 862 L 26 7 C 21 -6 6525 870 L 8 -6 C
15 -8 6582 843 L 14 -3 C 8 2 6641 836 L 21 11 C 3 1 6698 863 L 26 9 C 1 0 C 19 -2 6759 876 L 12 -3 C 11 -5 6819 859 L 19 -5 C
2 1 6880 853 L 23 17 C 4 3 6930 891 L 24 11 C 22 0 6989 910 L 9 2 C 14 10 7049 924 L 11 9 C 16 9 7099 961 L 14 1 C 8 -4 7158 963 L
21 -10 C 2 1 7216 955 L 15 25 C 12 29 7247 1009 L 11 29 7271 1068 L 2 4 7294 1126 L 13 24 C 18 26 7323 1182 L 11 30 7354 1236 L
5 31 7374 1296 L 5 31 7384 1358 L 4 32 7394 1420 L 4 31 7402 1483 L 3 32 7410 1545 L 4 31 7417 1608 L 0 4 7425 1670 L
0 0 0 K 0 0 1024 K 19 26 5795 1330 L 14 19 5833 1381 L 5 6 C 2 2 5871 1431 L 17 23 C 16 23 5909 1481 L 2 3 C 7 10 5944 1534 L
10 16 C 17 26 5978 1587 L 16 27 6012 1640 L 11 20 6043 1695 L 4 7 C 8 16 6072 1750 L 6 12 C 5 9 6101 1806 L 10 19 C 1 1 6131 1862 L
14 26 C 14 28 6161 1917 L 14 29 6189 1973 L 13 29 6216 2030 L 13 29 6242 2088 L 13 28 6267 2146 L 13 29 6292 2203 L
13 29 6317 2261 L 14 29 6344 2318 L 15 28 6373 2374 L 8 9 6408 2426 L 18 7 C 4 -2 6464 2438 L 19 -20 C 15 -26 6505 2391 L 0 -1 C
12 -23 6534 2335 L 2 -5 C 10 -23 6561 2278 L 3 -6 C 11 -30 6584 2220 L 10 -30 6605 2160 L 12 -29 6625 2100 L 13 -28 6649 2042 L
1 -2 6674 1985 L 11 -28 C 3 -8 6698 1926 L 9 -21 C 4 -7 6723 1869 L 10 -22 C 2 -3 6751 1812 L 13 -25 C 16 -27 6780 1756 L
17 -27 6811 1701 L 10 -14 6846 1649 L 9 -11 C 22 -22 6886 1600 L 1 -1 6933 1558 L 26 -15 C 22 -5 6989 1531 L 9 -2 C
12 -1 7051 1521 L 20 -1 C 1 0 7114 1517 L 26 -1 C 5 0 C 15 0 7177 1514 L 17 0 C 4 1 7240 1515 L 26 1 C 2 1 C 19 3 7303 1521 L 12 1 C
8 1 7365 1528 L 24 2 C
0 0 0 K 1630 0 7425 630 L -1630 0 9055 2835 L 0 -2205 C 0 73 7740 630 L 0 73 8083 630 L 0 73 8426 630 L 0 73 8769 630 L
0 73 7740 2762 L 0 73 8083 2762 L 0 73 8426 2762 L 0 73 8769 2762 L -14 -5 7662 543 L -10 -15 C -5 -24 C 0 -14 C 5 -25 C 10 -14 C
14 -5 C 10 0 C 14 5 C 10 14 C 5 25 C 0 14 C -5 24 C -10 15 C -14 5 C -10 0 C -9 -5 C -5 -5 C -5 -10 C -5 -24 C 0 -14 C 5 -25 C
5 -9 C 5 -5 C 9 -5 C 10 5 7672 441 L 4 5 C 5 9 C 5 25 C 0 14 C -5 24 C -5 10 C -4 5 C -10 5 C -5 -5 7740 451 L 5 -5 C 5 5 C -5 5 C
-9 -49 7788 543 L 9 10 C 15 5 C 14 0 C 15 -5 C 10 -10 C 4 -14 C 0 -10 C -4 -15 C -10 -9 C -15 -5 C -14 0 C -15 5 C -5 5 C -4 9 C
0 5 C 4 5 C 5 -5 C -5 -5 C 10 -5 7817 509 L 10 -10 C 5 -14 C 0 -10 C -5 -15 C -10 -9 C -10 -5 C 49 0 7788 543 L 24 0 7788 538 L
25 5 C -14 -5 8078 543 L -10 -15 C -5 -24 C 0 -14 C 5 -25 C 10 -14 C 14 -5 C 10 0 C 14 5 C 10 14 C 5 25 C 0 14 C -5 24 C -10 15 C
-14 5 C -10 0 C -10 -5 C -4 -5 C -5 -10 C -5 -24 C 0 -14 C 5 -25 C 5 -9 C 4 -5 C 10 -5 C 9 5 8088 441 L 5 5 C 5 9 C 5 25 C 0 14 C
-5 24 C -5 10 C -5 5 C -9 5 C 87 0 8261 485 L -14 -5 8411 543 L -10 -15 C -5 -24 C 0 -14 C 5 -25 C 10 -14 C 14 -5 C 10 0 C 15 5 C
9 14 C 5 25 C 0 14 C -5 24 C -9 15 C -15 5 C -10 0 C -9 -5 C -5 -5 C -5 -10 C -5 -24 C 0 -14 C 5 -25 C 5 -9 C 5 -5 C 9 -5 C
10 5 8421 441 L 5 5 C 5 9 C 4 25 C 0 14 C -4 24 C -5 10 C -5 5 C -10 5 C -5 -5 8489 451 L 5 -5 C 5 5 C -5 5 C -9 -49 8537 543 L
9 10 C 15 5 C 15 0 C 14 -5 C 10 -10 C 5 -14 C 0 -10 C -5 -15 C -10 -9 C -14 -5 C -15 0 C -15 5 C -4 5 C -5 9 C 0 5 C 5 5 C 4 -5 C
-4 -5 C 9 -5 8567 509 L 10 -10 C 5 -14 C 0 -10 C -5 -15 C -10 -9 C -9 -5 C 49 0 8537 543 L 25 0 8537 538 L 24 5 C 87 0 8677 485 L
9 5 8813 523 L 15 15 C 0 -102 C 0 -97 8832 538 L 43 0 8813 441 L 73 0 7425 752 L 73 0 7425 1361 L 73 0 7425 1970 L 73 0 7425 2579 L
73 0 8982 752 L 73 0 8982 1361 L 73 0 8982 1970 L 73 0 8982 2579 L
1024 0 0 K 0 0 7425 1278 L 29 73 C 28 42 C 29 -3 C 29 -39 C 28 -56 C 29 -50 C 28 -22 C 29 12 C 29 45 C 28 62 C 29 57 C 28 41 C
29 23 C 29 20 C 28 35 C 29 61 C 28 93 C 29 117 C 29 129 C 28 125 C 29 112 C 28 95 C 29 82 C 28 75 C 29 74 C 29 77 C 28 76 C 29 67 C
28 43 C 29 1 C 29 -53 C 28 -111 C 29 -156 C 28 -183 C 29 -186 C 29 -169 C 28 -147 C 29 -123 C 28 -110 C 29 -104 C 29 -101 C 28 -97 C
29 -83 C 28 -59 C 29 -28 C 29 6 C 28 35 C 29 52 C 28 52 C 29 36 C 29 14 C 28 -3 C 29 1 C 28 25 C 29 52 C 29 81 C 28 96 C
0 0 0 K 3 -3 7439 2996 L -3 -3 C -4 3 C 0 3 C 4 7 C 3 4 C 10 3 C 14 0 C 10 -3 C 3 -7 C 0 -10 C -3 -7 C -10 -4 C -10 0 C
7 -3 7466 3010 L 3 -7 C 0 -10 C -3 -7 C -7 -4 C 7 -3 C 6 -7 C 4 -6 C 0 -11 C -4 -6 C -3 -4 C -10 -3 C -14 0 C -10 3 C -3 4 C -4 6 C
0 4 C 4 3 C 3 -3 C -3 -4 C 3 -10 7476 2973 L 0 -11 C -3 -6 C -3 -4 C -7 -3 C -3 -10 7547 2986 L -7 -7 C -10 -3 C -3 0 C -11 3 C
-6 7 C -4 10 C 0 4 C 4 10 C 6 7 C 11 3 C 6 0 C 11 -3 C 6 -7 C 4 -10 C 0 -21 C -4 -13 C -3 -7 C -7 -7 C -10 -3 C -10 0 C -7 3 C
-3 7 C 0 3 C 3 4 C 3 -4 C -3 -3 C -7 3 7524 2966 L -7 7 C -3 10 C 0 4 C 3 10 C 7 7 C 7 3 C 7 -3 7530 3010 L 7 -7 C 3 -10 C 0 -21 C
-3 -13 C -3 -7 C -7 -7 C -7 -3 C 7 4 7581 2996 L 10 10 C 0 -71 C 0 -68 7595 3007 L 31 0 7581 2939 L -7 -34 7646 3010 L 7 7 C 10 3 C
10 0 C 10 -3 C 7 -7 C 3 -10 C 0 -7 C -3 -10 C -7 -7 C -10 -3 C -10 0 C -10 3 C -4 4 C -3 6 C 0 4 C 3 3 C 4 -3 C -4 -4 C
7 -3 7666 2986 L 7 -7 C 3 -10 C 0 -7 C -3 -10 C -7 -7 C -7 -3 C 34 0 7646 3010 L 17 0 7646 3007 L 17 3 C 0 -20 7707 3010 L
3 7 7707 2996 L 7 7 C 7 0 C 17 -10 C 6 0 C 4 3 C 3 7 C 7 4 7710 3003 L 7 0 C 17 -7 C 0 -10 7754 3010 L -3 -10 C -14 -17 C -3 -7 C
-4 -10 C 0 -17 C -17 -17 7751 2990 L -4 -7 C -3 -10 C 0 -17 C 0 -71 7781 3010 L 20 -61 7785 3010 L 24 -71 7781 3010 L
-24 -71 7829 3010 L 0 -71 7829 3010 L 0 -71 7832 3010 L 14 0 7771 3010 L 13 0 7829 3010 L 21 0 7771 2939 L 23 0 7819 2939 L
0 -71 7866 3010 L 0 -71 7870 3010 L 0 -71 7910 3010 L 0 -71 7914 3010 L 24 0 7856 3010 L 24 0 7900 3010 L 40 0 7870 2976 L
24 0 7856 2939 L 24 0 7900 2939 L -37 -47 7978 2986 L -37 -47 7981 2986 L -3 -13 7944 2986 L 0 13 C 40 0 C 40 0 7941 2939 L 0 13 C
-3 -13 C -10 -3 8080 2986 L -7 -7 C -4 -7 C -3 -10 C 0 -10 C 3 -7 C 11 -3 C 6 0 C 7 3 C 10 10 C 7 11 C 7 13 C 3 10 C
-7 -3 8080 2986 L -7 -7 C -3 -7 C -4 -10 C 0 -10 C 4 -7 C 7 -3 C 7 0 8080 2986 L 6 -3 C 4 -7 C 7 -27 C 3 -7 C 3 -3 C
3 -3 8087 2986 L 3 -7 C 7 -27 C 4 -7 C 6 -3 C 4 0 C 62 0 8137 2979 L 62 0 8137 2959 L 7 4 8232 2996 L 10 10 C 0 -71 C
0 -68 8246 3007 L 31 0 8232 2939 L -3 -4 8297 2946 L 3 -3 C 3 3 C -3 4 C 0 -64 8355 3003 L 0 -71 8358 3010 L -37 -51 8358 3010 L
54 0 C 24 0 8344 2939 L
0 1024 0 K 0 0 7425 1438 L 29 37 C 28 38 C 29 40 C 29 41 C 28 44 C 29 47 C 28 48 C 29 50 C 29 51 C 28 52 C 29 52 C 28 53 C 29 54 C
29 54 C 28 55 C 29 54 C 28 51 C 29 47 C 29 41 C 28 30 C 29 19 C 28 5 C 29 -9 C 28 -23 C 29 -36 C 29 -46 C 28 -54 C 29 -60 C 28 -61 C
29 -62 C 29 -60 C 28 -57 C 29 -55 C 28 -52 C 29 -48 C 29 -44 C 28 -41 C 29 -36 C 28 -31 C 29 -26 C 29 -21 C 28 -16 C 29 -13 C
28 -8 C 29 -7 C 29 -4 C 28 -3 C 29 -1 C 28 -2 C 29 -1 C 29 0 C 28 0 C 29 1 C 28 1 C 29 2 C 29 2 C 28 2 C
0 0 0 K 1024 0 0 K 1 2 7453 630 L 0 1 C 2 3 7462 650 L 1 3 7472 670 L 1 1 7481 690 L 1 1 C 2 2 7494 708 L 2 2 7507 726 L
2 2 7523 740 L 3 1 7541 753 L 3 1 7562 757 L 3 -1 7584 757 L 3 0 7606 753 L 4 0 7627 748 L 3 -1 7649 744 L 3 0 7671 742 L
3 0 7693 744 L 3 2 7714 748 L 3 1 7735 756 L 3 1 7755 765 L 3 1 7776 773 L 1 0 7796 781 L 2 1 C 3 1 7817 787 L 3 0 7839 791 L
3 -1 7861 792 L 3 -1 7883 790 L 4 -1 7904 785 L 3 -1 7926 778 L 3 -1 7946 771 L 2 -1 7967 762 L 3 -2 7987 754 L 3 -1 8007 745 L
3 -1 8028 738 L 4 -1 8049 733 L 4 0 8071 730 L 3 0 8093 731 L 3 1 8115 734 L 3 1 8137 739 L 3 1 8158 745 L 3 1 8179 750 L
3 0 8201 755 L 3 0 8223 757 L 3 0 8245 756 L 3 0 8267 754 L 3 -1 8289 751 L 2 0 8310 747 L 1 0 C 3 0 8332 744 L 3 0 8354 742 L
3 0 8376 740 L 3 0 8398 740 L 3 0 8420 740 L 3 1 8442 742 L 3 0 8464 746 L 3 1 8485 750 L 3 1 8507 756 L 3 1 8528 762 L
3 1 8549 769 L 3 1 8570 775 L 4 0 8591 780 L 3 1 8613 782 L 3 0 8635 783 L 3 0 8657 782 L 3 0 8679 779 L 3 -1 8701 776 L
3 0 8723 772 L 4 0 8744 768 L 3 -1 8766 764 L 3 -1 8787 757 L 3 -2 8807 749 L 2 -2 8827 739 L 3 -2 8845 726 L 2 -2 8863 713 L
2 -2 8880 699 L 3 -2 8896 684 L 3 -1 8913 670 L 3 -1 8933 660 L 3 0 8954 657 L 3 2 8975 660 L 3 2 8995 670 L 3 2 9010 686 L
2 1 9025 702 L 0 1 C 2 3 9037 720 L 1 3 9049 739 L
0 0 0 K 1024 0 0 K 0 0 7425 2055 L 2 -31 C 2 -31 7430 1992 L 2 -32 7434 1930 L 3 -32 7438 1867 L 2 -31 7443 1804 L 2 -31 7447 1741 L
3 -31 7451 1678 L 9 -31 7462 1617 L 2 -7 7480 1556 L 21 -13 C 17 -24 7523 1513 L 0 -3 C 11 -29 7552 1457 L 8 -31 7573 1398 L
8 -30 7589 1337 L 0 -1 C 8 -31 7604 1276 L 6 -27 7619 1214 L 1 -3 C 10 -30 7636 1154 L 23 -21 7660 1096 L 27 -8 7713 1067 L 4 -1 C
22 -1 7775 1055 L 9 -4 C 22 -22 7832 1035 L 1 -1 C 8 -10 7875 988 L 12 -14 C 22 -13 7918 943 L 6 -2 C 20 -2 7977 921 L 11 1 C
15 0 8039 920 L 16 -6 C 14 -11 8097 899 L 10 -9 C 25 -19 8144 857 L 23 22 8200 839 L 12 17 8242 885 L 8 8 C 1 2 8282 934 L 26 14 C
0 0 8340 946 L 26 -17 C 4 -2 8393 913 L 27 -3 C 28 3 8455 912 L 4 1 C 23 9 8517 922 L 7 3 C 21 0 8577 943 L 10 0 C 18 12 8637 951 L
6 8 C 3 4 8680 996 L 21 17 C 11 6 8730 1035 L 10 16 C 2 3 8767 1084 L 9 26 C 10 30 8787 1143 L 9 31 8807 1203 L 1 3 8825 1264 L
15 23 C 24 -18 8860 1307 L 0 -2 C 11 -29 8896 1258 L 18 -25 8923 1201 L 11 30 8953 1205 L 7 30 8973 1265 L 7 31 8987 1326 L
5 31 9000 1388 L 5 31 9010 1450 L 5 31 9020 1512 L 3 31 9028 1575 L 3 32 9033 1637 L 2 32 9039 1700 L 2 31 9044 1763 L
3 31 9049 1826 L 1 9 9054 1889 L
0 0 0 K 0 0 1024 K 21 24 7425 1433 L 17 22 7465 1482 L 3 3 C 8 12 7503 1532 L 10 14 C 1 0 7539 1584 L 18 25 C 17 27 7576 1635 L
16 27 7609 1688 L 0 1 C 13 23 7641 1743 L 2 4 C 11 17 7672 1798 L 5 10 C 6 11 7705 1852 L 10 16 C 3 5 7737 1906 L 12 22 C
0 1 7768 1961 L 15 26 C 14 28 7798 2016 L 14 29 7826 2072 L 1 2 7853 2129 L 13 27 C 3 5 7880 2186 L 11 23 C 3 8 7908 2243 L 11 20 C
4 9 7936 2299 L 10 19 C 4 5 7965 2355 L 13 22 C 22 22 8000 2408 L 4 1 8050 2444 L 26 -8 C 8 -8 8103 2417 L 11 -17 C 0 -1 8140 2366 L
15 -27 C 15 -28 8169 2310 L 11 -29 8198 2254 L 5 -12 8221 2196 L 6 -18 C 10 -30 8243 2137 L 13 -28 8267 2078 L 14 -28 8293 2021 L
13 -29 8320 1964 L 14 -28 8346 1907 L 15 -28 8375 1851 L 16 -28 8405 1796 L 17 -26 8437 1741 L 12 -18 8471 1688 L 6 -7 C
3 -3 8509 1638 L 18 -20 C 16 -15 8553 1593 L 8 -6 C 23 -13 8603 1555 L 5 -1 C 22 -5 8661 1531 L 9 -1 C 18 -1 8723 1521 L 13 -1 C
12 -1 8786 1518 L 19 0 C 6 0 8849 1515 L 25 -1 C 0 0 8912 1514 L 29 2 C 2 0 C 23 3 8975 1518 L 8 0 C 18 1 9037 1525 L
0 0 0 K
PGPLOT restore showpage
%%PageTrailer
%%PageBoundingBox: 52 24 678 236
 
%%Trailer
%%BoundingBox: 52 24 678 236
%%DocumentFonts: 
%%Pages: 1
%%EOF
