\relax 
\citation{kog96}
\citation{dav06}
\citation{lei97}
\citation{dra98}
\citation{fin04}
\citation{wat05}
\citation{cas06}
\citation{cas08}
\citation{sca09}
\citation{dic09}
\citation{vid10}
\citation{yv09}
\citation{cas08}
\@writefile{toc}{\contentsline {section}{\numberline {1}Introduction}{1}}
\@writefile{toc}{\contentsline {section}{\numberline {2}CABB Observations}{1}}
\newlabel{sec:cbiobs}{{2}{1}}
\@writefile{toc}{\contentsline {section}{\numberline {3}Local excitation of spinning dust}{1}}
\newlabel{sec:cbiobs}{{3}{1}}
\@writefile{lof}{\contentsline {figure}{\numberline {1}{\ignorespaces  Restored mosaic of six ATCA H75 pointings in $\rho $\nobreakspace  {}Oph\nobreakspace  {}W, and comparison with IR tracers. $x-$ and $y-$axis show offset RA and DEC from $\rho $\nobreakspace  {}Oph\nobreakspace  {}W (J2000 16h25m57s, -24d20m50s), in degrees of arc. {\bf  Blue contours}: ATCA H75 mosaic, over 2\nobreakspace  {}GHz bandwith, and centred on 20160\nobreakspace  {}MHz. Contour levels are at 0.0002, 0.0003, 0.0006, 0.0008, 0.001\nobreakspace  {}Jy\nobreakspace  {}beam$^{-1}$. {\bf  White contours}: MEM model of CBI visibilities, at 31\nobreakspace  {}GHz. The contour levels are at 0.067 ,0.107 ,0.140 ,0.170 and 0.197, in MJy\nobreakspace  {}sr$^{-1}$. {\bf  Red:} MIPS\nobreakspace  {}24\nobreakspace  {}$\mu $m. {\bf  Green:} IRAC\nobreakspace  {}8\nobreakspace  {}$\mu $m. {\bf  Blue:} 2MASS\nobreakspace  {}Ks band. }}{2}}
\newlabel{fig:ATCArgb}{{1}{2}}
\@writefile{lot}{\contentsline {table}{\numberline {1}{\ignorespaces Log of observations. We give the centred frequency of both CABB correlator IFs setting. Each IF counts 2048 channels. The spectral resolution is 1\nobreakspace  {}MHz.}}{2}}
\newlabel{table:log}{{1}{2}}
\citation{dra98}
\citation{cas08}
\citation{bro74a}
\citation{pan78}
\citation{pan78}
\citation{pan78}
\citation{cas08}
\@writefile{toc}{\contentsline {section}{\numberline {4}carbon RRL search}{3}}
\newlabel{sec:crrls}{{4}{3}}
\@writefile{toc}{\contentsline {section}{\numberline {5}Rough estimates of carbon RRL intensities in $\rho $\nobreakspace  {}Oph\nobreakspace  {}W}{3}}
\newlabel{sec:crrlsprev}{{5}{3}}
\@writefile{toc}{\contentsline {section}{\numberline {6}Previous carbon RRL searches}{3}}
\newlabel{sec:crrlsprev}{{6}{3}}
\@writefile{toc}{\contentsline {section}{\numberline {7}Potential targets for carbon RRL searches in cm-bright sources}{3}}
\bibcite{bro74a}{{1}{1974}{{Brown \& Knapp}}{{}}}
\bibcite{cas06}{{2}{2006}{{Casassus et al.}}{{}}}
\bibcite{cas08}{{3}{2008}{{Casassus et al.}}{{}}}
\bibcite{dav06}{{4}{2006}{{Davies et al. }}{{}}}
\bibcite{dic09}{{5}{2009}{{Dickinson et al. }}{{}}}
\bibcite{dra98}{{6}{1998a}{{Draine \& Lazarian}}{{}}}
\bibcite{dl98b}{{7}{1998b}{{Draine \& Lazarian}}{{}}}
\bibcite{fin04}{{8}{2004}{{Finkbeiner}}{{}}}
\bibcite{kog96}{{9}{1996}{{Kogut et al. }}{{}}}
\bibcite{lei97}{{10}{1997}{{Leitch et al.}}{{}}}
\bibcite{pan78}{{11}{1978}{{Pankonin \& Walmsley}}{{}}}
\bibcite{sca09}{{12}{2009}{{Scaife et al. }}{{}}}
\bibcite{vid10}{{13}{2010}{{Vidal et al. }}{{}}}
\bibcite{wat05}{{14}{2005}{{Watson et al. }}{{}}}
\newlabel{lastpage}{{7}{4}}
