This is BibTeX, Version 0.99d (TeX Live 2017)
Capacity: max_strings=100000, hash_size=100000, hash_prime=85009
The top-level auxiliary file: roph_cbi2.aux
The style file: mnras.bst
Database file #1: /Users/simon/common/texinputs/merged.bib.bib
You're missing a field part---line 1192 of file /Users/simon/common/texinputs/merged.bib.bib
 :     month = 
 :             ,
I'm skipping whatever remains of this entry
You're missing a field name---line 1702 of file /Users/simon/common/texinputs/merged.bib.bib
 : 
 : %   author = {{G{\"u}sten}, R. and {Baryshev}, A. and {Bell}, A. and {Belloche}, A. and
(Error may have been on previous line)
I'm skipping whatever remains of this entry
You're missing a field part---line 4737 of file /Users/simon/common/texinputs/merged.bib.bib
 :     month = 
 :             ,
I'm skipping whatever remains of this entry
Repeated entry---line 5012 of file /Users/simon/common/texinputs/merged.bib.bib
 : @article{2006ApJ...639..951C
 :                             ,
I'm skipping whatever remains of this entry
You're missing a field part---line 5933 of file /Users/simon/common/texinputs/merged.bib.bib
 :    volume = 
 :             ,
I'm skipping whatever remains of this entry
You're missing a field part---line 6099 of file /Users/simon/common/texinputs/merged.bib.bib
 :    volume = 
 :             ,
I'm skipping whatever remains of this entry
I was expecting a `,' or a `}'---line 6323 of file /Users/simon/common/texinputs/merged.bib.bib
 :    volume = in 
 :                prep,
I'm skipping whatever remains of this entry
You're missing a field part---line 6822 of file /Users/simon/common/texinputs/merged.bib.bib
 :     month = 
 :             ,
I'm skipping whatever remains of this entry
You're missing a field part---line 7099 of file /Users/simon/common/texinputs/merged.bib.bib
 :     month = 
 :             ,
I'm skipping whatever remains of this entry
You're missing a field part---line 7112 of file /Users/simon/common/texinputs/merged.bib.bib
 :     month = 
 :             ,
I'm skipping whatever remains of this entry
You're missing a field part---line 7127 of file /Users/simon/common/texinputs/merged.bib.bib
 :     month = 
 :             ,
I'm skipping whatever remains of this entry
I was expecting a `,' or a `}'---line 7249 of file /Users/simon/common/texinputs/merged.bib.bib
 : 
 : url = {http://www.ita.uni-heidelberg.de/ dullemond/software/radmc-3d/}
(Error may have been on previous line)
I'm skipping whatever remains of this entry
I was expecting a `,' or a `}'---line 7256 of file /Users/simon/common/texinputs/merged.bib.bib
 : 
 : url = {http://www.ita.uni-heidelberg.de/ dullemond/software/radmc-3d/}
(Error may have been on previous line)
I'm skipping whatever remains of this entry
I was expecting an "="---line 7438 of file /Users/simon/common/texinputs/merged.bib.bib
 :    
 :    eprint = {1410.8168},
(Error may have been on previous line)
I'm skipping whatever remains of this entry
You're missing a field part---line 7567 of file /Users/simon/common/texinputs/merged.bib.bib
 :   journal = 
 :             ,
I'm skipping whatever remains of this entry
You're missing a field part---line 7777 of file /Users/simon/common/texinputs/merged.bib.bib
 :    volume = 
 :             ,
I'm skipping whatever remains of this entry
You're missing a field name---line 7818 of file /Users/simon/common/texinputs/merged.bib.bib
 : 
 : %   author = {{Marino}, S. and {Casassus}, S. and {Perez}, S. and {Lyra}, W. and
(Error may have been on previous line)
I'm skipping whatever remains of this entry
You're missing a field name---line 7838 of file /Users/simon/common/texinputs/merged.bib.bib
 : 
 : %   author = {{Chapillon}, E. and {}, and {},  and {},  and
(Error may have been on previous line)
I'm skipping whatever remains of this entry
I was expecting a `,' or a `}'---line 9204 of file /Users/simon/common/texinputs/merged.bib.bib
 : 
 : @ARTICLE{Dong2015ApJ...809L...5D,
(Error may have been on previous line)
I'm skipping whatever remains of this entry
I was expecting an "="---line 9608 of file /Users/simon/common/texinputs/merged.bib.bib
 :    author = {{Carmona}, A. and {Pinte}, C. and {Thi}, W.~F. Benisty}, M. 
 :                                                                          and
I'm skipping whatever remains of this entry
Warning--I didn't find a database entry for "vid10"
Reallocated singl_function (elt_size=4) to 100 items from 50.
Reallocated singl_function (elt_size=4) to 100 items from 50.
You've used 16 entries,
            2881 wiz_defined-function locations,
            854 strings with 11086 characters,
and the built_in function-call counts, 7691 in all, are:
= -- 646
> -- 565
< -- 26
+ -- 245
- -- 88
* -- 1009
:= -- 1194
add.period$ -- 0
call.type$ -- 16
change.case$ -- 32
chr.to.int$ -- 14
cite$ -- 16
duplicate$ -- 354
empty$ -- 353
format.name$ -- 140
if$ -- 1313
int.to.chr$ -- 3
int.to.str$ -- 0
missing$ -- 16
newline$ -- 61
num.names$ -- 102
pop$ -- 76
preamble$ -- 1
purify$ -- 64
quote$ -- 0
skip$ -- 199
stack$ -- 0
substring$ -- 474
swap$ -- 188
text.length$ -- 64
text.prefix$ -- 0
top$ -- 0
type$ -- 144
warning$ -- 0
while$ -- 116
width$ -- 0
write$ -- 172
(There were 20 error messages)
