%!PS-Adobe-3.0 EPSF-3.0
%%For: simon
%%Title: PGPLOT PostScript plot
%%Creator: PGPLOT [PSDRIV 6.6]
%%CreationDate: 22-Jun-2010 22:50
%%BoundingBox: (atend)
%%DocumentFonts: (atend)
%%LanguageLevel: 1
%%Orientation: Portrait
%%Pages: (atend)
%%EndComments
%%BeginProlog
/L {moveto rlineto currentpoint stroke moveto} bind def
/C {rlineto currentpoint stroke moveto} bind def
/D {moveto 0 0 rlineto currentpoint stroke moveto} bind def
/LW {5 mul setlinewidth} bind def
/BP {newpath moveto} bind def
/LP /rlineto load def
/EP {rlineto closepath eofill} bind def
/MB {gsave translate MFAC dup scale 1 setlinewidth 2 setlinecap 0 setlinejoin newpath} bind def
/ME /grestore load def
/CC {0 360 arc stroke} bind def
/FC {0 360 arc fill} bind def
/G {1024 div setgray} bind def
/K {3 -1 roll 1024 div 3 -1 roll 1024 div 3 -1 roll 1024 div setrgbcolor} bind def
% Uncomment next line to convert color to grey shades
%/K {3 -1 roll 3413 div 3 -1 roll 1739 div 3 -1 roll 9309 div add add setgray} bind def
%%EndProlog
%%BeginSetup
/#copies 1 def
%%EndSetup
 
%%Page: 1 1
%%BeginPageSetup
/PGPLOT save def
0.072 0.072 scale
350 250 translate
1 setlinejoin 1 setlinecap 1 LW 1
%%EndPageSetup
%%PageBoundingBox: (atend)
0 0 0 K 1 LW 1629 0 906 630 L 0 2205 C -1629 0 C 0 -2205 C 0 73 1069 630 L 0 73 1720 630 L 0 73 2372 630 L 0 73 1069 2762 L
0 73 1720 2762 L 0 73 2372 2762 L 5 -5 1039 523 L -5 -4 C -4 4 C 0 5 C 4 10 C 5 5 C 15 5 C 19 0 C 15 -5 C 5 -5 C 4 -10 C 0 -9 C
-4 -10 C -15 -10 C -24 -9 C -10 -5 C -10 -10 C -4 -15 C 0 -14 C 10 -5 1078 543 L 5 -5 C 5 -10 C 0 -9 C -5 -10 C -15 -10 C -19 -9 C
4 4 1035 451 L 10 0 C 24 -9 C 15 0 C 10 5 C 4 4 C 24 -14 1049 455 L 20 0 C 5 5 C 4 9 C 0 10 C -15 -5 1716 543 L -10 -15 C -4 -24 C
0 -14 C 4 -25 C 10 -14 C 15 -5 C 9 0 C 15 5 C 10 14 C 4 25 C 0 14 C -4 24 C -10 15 C -15 5 C -9 0 C -10 -5 C -5 -5 C -5 -10 C
-5 -24 C 0 -14 C 5 -25 C 5 -9 C 5 -5 C 10 -5 C 10 5 1725 441 L 5 5 C 5 9 C 5 25 C 0 14 C -5 24 C -5 10 C -5 5 C -10 5 C
88 0 2280 485 L 5 -5 2406 523 L -5 -4 C -4 4 C 0 5 C 4 10 C 5 5 C 15 5 C 19 0 C 15 -5 C 5 -5 C 4 -10 C 0 -9 C -4 -10 C -15 -10 C
-24 -9 C -10 -5 C -10 -10 C -4 -15 C 0 -14 C 10 -5 2445 543 L 5 -5 C 5 -10 C 0 -9 C -5 -10 C -15 -10 C -19 -9 C 4 4 2402 451 L
10 0 C 24 -9 C 15 0 C 10 5 C 4 4 C 24 -14 2416 455 L 20 0 C 5 5 C 4 9 C 0 10 C 72 0 906 752 L 72 0 906 1361 L 72 0 906 1970 L
72 0 906 2579 L 72 0 2463 752 L 72 0 2463 1361 L 72 0 2463 1970 L 72 0 2463 2579 L 4 -15 694 747 L 15 -9 C 24 -5 C 15 0 C 24 5 C
14 9 C 5 15 C 0 10 C -5 14 C -14 10 C -24 5 C -15 0 C -24 -5 C -15 -10 C -4 -14 C 0 -10 C 4 -10 C 5 -5 C 10 -4 C 24 -5 C 15 0 C
24 5 C 10 4 C 4 5 C 5 10 C -5 9 795 757 L -4 5 C -10 5 C -24 5 C -15 0 C -24 -5 C -10 -5 C -5 -5 C -4 -9 C 48 -10 694 1337 L
-10 10 C -5 14 C 0 15 C 5 14 C 10 10 C 15 5 C 9 0 C 15 -5 C 9 -10 C 5 -14 C 0 -15 C -5 -14 C -4 -5 C -10 -5 C -5 0 C -5 5 C 5 5 C
5 -5 C 5 9 727 1366 L 10 10 C 15 5 C 9 0 C 15 -5 C 9 -10 C 5 -9 C 0 48 694 1337 L 0 24 698 1337 L -4 24 C -5 10 713 1902 L -14 14 C
101 0 C 97 0 698 1921 L 0 44 795 1902 L 4 -14 694 2013 L 15 -10 C 24 -5 C 15 0 C 24 5 C 14 10 C 5 14 C 0 10 C -5 15 C -14 9 C
-24 5 C -15 0 C -24 -5 C -15 -9 C -4 -15 C 0 -10 C 4 -9 C 5 -5 C 10 -5 C 24 -5 C 15 0 C 24 5 C 10 5 C 4 5 C 5 9 C -5 10 795 2023 L
-4 5 C -10 4 C -24 5 C -15 0 C -24 -5 C -10 -4 C -5 -5 C -4 -10 C -5 10 713 2511 L -14 14 C 101 0 C 97 0 698 2530 L 0 44 795 2511 L
48 -10 694 2603 L -10 10 C -5 15 C 0 14 C 5 15 C 10 9 C 15 5 C 9 0 C 15 -5 C 9 -9 C 5 -15 C 0 -14 C -5 -15 C -4 -5 C -10 -5 C -5 0 C
-5 5 C 5 5 C 5 -5 C 5 10 727 2632 L 10 10 C 15 4 C 9 0 C 15 -4 C 9 -10 C 5 -10 C 0 49 694 2603 L 0 24 698 2603 L -4 25 C
68 0 491 1193 L 68 0 491 1198 L -10 10 506 1198 L -5 14 C 0 10 C 5 14 C 10 5 C 53 0 C 5 9 491 1232 L 10 5 C 53 0 C -10 10 506 1251 L
-5 14 C 0 10 C 5 15 C 10 4 C 53 0 C 5 10 491 1285 L 10 5 C 53 0 C 0 20 491 1178 L 0 34 559 1178 L 0 34 559 1232 L 0 34 559 1285 L
83 0 457 1377 L 14 -5 C 5 -9 C 0 -10 C -5 -10 C -9 -5 C -10 0 C -5 5 C 5 5 C 5 -5 C 83 0 457 1372 L 14 -5 C 5 -4 C 0 34 457 1358 L
68 29 491 1421 L 58 24 491 1426 L 68 -29 491 1479 L 19 -10 C 10 -10 C 5 -9 C 0 -5 C -5 -5 C -5 5 C 5 5 C 0 29 491 1411 L
0 30 491 1459 L 5 0 501 1595 L 0 -5 C -5 0 C -5 5 C -5 10 C 0 19 C 5 10 C 5 5 C 10 5 C 34 0 C 9 4 C 5 5 C 44 0 501 1639 L 9 5 C
5 9 C 0 5 C 4 -5 511 1639 L 5 -29 C 5 -15 C 10 -5 C 10 0 C 9 5 C 5 15 C 0 14 C -5 10 C -9 10 C 5 -10 520 1605 L 10 -5 C 10 0 C 9 5 C
5 10 C 5 -5 506 1741 L 4 5 C -4 4 C -5 0 C -10 -9 C -5 -10 C 0 -15 C 5 -14 C 10 -10 C 14 -5 C 10 0 C 15 5 C 9 10 C 5 14 C 0 10 C
-5 15 C -9 9 C 5 -9 491 1711 L 10 -10 C 14 -5 C 10 0 C 15 5 C 9 10 C 5 9 C 68 0 491 1784 L 68 0 491 1789 L -14 5 520 1789 L -10 10 C
-5 9 C 0 15 C 5 5 C 5 0 C 5 -5 C -5 -5 C -5 5 C 0 19 491 1770 L 0 34 559 1770 L 68 0 491 1867 L 68 0 491 1871 L -10 10 506 1871 L
-5 15 C 0 9 C 5 15 C 10 5 C 53 0 C 5 10 491 1905 L 10 5 C 53 0 C -10 9 506 1925 L -5 15 C 0 10 C 5 14 C 10 5 C 53 0 C 5 9 491 1959 L
10 5 C 53 0 C 0 19 491 1852 L 0 34 559 1852 L 0 34 559 1905 L 0 33 559 1959 L 5 -4 457 2026 L 5 4 C -5 5 C -5 -5 C 68 0 491 2026 L
68 0 491 2031 L 0 19 491 2012 L 0 34 559 2012 L 68 0 491 2080 L 68 0 491 2085 L -10 9 506 2085 L -5 15 C 0 9 C 5 15 C 10 5 C 53 0 C
5 10 491 2118 L 10 5 C 53 0 C 0 20 491 2065 L 0 34 559 2065 L 0 34 559 2118 L 0 65 449 2177 L -4 8 420 2278 L -11 11 C 77 0 C
73 0 409 2293 L 0 33 482 2278 L
1024 0 0 K 0 0 906 1251 L 32 -45 C 33 -31 C 32 12 C 33 64 C 33 87 C 32 66 C 33 4 C 32 -61 C 33 -92 C 32 -76 C 33 -33 C 33 13 C
32 44 C 33 54 C 32 56 C 33 65 C 33 82 C 32 101 C 33 112 C 32 125 C 33 141 C 33 163 C 32 176 C 33 147 C 32 62 C 33 -66 C 33 -186 C
32 -246 C 33 -224 C 32 -147 C 33 -60 C 33 -9 C 32 -5 C 33 -23 C 32 -33 C 33 -18 C 33 22 C 32 58 C 33 71 C 32 55 C 33 31 C 33 16 C
32 18 C 33 24 C 32 16 C 33 -11 C 33 -56 C 32 -85 C 33 -90 C 32 -68 C
0 0 0 K -11 -3 933 3010 L -3 -7 C 0 -10 C 3 -7 C 11 -4 C 13 0 C 10 4 C 4 7 C 0 10 C -4 7 C -10 3 C -13 0 C -7 -3 C -4 -7 C 0 -10 C
4 -7 C 7 -4 C 7 4 946 2979 L 3 7 C 0 10 C -3 7 C -7 3 C -11 -3 933 2979 L -3 -3 C -3 -7 C 0 -14 C 3 -6 C 3 -4 C 11 -3 C 13 0 C
10 3 C 4 4 C 3 6 C 0 14 C -3 7 C -4 3 C -10 3 C -7 -3 933 2979 L -4 -3 C -3 -7 C 0 -14 C 3 -6 C 4 -4 C 7 -3 C 7 3 946 2939 L 3 4 C
4 6 C 0 14 C -4 7 C -3 3 C -7 3 C -10 -3 1000 3010 L -3 -7 C 0 -10 C 3 -7 C 10 -4 C 14 0 C 10 4 C 4 7 C 0 10 C -4 7 C -10 3 C
-14 0 C -6 -3 C -4 -7 C 0 -10 C 4 -7 C 6 -4 C 7 4 1014 2979 L 3 7 C 0 10 C -3 7 C -7 3 C -10 -3 1000 2979 L -3 -3 C -3 -7 C 0 -14 C
3 -6 C 3 -4 C 10 -3 C 14 0 C 10 3 C 4 4 C 3 6 C 0 14 C -3 7 C -4 3 C -10 3 C -6 -3 1000 2979 L -4 -3 C -3 -7 C 0 -14 C 3 -6 C 4 -4 C
6 -3 C 7 3 1014 2939 L 3 4 C 4 6 C 0 14 C -4 7 C -3 3 C -7 3 C -10 -3 1072 3010 L -7 -11 C -4 -17 C 0 -10 C 4 -17 C 7 -10 C 10 -3 C
6 0 C 11 3 C 6 10 C 4 17 C 0 10 C -4 17 C -6 11 C -11 3 C -6 0 C -7 -3 C -3 -4 C -4 -7 C -3 -17 C 0 -10 C 3 -17 C 4 -6 C 3 -4 C
7 -3 C 7 3 1078 2939 L 4 4 C 3 6 C 3 17 C 0 10 C -3 17 C -3 7 C -4 4 C -7 3 C -11 -3 1140 3010 L -6 -11 C -4 -17 C 0 -10 C 4 -17 C
6 -10 C 11 -3 C 6 0 C 11 3 C 6 10 C 4 17 C 0 10 C -4 17 C -6 11 C -11 3 C -6 0 C -7 -3 C -4 -4 C -3 -7 C -3 -17 C 0 -10 C 3 -17 C
3 -6 C 4 -4 C 7 -3 C 7 3 1146 2939 L 4 4 C 3 6 C 3 17 C 0 10 C -3 17 C -3 7 C -4 4 C -7 3 C 0 -71 1194 3010 L 21 -61 1197 3010 L
24 -71 1194 3010 L -23 -71 1241 3010 L 0 -71 1241 3010 L 0 -71 1245 3010 L 13 0 1184 3010 L 14 0 1241 3010 L 20 0 1184 2939 L
24 0 1231 2939 L 0 -71 1279 3010 L 0 -71 1282 3010 L 0 -71 1323 3010 L 0 -71 1326 3010 L 24 0 1268 3010 L 23 0 1313 3010 L
41 0 1282 2976 L 24 0 1268 2939 L 23 0 1313 2939 L -38 -47 1391 2986 L -37 -47 1394 2986 L -4 -13 1357 2986 L 0 13 C 41 0 C
41 0 1353 2939 L 0 13 C -3 -13 C -10 -3 1492 2986 L -7 -7 C -3 -7 C -3 -10 C 0 -10 C 3 -7 C 10 -3 C 7 0 C 7 3 C 10 10 C 7 11 C
6 13 C 4 10 C -6 -3 1492 2986 L -7 -7 C -4 -7 C -3 -10 C 0 -10 C 3 -7 C 7 -3 C 7 0 1492 2986 L 7 -3 C 3 -7 C 7 -27 C 3 -7 C 4 -3 C
3 -3 1499 2986 L 4 -7 C 7 -27 C 3 -7 C 7 -3 C 3 0 C 61 0 1550 2979 L 61 0 1550 2959 L -10 -3 1655 3010 L -7 -11 C -3 -17 C 0 -10 C
3 -17 C 7 -10 C 10 -3 C 7 0 C 10 3 C 7 10 C 3 17 C 0 10 C -3 17 C -7 11 C -10 3 C -7 0 C -7 -3 C -3 -4 C -3 -7 C -4 -17 C 0 -10 C
4 -17 C 3 -6 C 3 -4 C 7 -3 C 7 3 1662 2939 L 3 4 C 3 6 C 4 17 C 0 10 C -4 17 C -3 7 C -3 4 C -7 3 C -3 -4 1709 2946 L 3 -3 C 4 3 C
-4 4 C 6 4 1747 2996 L 11 10 C 0 -71 C 0 -68 1760 3007 L 30 0 1747 2939 L
0 1024 0 K 0 0 906 922 L 32 4 C 33 5 C 32 8 C 33 10 C 33 11 C 32 13 C 33 15 C 32 18 C 33 23 C 32 30 C 33 39 C 33 48 C 32 60 C
33 69 C 32 78 C 33 86 C 33 94 C 32 101 C 33 109 C 32 113 C 33 115 C 33 109 C 32 93 C 33 62 C 32 19 C 33 -32 C 33 -77 C 32 -106 C
33 -119 C 32 -114 C 33 -101 C 33 -79 C 32 -58 C 33 -36 C 32 -20 C 33 -10 C 33 -3 C 32 0 C 33 3 C 32 4 C 33 3 C 33 4 C 32 6 C 33 9 C
32 13 C 33 17 C 33 22 C 32 25 C 33 27 C 32 27 C
0 0 0 K 1024 0 0 K 1 -3 906 823 L 2 -3 916 804 L 2 -3 927 785 L 2 -3 938 766 L 2 -3 951 748 L 2 -2 964 730 L 3 -2 981 718 L
1 -1 1002 710 L 2 1 C 3 2 1021 719 L 2 2 1040 731 L 2 2 1056 746 L 2 2 1072 761 L 3 2 1089 775 L 3 1 1108 785 L 3 1 1130 789 L
2 -1 1151 784 L 2 -1 1171 775 L 2 -2 1190 764 L 3 -1 1209 754 L 2 -1 1229 745 L 1 0 C 3 -1 1251 742 L 3 0 1273 742 L 2 0 1295 746 L
1 0 C 3 1 1316 751 L 3 0 1338 756 L 3 1 1359 759 L 3 0 1381 759 L 3 -1 1403 757 L 2 0 1425 753 L 1 -1 C 4 0 1446 748 L
3 0 1468 744 L 2 0 1490 741 L 1 0 C 3 0 1512 742 L 3 1 1534 745 L 2 0 1555 751 L 1 1 C 3 1 1576 759 L 3 1 1596 766 L 3 1 1617 774 L
3 1 1639 777 L 3 -1 1660 778 L 3 -1 1682 772 L 3 -2 1701 762 L 0 0 1720 750 L 3 -2 C 3 -2 1738 738 L 3 -1 1756 725 L 3 -1 1776 715 L
3 0 1797 710 L 3 1 1819 709 L 2 1 1840 717 L 3 2 1859 726 L 3 2 1878 737 L 3 1 1898 747 L 4 0 1918 756 L 3 0 1940 759 L
3 -1 1962 756 L 3 -1 1983 750 L 3 -2 2003 741 L 3 -2 2023 732 L 3 -1 2043 723 L 3 -1 2065 719 L 3 1 2086 718 L 3 0 2108 724 L
3 2 2127 734 L 2 2 2146 746 L 3 2 2162 760 L 3 2 2179 774 L 2 2 2197 788 L 3 1 2215 800 L 3 1 2236 808 L 3 0 2257 807 L
3 -2 2277 801 L 2 -2 2294 786 L 2 -2 2310 771 L 2 -3 2323 754 L 2 -2 2337 736 L 2 -2 2351 719 L 2 -2 2365 702 L 3 -1 2381 688 L
3 -1 2401 678 L 3 2 2420 684 L 2 3 2439 696 L 2 3 2451 714 L 2 3 2464 732 L 1 3 2476 751 L 1 3 2487 770 L 1 3 2498 789 L
2 2 2511 807 L 2 3 2525 823 L
0 0 0 K 1024 0 0 K 5 -31 906 1610 L 6 -31 917 1548 L 6 -31 929 1487 L 4 -31 940 1424 L 4 -31 948 1362 L 4 -32 956 1300 L
4 -31 964 1237 L 13 -28 975 1175 L 2 -4 1001 1118 L 7 26 C 8 30 1018 1171 L 2 9 1034 1232 L 4 22 C 6 31 1046 1294 L 6 31 1058 1355 L
6 31 1070 1417 L 6 31 1083 1479 L 6 30 1095 1541 L 0 1 C 12 30 1112 1601 L 25 -18 1136 1656 L 14 -29 1178 1612 L 19 -25 1209 1557 L
15 -28 1243 1505 L 9 -30 1269 1447 L 9 -31 1286 1387 L 10 -30 1305 1327 L 3 -9 1326 1267 L 15 -16 C 20 -24 1366 1219 L
21 -24 1406 1171 L 8 5 1452 1165 L 17 13 C 17 -27 1499 1185 L 11 -29 1530 1130 L 5 -15 1552 1071 L 15 -4 C 17 27 1597 1059 L
16 -4 1639 1094 L 6 -13 C 12 -29 1672 1047 L 9 -30 1694 988 L 7 -24 1713 928 L 4 -5 C 12 -18 1741 872 L 6 8 C 9 13 1777 888 L 5 15 C
10 29 1802 946 L 12 29 1823 1005 L 5 13 1846 1063 L 12 14 C 0 0 1883 1114 L 30 -10 C 15 -17 1934 1081 L 4 -8 C 12 -21 1969 1029 L
4 -6 C 11 -17 2003 976 L 6 9 C 8 12 2038 994 L 5 16 C 9 30 2060 1052 L 0 2 2079 1112 L 16 25 C 16 -27 2112 1163 L 7 -30 2144 1109 L
7 -31 2159 1048 L 4 -19 2173 987 L 3 -12 C 7 -31 2187 925 L 7 -31 2201 864 L 9 31 2216 853 L 9 30 2233 914 L 6 31 2248 975 L
6 31 2259 1037 L 4 19 2271 1099 L 2 12 C 7 30 2284 1161 L 6 31 2298 1222 L 11 29 2314 1283 L 4 11 2336 1342 L 18 -9 C
10 -30 2377 1322 L 9 -26 2396 1262 L 1 -4 C 9 -30 2414 1202 L 7 -22 2431 1141 L 3 -8 C 12 -29 2453 1082 L 13 -28 2478 1024 L
27 -17 2506 969 L
0 0 0 K 0 0 1024 K 31 2 906 926 L 3 0 968 931 L 28 7 C 7 2 1029 949 L 21 10 C 15 5 1086 974 L 15 6 C 21 9 1145 997 L 7 4 C
24 20 1200 1027 L 18 21 1246 1070 L 2 3 C 13 18 1284 1120 L 4 9 C 13 26 1316 1174 L 1 2 C 12 29 1343 1231 L 11 29 1367 1290 L
5 15 1389 1348 L 6 15 C 11 30 1412 1407 L 10 30 1434 1466 L 5 13 1455 1526 L 5 16 C 10 30 1475 1585 L 8 31 1494 1645 L
9 31 1510 1706 L 8 30 1527 1767 L 8 30 1543 1828 L 8 30 1559 1889 L 8 30 1575 1950 L 7 30 1591 2011 L 7 31 1606 2072 L
3 9 1620 2133 L 5 22 C 8 31 1635 2194 L 5 22 1650 2256 L 3 8 C 8 31 1667 2316 L 4 12 1684 2377 L 12 14 C 15 -28 1721 2426 L
3 -5 1750 2371 L 7 -25 C 8 -30 1767 2310 L 3 -9 1783 2249 L 4 -22 C 6 -31 1796 2187 L 6 -31 1807 2126 L 8 -31 1819 2064 L
7 -30 1834 2002 L 3 -11 1848 1941 L 5 -20 C 8 -30 1864 1880 L 3 -13 1880 1819 L 6 -17 C 9 -31 1897 1759 L 1 -4 1915 1698 L 10 -26 C
11 -29 1937 1639 L 16 -27 1964 1582 L 10 -7 2004 1535 L 19 -4 C 15 -1 2064 1519 L 16 -2 C 17 2 2127 1515 L 14 3 C 20 4 2189 1526 L
11 2 C 24 -1 2251 1535 L 7 0 C 26 7 2314 1536 L 4 2 C 0 1 2372 1559 L 27 14 C 11 6 2427 1589 L 14 13 C 21 23 2476 1629 L
17 18 2518 1675 L
0 0 0 K 1630 0 2535 630 L 0 2205 C -1630 0 C 0 -2205 C 0 73 2689 630 L 0 73 3017 630 L 0 73 3345 630 L 0 73 3673 630 L
0 73 4001 630 L 0 73 2689 2762 L 0 73 3017 2762 L 0 73 3345 2762 L 0 73 3673 2762 L 0 73 4001 2762 L 4 -5 2660 523 L -4 -4 C -5 4 C
0 5 C 5 10 C 4 5 C 15 5 C 19 0 C 15 -5 C 5 -5 C 4 -10 C 0 -9 C -4 -10 C -15 -10 C -24 -9 C -10 -5 C -9 -10 C -5 -15 C 0 -14 C
10 -5 2698 543 L 5 -5 C 5 -10 C 0 -9 C -5 -10 C -15 -10 C -19 -9 C 5 4 2655 451 L 9 0 C 24 -9 C 15 0 C 10 5 C 4 4 C
24 -14 2669 455 L 20 0 C 5 5 C 4 9 C 0 10 C 10 5 2997 523 L 15 15 C 0 -102 C 0 -97 3017 538 L 44 0 2997 441 L -14 -5 3340 543 L
-10 -15 C -5 -24 C 0 -14 C 5 -25 C 10 -14 C 14 -5 C 10 0 C 14 5 C 10 14 C 5 25 C 0 14 C -5 24 C -10 15 C -14 5 C -10 0 C -10 -5 C
-4 -5 C -5 -10 C -5 -24 C 0 -14 C 5 -25 C 5 -9 C 4 -5 C 10 -5 C 9 5 3350 441 L 5 5 C 5 9 C 5 25 C 0 14 C -5 24 C -5 10 C -5 5 C
-9 5 C 87 0 3581 485 L 9 5 3717 523 L 15 15 C 0 -102 C 0 -97 3736 538 L 43 0 3717 441 L 87 0 3909 485 L 5 -5 4035 523 L -5 -4 C
-5 4 C 0 5 C 5 10 C 5 5 C 15 5 C 19 0 C 14 -5 C 5 -5 C 5 -10 C 0 -9 C -5 -10 C -14 -10 C -24 -9 C -10 -5 C -10 -10 C -5 -15 C
0 -14 C 10 -5 4074 543 L 4 -5 C 5 -10 C 0 -9 C -5 -10 C -14 -10 C -19 -9 C 5 4 4030 451 L 10 0 C 24 -9 C 15 0 C 9 5 C 5 4 C
24 -14 4045 455 L 19 0 C 5 5 C 5 9 C 0 10 C 73 0 2535 752 L 73 0 2535 1361 L 73 0 2535 1970 L 73 0 2535 2579 L 72 0 4093 752 L
72 0 4093 1361 L 72 0 4093 1970 L 72 0 4093 2579 L
1024 0 0 K 0 0 2535 863 L 22 -1 C 22 5 C 22 10 C 22 13 C 22 16 C 22 20 C 22 23 C 21 27 C 22 31 C 22 34 C 22 38 C 22 40 C 22 42 C
22 43 C 22 45 C 21 45 C 22 48 C 22 51 C 22 54 C 22 57 C 22 59 C 22 62 C 22 63 C 22 61 C 21 59 C 22 56 C 22 51 C 22 49 C 22 45 C
22 43 C 22 41 C 22 39 C 21 36 C 22 31 C 22 22 C 22 11 C 22 -6 C 22 -23 C 22 -42 C 22 -59 C 21 -74 C 22 -82 C 22 -86 C 22 -85 C
22 -77 C 22 -67 C 22 -54 C 22 -42 C 21 -29 C 22 -19 C 22 -11 C 22 -4 C 22 1 C 22 3 C 22 7 C 22 9 C 21 11 C 22 14 C 22 14 C 22 16 C
22 18 C 22 18 C 22 19 C 22 20 C 22 21 C 21 20 C 22 20 C 22 19 C 22 17 C 22 14 C 22 11 C 22 8 C 22 6 C 21 4 C 11 1 C
0 0 0 K 7 4 2556 2996 L 10 10 C 0 -71 C 0 -68 2569 3007 L 30 0 2556 2939 L 0 -20 2613 3010 L 4 7 2613 2996 L 7 7 C 6 0 C 17 -10 C
7 0 C 4 3 C 3 7 C 7 4 2617 3003 L 6 0 C 17 -7 C 0 -10 2661 3010 L -3 -10 C -14 -17 C -3 -7 C -4 -10 C 0 -17 C -17 -17 2658 2990 L
-4 -7 C -3 -10 C 0 -17 C 0 -64 2712 3003 L 0 -71 2715 3010 L -37 -51 2715 3010 L 54 0 C 23 0 2702 2939 L -10 -3 2766 3010 L -3 -7 C
0 -10 C 3 -7 C 10 -4 C 14 0 C 10 4 C 3 7 C 0 10 C -3 7 C -10 3 C -14 0 C -7 -3 C -3 -7 C 0 -10 C 3 -7 C 7 -4 C 6 4 2780 2979 L 4 7 C
0 10 C -4 7 C -6 3 C -10 -3 2766 2979 L -3 -3 C -4 -7 C 0 -14 C 4 -6 C 3 -4 C 10 -3 C 14 0 C 10 3 C 3 4 C 4 6 C 0 14 C -4 7 C -3 3 C
-10 3 C -7 -3 2766 2979 L -3 -3 C -3 -7 C 0 -14 C 3 -6 C 3 -4 C 7 -3 C 6 3 2780 2939 L 4 4 C 3 6 C 0 14 C -3 7 C -4 3 C -6 3 C
7 4 2827 2996 L 10 10 C 0 -71 C 0 -68 2841 3007 L 31 0 2827 2939 L 0 -71 2892 3010 L 20 -61 2895 3010 L 23 -71 2892 3010 L
-24 -71 2939 3010 L 0 -71 2939 3010 L 0 -71 2942 3010 L 14 0 2881 3010 L 14 0 2939 3010 L 21 0 2881 2939 L 24 0 2929 2939 L
0 -71 2976 3010 L 0 -71 2980 3010 L 0 -71 3020 3010 L 0 -71 3024 3010 L 24 0 2966 3010 L 24 0 3010 3010 L 40 0 2980 2976 L
24 0 2966 2939 L 24 0 3010 2939 L -37 -47 3088 2986 L -38 -47 3092 2986 L -3 -13 3054 2986 L 0 13 C 41 0 C 41 0 3051 2939 L 0 13 C
-4 -13 C -10 -3 3190 2986 L -7 -7 C -3 -7 C -4 -10 C 0 -10 C 4 -7 C 10 -3 C 7 0 C 6 3 C 11 10 C 6 11 C 7 13 C 4 10 C
-7 -3 3190 2986 L -7 -7 C -3 -7 C -3 -10 C 0 -10 C 3 -7 C 7 -3 C 7 0 3190 2986 L 7 -3 C 3 -7 C 7 -27 C 3 -7 C 4 -3 C
3 -3 3197 2986 L 4 -7 C 6 -27 C 4 -7 C 7 -3 C 3 0 C 61 0 3248 2979 L 61 0 3248 2959 L 6 4 3343 2996 L 11 10 C 0 -71 C
0 -68 3356 3007 L 30 0 3343 2939 L -3 -4 3407 2946 L 3 -3 C 4 3 C -4 4 C -3 -4 3475 3000 L 3 -3 C 3 3 C 0 4 C -3 7 C -7 3 C -10 0 C
-10 -3 C -7 -7 C -3 -7 C -4 -14 C 0 -20 C 4 -10 C 6 -7 C 11 -3 C 6 0 C 11 3 C 6 7 C 4 10 C 0 4 C -4 10 C -6 6 C -11 4 C -3 0 C
-10 -4 C -7 -6 C -3 -10 C -7 -3 3458 3010 L -7 -7 C -3 -7 C -3 -14 C 0 -20 C 3 -10 C 7 -7 C 7 -3 C 7 3 3461 2939 L 7 7 C 3 10 C
0 4 C -3 10 C -7 6 C -7 4 C
0 1024 0 K 0 0 2535 929 L 22 3 C 22 4 C 22 5 C 22 5 C 22 7 C 22 7 C 22 8 C 21 9 C 22 9 C 22 11 C 22 13 C 22 14 C 22 18 C 22 20 C
22 24 C 21 29 C 22 32 C 22 37 C 22 42 C 22 45 C 22 50 C 22 54 C 22 58 C 22 61 C 21 64 C 22 68 C 22 71 C 22 74 C 22 75 C 22 76 C
22 74 C 22 71 C 21 64 C 22 54 C 22 40 C 22 24 C 22 5 C 22 -14 C 22 -34 C 22 -49 C 21 -62 C 22 -70 C 22 -73 C 22 -73 C 22 -70 C
22 -63 C 22 -55 C 22 -47 C 21 -37 C 22 -29 C 22 -22 C 22 -14 C 22 -10 C 22 -6 C 22 -3 C 22 -1 C 21 1 C 22 2 C 22 2 C 22 2 C 22 3 C
22 3 C 22 4 C 22 4 C 22 6 C 21 8 C 22 10 C 22 11 C 22 13 C 22 15 C 22 16 C 22 17 C 22 17 C 21 18 C 11 8 C
0 0 0 K 1024 0 0 K 3 1 2535 730 L 0 0 2557 736 L 2 1 C 2 1 2577 744 L 1 0 C 3 1 2597 753 L 3 1 2618 761 L 3 1 2639 768 L
3 1 2660 772 L 3 0 2682 774 L 3 0 2704 774 L 3 0 2726 772 L 3 0 2748 770 L 3 0 2770 767 L 3 0 2792 764 L 3 0 2814 761 L
3 -1 2836 759 L 3 0 2858 756 L 4 0 2879 754 L 4 0 2901 753 L 4 -1 2923 752 L 3 0 2946 751 L 3 0 2968 750 L 3 0 2990 750 L
3 0 3012 750 L 3 0 3034 750 L 3 0 3056 750 L 3 0 3078 750 L 3 0 3100 750 L 3 0 3122 750 L 3 0 3144 749 L 3 0 3166 749 L
3 0 3188 749 L 3 1 3210 749 L 3 0 3232 750 L 3 0 3254 750 L 3 0 3276 751 L 3 0 3298 751 L 3 0 3320 751 L 3 0 3342 751 L 1 0 C
3 0 3364 751 L 1 0 C 3 0 3386 751 L 1 0 C 2 0 3409 751 L 1 0 C 1 0 3431 751 L 2 0 C 1 0 3453 750 L 2 0 C 1 0 3475 750 L 2 0 C
1 0 3497 751 L 2 0 C 1 0 3519 751 L 2 0 C 1 0 3541 752 L 2 0 C 1 0 3563 752 L 2 0 C 1 0 3585 753 L 2 0 C 0 0 3607 754 L 3 0 C
0 0 3629 754 L 3 0 C 0 0 3651 754 L 3 0 C 3 0 3673 754 L 3 0 3695 754 L 3 0 3717 753 L 3 0 3739 752 L 3 -1 3761 752 L 3 0 3783 751 L
3 0 3805 750 L 4 0 3827 750 L 4 0 3849 750 L 4 0 3871 751 L 3 0 3894 752 L 3 0 3916 753 L 3 0 3938 754 L 3 0 3960 755 L
3 0 3982 756 L 3 0 4004 756 L 3 0 4026 756 L 3 0 4048 755 L 3 0 4070 754 L 3 0 4092 752 L 3 -1 4114 750 L 3 0 4136 747 L
3 -1 4158 746 L
0 0 0 K 1024 0 0 K 22 -7 2535 1015 L 9 -2 C 10 -12 2591 989 L 8 -13 C 15 -27 2624 936 L 11 -15 2656 882 L 12 -6 C 1 1 2709 861 L
22 6 C 7 0 C 6 -2 2770 862 L 21 -13 C 19 -12 2823 829 L 8 -5 C 6 -3 2879 800 L 22 -5 C 2 0 C 11 -1 2940 787 L 20 -3 C
15 -3 3002 777 L 16 -4 C 18 1 3064 766 L 13 2 C 21 1 3127 774 L 10 0 C 3 0 3189 773 L 22 -2 C 7 0 C 5 0 3252 771 L 22 3 C 4 1 C
8 0 3315 779 L 22 0 C 1 0 C 12 -3 3377 773 L 19 -2 C 15 5 3439 773 L 15 4 C 20 0 3500 788 L 11 -2 C 2 0 3562 777 L 22 -8 C 5 -1 C
7 0 3622 763 L 22 3 C 3 0 C 10 0 3685 768 L 22 -1 C 13 0 3748 764 L 19 -1 C 15 1 3811 763 L 16 1 C 18 0 3874 765 L 13 5 C
4 3 3932 785 L 20 17 C 20 13 3981 825 L 7 2 C 6 -1 4039 841 L 22 -13 C 1 -1 4088 804 L 20 -23 C 17 20 4137 780 L 3 4 C
0 0 0 K 0 0 1024 K 22 1 2535 927 L 10 1 C 3 1 2598 933 L 22 5 C 5 2 C 9 3 2658 953 L 19 10 C 16 6 2716 977 L 13 5 C 2 1 2774 1001 L
22 10 C 4 3 C 14 11 2828 1033 L 9 10 C 12 15 2873 1077 L 8 10 C 16 27 2911 1127 L 9 19 2942 1182 L 4 10 C 5 11 2968 1239 L 7 18 C
3 8 2992 1298 L 8 21 C 3 6 3014 1357 L 9 23 C 2 4 3037 1415 L 10 26 C 1 0 3060 1474 L 10 30 C 1 5 3081 1533 L 9 25 C
3 10 3101 1593 L 6 20 C 6 22 3120 1653 L 2 9 C 8 31 3136 1714 L 8 31 3152 1775 L 2 7 3168 1836 L 6 23 C 7 26 3185 1897 L 1 4 C
8 30 3201 1958 L 7 30 3217 2019 L 4 16 3232 2080 L 3 14 C 8 31 3246 2141 L 8 31 3261 2202 L 3 12 3276 2264 L 5 18 C 8 31 3293 2324 L
11 28 3312 2384 L 1 1 C 18 -26 3349 2421 L 10 -30 3376 2365 L 8 -30 3394 2304 L 2 -4 3409 2243 L 5 -27 C 6 -31 3421 2181 L
7 -30 3433 2119 L 7 -31 3447 2058 L 7 -30 3461 1996 L 1 -7 3475 1935 L 6 -24 C 8 -31 3490 1874 L 8 -30 3507 1813 L 9 -31 3524 1753 L
11 -29 3542 1692 L 13 -28 3564 1633 L 15 -24 3592 1577 L 3 -2 C 17 -7 3634 1532 L 13 -3 C 21 -2 3696 1519 L 10 -1 C 3 1 3758 1515 L
21 3 C 7 2 C 6 1 3820 1527 L 22 4 C 3 1 C 10 0 3882 1535 L 22 -2 C 13 2 3945 1536 L 17 8 C 20 12 4003 1560 L 7 3 C 9 6 4058 1590 L
16 13 C 5 4 4106 1631 L 16 19 C 5 6 4149 1677 L 11 10 C
0 0 0 K 1630 0 4165 630 L 0 2205 C -1630 0 C 0 -2205 C 0 73 4489 630 L 0 73 4862 630 L 0 73 5235 630 L 0 73 5609 630 L
0 73 4489 2762 L 0 73 4862 2762 L 0 73 5235 2762 L 0 73 5609 2762 L 10 5 4469 523 L 15 15 C 0 -102 C 0 -97 4489 538 L
44 0 4469 441 L -14 -5 4857 543 L -10 -15 C -5 -24 C 0 -14 C 5 -25 C 10 -14 C 14 -5 C 10 0 C 14 5 C 10 14 C 5 25 C 0 14 C -5 24 C
-10 15 C -14 5 C -10 0 C -9 -5 C -5 -5 C -5 -10 C -5 -24 C 0 -14 C 5 -25 C 5 -9 C 5 -5 C 9 -5 C 10 5 4867 441 L 4 5 C 5 9 C 5 25 C
0 14 C -5 24 C -5 10 C -4 5 C -10 5 C 88 0 5143 485 L 10 5 5279 523 L 14 15 C 0 -102 C 0 -97 5298 538 L 44 0 5279 441 L
87 0 5517 485 L 4 -5 5643 523 L -4 -4 C -5 4 C 0 5 C 5 10 C 4 5 C 15 5 C 19 0 C 15 -5 C 5 -5 C 5 -10 C 0 -9 C -5 -10 C -15 -10 C
-24 -9 C -10 -5 C -9 -10 C -5 -15 C 0 -14 C 10 -5 5681 543 L 5 -5 C 5 -10 C 0 -9 C -5 -10 C -15 -10 C -19 -9 C 5 4 5638 451 L 9 0 C
24 -9 C 15 0 C 10 5 C 5 4 C 24 -14 5652 455 L 20 0 C 5 5 C 5 9 C 0 10 C 73 0 4165 752 L 73 0 4165 1361 L 73 0 4165 1970 L
73 0 4165 2579 L 72 0 5723 752 L 72 0 5723 1361 L 72 0 5723 1970 L 72 0 5723 2579 L
1024 0 0 K 0 0 4165 975 L 25 24 C 25 26 C 25 27 C 25 31 C 25 35 C 25 40 C 25 43 C 24 47 C 25 50 C 25 54 C 25 58 C 25 61 C 25 64 C
25 65 C 25 66 C 25 64 C 24 65 C 25 64 C 25 64 C 25 63 C 25 61 C 25 59 C 25 55 C 25 51 C 24 45 C 25 38 C 25 25 C 25 10 C 25 -11 C
25 -34 C 25 -59 C 25 -79 C 25 -96 C 24 -103 C 25 -104 C 25 -96 C 25 -82 C 25 -66 C 25 -47 C 25 -29 C 25 -14 C 24 -3 C 25 5 C 25 10 C
25 12 C 25 13 C 25 14 C 25 15 C 25 15 C 25 16 C 24 13 C 25 11 C 25 6 C 25 2 C 25 -2 C 25 -6 C 25 -6 C 25 -6 C 25 -5 C 24 -3 C
25 -1 C 25 2 C 25 5 C 25 8 C 25 9 C 12 3 C
0 0 0 K 3 -3 4179 2996 L -3 -3 C -3 3 C 0 3 C 3 7 C 3 4 C 10 3 C 14 0 C 10 -3 C 4 -4 C 3 -7 C 0 -6 C -3 -7 C -11 -7 C -17 -7 C
-6 -3 C -7 -7 C -3 -10 C 0 -10 C 7 -3 4206 3010 L 3 -4 C 4 -7 C 0 -6 C -4 -7 C -10 -7 C -14 -7 C 3 3 4176 2946 L 7 0 C 17 -7 C
10 0 C 7 4 C 3 3 C 17 -10 4186 2949 L 13 0 C 4 3 C 3 7 C 0 7 C -10 -3 4264 3010 L -7 -11 C -4 -17 C 0 -10 C 4 -17 C 7 -10 C 10 -3 C
7 0 C 10 3 C 6 10 C 4 17 C 0 10 C -4 17 C -6 11 C -10 3 C -7 0 C -7 -3 C -3 -4 C -4 -7 C -3 -17 C 0 -10 C 3 -17 C 4 -6 C 3 -4 C
7 -3 C 6 3 4271 2939 L 4 4 C 3 6 C 3 17 C 0 10 C -3 17 C -3 7 C -4 4 C -6 3 C 7 4 4321 2996 L 10 10 C 0 -71 C 0 -68 4335 3007 L
31 0 4321 2939 L -4 -4 4420 3000 L 4 -3 C 3 3 C 0 4 C -3 7 C -7 3 C -10 0 C -10 -3 C -7 -7 C -4 -7 C -3 -14 C 0 -20 C 3 -10 C 7 -7 C
10 -3 C 7 0 C 10 3 C 7 7 C 4 10 C 0 4 C -4 10 C -7 6 C -10 4 C -3 0 C -10 -4 C -7 -6 C -4 -10 C -7 -3 4403 3010 L -7 -7 C -3 -7 C
-4 -14 C 0 -20 C 4 -10 C 7 -7 C 6 -3 C 7 3 4406 2939 L 7 7 C 3 10 C 0 4 C -3 10 C -7 6 C -7 4 C -10 -3 4467 3010 L -7 -11 C -3 -17 C
0 -10 C 3 -17 C 7 -10 C 10 -3 C 7 0 C 10 3 C 7 10 C 3 17 C 0 10 C -3 17 C -7 11 C -10 3 C -7 0 C -7 -3 C -3 -4 C -3 -7 C -4 -17 C
0 -10 C 4 -17 C 3 -6 C 3 -4 C 7 -3 C 7 3 4474 2939 L 3 4 C 4 6 C 3 17 C 0 10 C -3 17 C -4 7 C -3 4 C -7 3 C 0 -71 4522 3010 L
20 -61 4525 3010 L 23 -71 4522 3010 L -24 -71 4569 3010 L 0 -71 4569 3010 L 0 -71 4572 3010 L 14 0 4511 3010 L 14 0 4569 3010 L
21 0 4511 2939 L 24 0 4559 2939 L 0 -71 4606 3010 L 0 -71 4610 3010 L 0 -71 4650 3010 L 0 -71 4654 3010 L 24 0 4596 3010 L
24 0 4640 3010 L 40 0 4610 2976 L 24 0 4596 2939 L 24 0 4640 2939 L -37 -47 4718 2986 L -38 -47 4722 2986 L -3 -13 4684 2986 L
0 13 C 41 0 C 41 0 4681 2939 L 0 13 C -4 -13 C -10 -3 4820 2986 L -7 -7 C -3 -7 C -4 -10 C 0 -10 C 4 -7 C 10 -3 C 7 0 C 6 3 C
11 10 C 6 11 C 7 13 C 4 10 C -7 -3 4820 2986 L -7 -7 C -3 -7 C -3 -10 C 0 -10 C 3 -7 C 7 -3 C 7 0 4820 2986 L 7 -3 C 3 -7 C 7 -27 C
3 -7 C 4 -3 C 3 -3 4827 2986 L 4 -7 C 6 -27 C 4 -7 C 7 -3 C 3 0 C 61 0 4878 2979 L 61 0 4878 2959 L 3 -3 4966 2996 L -3 -3 C -4 3 C
0 3 C 4 7 C 3 4 C 10 3 C 14 0 C 10 -3 C 4 -7 C 0 -10 C -4 -7 C -10 -4 C -10 0 C 7 -3 4993 3010 L 3 -7 C 0 -10 C -3 -7 C -7 -4 C
7 -3 C 7 -7 C 3 -6 C 0 -11 C -3 -6 C -4 -4 C -10 -3 C -14 0 C -10 3 C -3 4 C -4 6 C 0 4 C 4 3 C 3 -3 C -3 -4 C 4 -10 5003 2973 L
0 -11 C -4 -6 C -3 -4 C -7 -3 C -3 -4 5037 2946 L 3 -3 C 3 3 C -3 4 C 7 4 5074 2996 L 10 10 C 0 -71 C 0 -68 5088 3007 L
31 0 5074 2939 L
0 1024 0 K 0 0 4165 992 L 25 11 C 25 12 C 25 14 C 25 17 C 25 20 C 25 23 C 25 28 C 24 33 C 25 38 C 25 43 C 25 47 C 25 52 C 25 56 C
25 59 C 25 63 C 25 67 C 24 71 C 25 73 C 25 77 C 25 80 C 25 80 C 25 80 C 25 77 C 25 71 C 24 62 C 25 47 C 25 28 C 25 7 C 25 -17 C
25 -39 C 25 -57 C 25 -71 C 25 -79 C 24 -82 C 25 -80 C 25 -75 C 25 -68 C 25 -58 C 25 -47 C 25 -38 C 25 -28 C 24 -20 C 25 -13 C
25 -8 C 25 -4 C 25 -2 C 25 0 C 25 1 C 25 2 C 25 2 C 24 3 C 25 2 C 25 2 C 25 4 C 25 4 C 25 6 C 25 8 C 25 10 C 25 12 C 24 13 C 25 16 C
25 17 C 25 18 C 25 18 C 25 19 C 12 9 C
0 0 0 K 1024 0 0 K 3 1 4165 751 L 4 1 4186 758 L 3 0 4208 762 L 3 0 4230 763 L 3 0 4252 763 L 3 0 4274 762 L 3 0 4296 761 L
3 -1 4318 760 L 3 0 4340 758 L 2 0 4362 757 L 1 0 C 3 -1 4384 757 L 3 -1 4406 756 L 3 0 4428 754 L 3 0 4450 753 L 3 0 4472 752 L
4 0 4494 751 L 4 0 4516 750 L 1 0 4538 749 L 3 0 C 4 0 4560 749 L 3 0 4583 749 L 3 0 4605 749 L 3 1 4627 749 L 3 0 4649 750 L
3 0 4671 751 L 3 1 4693 751 L 3 0 4715 752 L 1 0 4737 753 L 2 0 C 3 0 4759 753 L 3 0 4781 754 L 3 0 4803 754 L 3 0 4825 754 L
3 0 4847 754 L 3 0 4869 754 L 3 0 4891 753 L 3 0 4913 752 L 2 -1 4935 752 L 1 0 C 3 0 4957 751 L 3 0 4979 750 L 3 0 5001 750 L
4 0 5023 750 L 4 1 5045 750 L 4 0 5067 751 L 3 0 5090 752 L 3 0 5112 752 L 2 0 5134 752 L 1 0 C 3 0 5156 752 L 3 0 5178 752 L
3 0 5200 751 L 3 0 5222 750 L 3 0 5244 750 L 3 0 5266 749 L 3 -1 5288 749 L 0 0 5310 748 L 3 0 C 3 0 5332 747 L 3 0 5354 747 L
3 -1 5376 747 L 3 0 5398 746 L 3 0 5420 747 L 3 1 5442 747 L 3 0 5464 749 L 3 0 5486 750 L 1 0 5508 752 L 2 0 C 3 0 5530 754 L
3 1 5552 755 L 3 0 5574 757 L 3 0 5596 759 L 3 1 5618 761 L 3 0 5640 764 L 3 1 5662 767 L 4 1 5683 771 L 3 1 5705 775 L
3 1 5727 779 L 3 0 5749 782 L 3 -1 5771 781 L 3 -1 5792 775 L
0 0 0 K 1024 0 0 K 10 -30 4165 981 L 6 -20 4184 920 L 4 -9 C 7 -16 4208 862 L 14 -3 C 6 3 4259 846 L 25 3 C 20 -9 4320 845 L 9 -4 C
12 -6 4377 818 L 16 -8 C 5 -2 4434 791 L 25 -5 C 1 -1 C 18 -1 4496 782 L 14 -1 C 5 0 4559 782 L 24 6 C 2 0 C 17 -1 4621 790 L
14 -4 C 6 -2 4682 776 L 25 0 C 19 3 4744 781 L 12 0 C 5 -1 4807 781 L 25 -3 C 1 0 C 18 1 4869 776 L 14 0 C 5 0 4932 775 L 25 -1 C
2 0 C 16 0 4995 776 L 16 1 C 3 0 5058 777 L 25 1 C 4 0 C 15 0 5121 778 L 17 -1 C 2 0 5184 774 L 24 1 C 6 1 C 13 1 5247 780 L 18 -3 C
1 0 5309 771 L 25 -5 C 5 1 C 14 3 5371 771 L 17 0 C 0 0 5434 773 L 25 3 C 6 1 C 15 7 5494 789 L 12 8 C 12 9 5547 822 L 13 10 C
10 4 5599 858 L 20 6 C 23 10 5660 873 L 5 4 C 22 23 5711 908 L 22 -14 5761 939 L 4 3 C
0 0 0 K 0 0 1024 K 25 9 4165 983 L 5 2 C 16 6 4224 1006 L 12 8 C 11 7 4279 1037 L 13 12 C 14 14 4326 1078 L 7 9 C 18 26 4367 1126 L
13 22 4401 1179 L 3 5 C 8 16 4431 1234 L 6 13 C 7 15 4457 1291 L 6 14 C 6 14 4483 1349 L 6 15 C 6 12 4508 1407 L 7 16 C
5 10 4534 1464 L 7 19 C 6 15 4558 1523 L 5 14 C 8 22 4580 1581 L 3 8 C 11 30 4601 1641 L 9 30 4621 1701 L 9 30 4639 1761 L
6 22 4657 1821 L 3 9 C 9 30 4675 1882 L 9 30 4693 1942 L 2 5 4711 2002 L 7 26 C 9 30 4728 2063 L 8 30 4745 2124 L 1 3 4762 2185 L
7 27 C 8 31 4779 2245 L 9 30 4797 2306 L 12 29 4817 2365 L 14 8 4848 2418 L 9 -11 C 11 -30 4889 2389 L 2 -5 4910 2330 L 7 -25 C
9 -30 4928 2269 L 7 -31 4943 2208 L 6 -25 4956 2147 L 1 -6 C 8 -30 4971 2085 L 8 -30 4987 2024 L 8 -30 5002 1963 L 9 -31 5019 1903 L
9 -30 5037 1842 L 5 -16 5056 1782 L 5 -14 C 10 -29 5076 1722 L 13 -30 5098 1664 L 11 -21 5125 1607 L 5 -7 C 1 -1 5160 1554 L
24 -18 C 21 -3 5214 1524 L 10 -1 C 8 0 5277 1517 L 23 -2 C 20 3 5340 1516 L 11 2 C 8 1 5402 1527 L 23 4 C 20 0 5464 1535 L 11 -1 C
7 1 5527 1533 L 24 4 C 22 11 5587 1549 L 7 3 C 14 7 5644 1576 L 15 7 C 9 7 5699 1607 L 16 13 C 12 12 5746 1648 L 11 10 C
2 2 5793 1691 L
0 0 0 K 1630 0 5795 630 L 0 2205 C -1630 0 C 0 -2205 C 0 73 5821 630 L 0 73 6442 630 L 0 73 7063 630 L 0 73 5821 2762 L
0 73 6442 2762 L 0 73 7063 2762 L 9 5 5802 523 L 15 15 C 0 -102 C 0 -97 5821 538 L 43 0 5802 441 L -14 -5 6437 543 L -10 -15 C
-5 -24 C 0 -14 C 5 -25 C 10 -14 C 14 -5 C 10 0 C 14 5 C 10 14 C 5 25 C 0 14 C -5 24 C -10 15 C -14 5 C -10 0 C -9 -5 C -5 -5 C
-5 -10 C -5 -24 C 0 -14 C 5 -25 C 5 -9 C 5 -5 C 9 -5 C 10 5 6447 441 L 4 5 C 5 9 C 5 25 C 0 14 C -5 24 C -5 10 C -4 5 C -10 5 C
87 0 6971 485 L 9 5 7107 523 L 15 15 C 0 -102 C 0 -97 7126 538 L 43 0 7107 441 L 73 0 5795 752 L 73 0 5795 1361 L 73 0 5795 1970 L
73 0 5795 2579 L 72 0 7353 752 L 72 0 7353 1361 L 72 0 7353 1970 L 72 0 7353 2579 L
1024 0 0 K 0 0 5795 1272 L 26 45 C 26 35 C 26 28 C 26 22 C 26 19 C 26 17 C 25 19 C 26 20 C 26 23 C 26 27 C 26 32 C 26 37 C 26 41 C
25 46 C 26 48 C 26 51 C 26 52 C 26 52 C 26 52 C 26 54 C 26 54 C 25 55 C 26 55 C 26 54 C 26 50 C 26 45 C 26 37 C 26 27 C 26 14 C
25 2 C 26 -13 C 26 -28 C 26 -44 C 26 -58 C 26 -72 C 26 -83 C 26 -91 C 25 -97 C 26 -97 C 26 -93 C 26 -87 C 26 -78 C 26 -68 C 26 -57 C
26 -46 C 25 -37 C 26 -29 C 26 -21 C 26 -16 C 26 -9 C 26 -5 C 26 1 C 25 7 C 26 11 C 26 17 C 26 20 C 26 25 C 26 27 C 26 30 C 26 29 C
25 25 C 26 17 C 26 15 C
0 0 0 K 3 -3 5809 2996 L -3 -3 C -4 3 C 0 3 C 4 7 C 3 4 C 10 3 C 14 0 C 10 -3 C 4 -7 C 0 -10 C -4 -7 C -10 -4 C -10 0 C
7 -3 5836 3010 L 3 -7 C 0 -10 C -3 -7 C -7 -4 C 7 -3 C 7 -7 C 3 -6 C 0 -11 C -3 -6 C -4 -4 C -10 -3 C -14 0 C -10 3 C -3 4 C -4 6 C
0 4 C 4 3 C 3 -3 C -3 -4 C 4 -10 5846 2973 L 0 -11 C -4 -6 C -3 -4 C -7 -3 C 3 -3 5877 2996 L -3 -3 C -4 3 C 0 3 C 4 7 C 3 4 C
10 3 C 14 0 C 10 -3 C 3 -7 C 0 -10 C -3 -7 C -10 -4 C -10 0 C 7 -3 5904 3010 L 3 -7 C 0 -10 C -3 -7 C -7 -4 C 7 -3 C 6 -7 C 4 -6 C
0 -11 C -4 -6 C -3 -4 C -10 -3 C -14 0 C -10 3 C -3 4 C -4 6 C 0 4 C 4 3 C 3 -3 C -3 -4 C 3 -10 5914 2973 L 0 -11 C -3 -6 C -3 -4 C
-7 -3 C 7 4 5951 2996 L 10 10 C 0 -71 C 0 -68 5965 3007 L 31 0 5951 2939 L -7 -34 6016 3010 L 7 7 C 10 3 C 10 0 C 10 -3 C 7 -7 C
3 -10 C 0 -7 C -3 -10 C -7 -7 C -10 -3 C -10 0 C -10 3 C -4 4 C -3 6 C 0 4 C 3 3 C 4 -3 C -4 -4 C 7 -3 6036 2986 L 7 -7 C 3 -10 C
0 -7 C -3 -10 C -7 -7 C -7 -3 C 34 0 6016 3010 L 17 0 6016 3007 L 17 3 C 0 -20 6077 3010 L 3 7 6077 2996 L 7 7 C 7 0 C 17 -10 C
7 0 C 3 3 C 3 7 C 7 4 6080 3003 L 7 0 C 17 -7 C 0 -10 6124 3010 L -3 -10 C -14 -17 C -3 -7 C -3 -10 C 0 -17 C -17 -17 6121 2990 L
-3 -7 C -4 -10 C 0 -17 C 0 -71 6151 3010 L 20 -61 6155 3010 L 24 -71 6151 3010 L -24 -71 6199 3010 L 0 -71 6199 3010 L
0 -71 6202 3010 L 14 0 6141 3010 L 13 0 6199 3010 L 21 0 6141 2939 L 23 0 6189 2939 L 0 -71 6236 3010 L 0 -71 6240 3010 L
0 -71 6280 3010 L 0 -71 6284 3010 L 24 0 6226 3010 L 24 0 6270 3010 L 40 0 6240 2976 L 24 0 6226 2939 L 24 0 6270 2939 L
-37 -47 6348 2986 L -38 -47 6352 2986 L -3 -13 6314 2986 L 0 13 C 41 0 C 41 0 6311 2939 L 0 13 C -4 -13 C -10 -3 6450 2986 L -7 -7 C
-3 -7 C -4 -10 C 0 -10 C 4 -7 C 10 -3 C 7 0 C 6 3 C 10 10 C 7 11 C 7 13 C 3 10 C -7 -3 6450 2986 L -7 -7 C -3 -7 C -3 -10 C 0 -10 C
3 -7 C 7 -3 C 7 0 6450 2986 L 6 -3 C 4 -7 C 7 -27 C 3 -7 C 3 -3 C 3 -3 6457 2986 L 3 -7 C 7 -27 C 4 -7 C 6 -3 C 4 0 C
61 0 6508 2979 L 61 0 6508 2959 L 3 -3 6596 2996 L -3 -3 C -4 3 C 0 3 C 4 7 C 3 4 C 10 3 C 14 0 C 10 -3 C 3 -4 C 4 -7 C 0 -6 C
-4 -7 C -10 -7 C -17 -7 C -6 -3 C -7 -7 C -4 -10 C 0 -10 C 7 -3 6623 3010 L 3 -4 C 3 -7 C 0 -6 C -3 -7 C -10 -7 C -14 -7 C
4 3 6592 2946 L 7 0 C 17 -7 C 10 0 C 6 4 C 4 3 C 17 -10 6603 2949 L 13 0 C 3 3 C 4 7 C 0 7 C -3 -4 6667 2946 L 3 -3 C 3 3 C -3 4 C
0 -20 6694 3010 L 4 7 6694 2996 L 6 7 C 7 0 C 17 -10 C 7 0 C 3 3 C 4 7 C 6 4 6698 3003 L 7 0 C 17 -7 C 0 -10 6742 3010 L -4 -10 C
-13 -17 C -4 -7 C -3 -10 C 0 -17 C -17 -17 6738 2990 L -3 -7 C -4 -10 C 0 -17 C
0 1024 0 K 0 0 5795 1310 L 26 33 C 26 34 C 26 35 C 26 35 C 26 38 C 26 39 C 25 41 C 26 43 C 26 45 C 26 47 C 26 48 C 26 49 C 26 50 C
25 51 C 26 51 C 26 51 C 26 51 C 26 51 C 26 50 C 26 46 C 26 41 C 25 34 C 26 26 C 26 14 C 26 2 C 26 -10 C 26 -22 C 26 -34 C 26 -42 C
25 -50 C 26 -54 C 26 -56 C 26 -57 C 26 -56 C 26 -54 C 26 -51 C 26 -48 C 25 -46 C 26 -41 C 26 -38 C 26 -34 C 26 -29 C 26 -25 C
26 -20 C 26 -16 C 25 -12 C 26 -9 C 26 -6 C 26 -4 C 26 -3 C 26 -2 C 26 -1 C 25 -1 C 26 0 C 26 0 C 26 1 C 26 1 C 26 2 C 26 2 C 26 2 C
25 1 C 26 2 C 26 1 C
0 0 0 K 1024 0 0 K 0 0 5795 730 L 3 2 C 3 2 5814 741 L 3 1 5835 748 L 3 0 5857 751 L 3 0 5879 751 L 3 -1 5901 749 L 3 0 5922 744 L
1 0 C 3 -1 5944 740 L 3 -1 5966 737 L 3 0 5988 734 L 3 0 6010 733 L 3 0 6032 732 L 0 0 6054 733 L 3 0 C 3 1 6076 734 L
3 1 6098 737 L 4 0 6119 741 L 3 1 6141 744 L 3 1 6163 748 L 3 1 6185 752 L 3 1 6206 755 L 1 0 C 4 0 6228 757 L 4 0 6250 758 L
4 0 6272 757 L 4 0 6294 756 L 4 0 6316 754 L 1 0 6338 752 L 3 0 C 4 -1 6360 751 L 4 0 6382 750 L 4 1 6404 750 L 4 0 6426 752 L
4 1 6448 754 L 3 0 6470 757 L 2 0 6492 760 L 1 0 C 3 1 6514 762 L 3 0 6536 764 L 3 0 6558 765 L 3 -1 6580 765 L 3 0 6602 763 L
3 -1 6624 761 L 3 -1 6646 758 L 3 0 6668 754 L 4 0 6689 751 L 3 -1 6711 748 L 3 0 6733 745 L 3 0 6755 743 L 1 0 6777 742 L 2 0 C
3 0 6799 742 L 3 0 6821 743 L 3 0 6843 745 L 3 1 6865 747 L 3 0 6887 750 L 3 0 6909 753 L 3 0 6931 755 L 3 1 6953 755 L
3 0 6975 755 L 3 0 6997 754 L 3 0 7019 752 L 3 -1 7041 750 L 0 0 7063 747 L 3 0 C 3 0 7085 745 L 3 0 7107 744 L 3 0 7129 743 L
3 0 7151 744 L 3 0 7173 744 L 3 0 7195 744 L 1 0 7217 745 L 2 0 C 3 0 7239 744 L 3 0 7261 744 L 3 0 7283 744 L 3 0 7305 745 L
3 0 7327 746 L 3 0 7349 748 L 2 0 7371 749 L 1 0 C 3 -1 7393 746 L 3 0 7415 743 L
0 0 0 K 1024 0 0 K 0 0 5795 1729 L 6 -31 C 6 -31 5806 1667 L 4 -22 5817 1605 L 2 -9 C 6 -31 5830 1543 L 4 -20 5843 1481 L 3 -10 C
9 -30 5858 1420 L 12 -29 5876 1360 L 18 -25 5902 1302 L 8 -7 5943 1256 L 15 -15 C 15 -20 5987 1210 L 3 -5 C 8 -15 6020 1157 L
7 -13 C 5 -10 6049 1101 L 10 -17 C 22 -23 6080 1047 L 4 -2 6128 1007 L 25 -11 C 22 -23 6183 977 L 10 -13 6225 930 L 11 -11 C
19 -13 6268 884 L 9 -2 C 12 -1 6327 864 L 19 -3 C 1 0 6389 854 L 26 -2 C 4 0 C 18 7 6450 860 L 12 4 C 9 1 6511 876 L 21 -7 C
2 -2 6569 854 L 25 -13 C 22 7 6627 834 L 7 3 C 16 7 6685 858 L 13 4 C 8 1 6745 875 L 23 -2 C 23 -10 6807 865 L 6 -1 C
16 5 6866 852 L 12 9 C 14 10 6920 885 L 12 6 C 9 2 6976 911 L 22 1 C 0 0 7037 923 L 26 18 C 1 1 7088 961 L 26 13 C 1 0 C
20 -10 7146 971 L 9 -4 C 15 8 7203 955 L 6 13 C 5 10 7239 1004 L 7 19 C 8 23 7262 1062 L 3 7 C 11 30 7284 1121 L 13 26 7309 1179 L
1 2 C 6 8 7342 1232 L 7 21 C 8 25 7365 1290 L 1 5 C 4 31 7379 1352 L 4 31 7388 1414 L 2 19 7397 1476 L 2 13 C 4 31 7404 1539 L
4 32 7411 1601 L 3 31 7419 1664 L
0 0 0 K 0 0 1024 K 0 0 5795 1328 L 19 25 C 14 19 5833 1379 L 5 6 C 2 3 5871 1429 L 17 22 C 17 24 5908 1480 L 1 2 C 8 12 5943 1532 L
9 15 C 16 27 5977 1585 L 15 28 6009 1639 L 14 28 6039 1695 L 14 28 6066 1752 L 12 24 6094 1808 L 2 4 C 10 19 6122 1864 L 5 10 C
6 12 6151 1921 L 8 16 C 4 8 6179 1977 L 10 20 C 2 5 6207 2034 L 11 23 C 2 4 6233 2091 L 11 24 C 2 4 6259 2148 L 11 25 C
2 4 6285 2205 L 11 25 C 1 1 6312 2263 L 13 27 C 15 27 6340 2319 L 18 26 6372 2373 L 2 3 6414 2419 L 26 3 C 2 -1 C 20 -25 6471 2408 L
13 -23 6507 2357 L 2 -5 C 10 -19 6536 2301 L 4 -10 C 8 -19 6563 2244 L 4 -10 C 11 -30 6585 2185 L 11 -30 6606 2126 L
14 -29 6628 2067 L 12 -28 6655 2009 L 13 -29 6680 1952 L 14 -28 6706 1894 L 15 -28 6734 1838 L 14 -26 6764 1782 L 1 -1 C
10 -17 6794 1727 L 6 -10 C 3 -4 6827 1673 L 15 -21 C 17 -20 6865 1623 L 3 -4 C 1 0 6907 1577 L 24 -20 C 25 -10 6960 1542 L 4 -1 C
17 -2 7020 1525 L 15 -1 C 6 -1 7083 1520 L 25 -1 C 20 -2 7146 1517 L 11 0 C 9 0 7209 1515 L 22 1 C 24 3 7272 1519 L 7 1 C
14 1 7334 1526 L 18 2 C 2 1 7397 1532 L 26 2 C
0 0 0 K 1630 0 7425 630 L -1630 0 9055 2835 L 0 -2205 C 0 73 7711 630 L 0 73 8054 630 L 0 73 8397 630 L 0 73 8741 630 L
0 73 7711 2762 L 0 73 8054 2762 L 0 73 8397 2762 L 0 73 8741 2762 L -15 -5 7634 543 L -10 -15 C -4 -24 C 0 -14 C 4 -25 C 10 -14 C
15 -5 C 9 0 C 15 5 C 10 14 C 4 25 C 0 14 C -4 24 C -10 15 C -15 5 C -9 0 C -10 -5 C -5 -5 C -5 -10 C -5 -24 C 0 -14 C 5 -25 C 5 -9 C
5 -5 C 10 -5 C 10 5 7643 441 L 5 5 C 5 9 C 5 25 C 0 14 C -5 24 C -5 10 C -5 5 C -10 5 C -5 -5 7711 451 L 5 -5 C 5 5 C -5 5 C
-10 -49 7760 543 L 10 10 C 14 5 C 15 0 C 14 -5 C 10 -10 C 5 -14 C 0 -10 C -5 -15 C -10 -9 C -14 -5 C -15 0 C -14 5 C -5 5 C -5 9 C
0 5 C 5 5 C 5 -5 C -5 -5 C 9 -5 7789 509 L 10 -10 C 5 -14 C 0 -10 C -5 -15 C -10 -9 C -9 -5 C 48 0 7760 543 L 24 0 7760 538 L 24 5 C
-14 -5 8049 543 L -10 -15 C -5 -24 C 0 -14 C 5 -25 C 10 -14 C 14 -5 C 10 0 C 15 5 C 9 14 C 5 25 C 0 14 C -5 24 C -9 15 C -15 5 C
-10 0 C -9 -5 C -5 -5 C -5 -10 C -5 -24 C 0 -14 C 5 -25 C 5 -9 C 5 -5 C 9 -5 C 10 5 8059 441 L 5 5 C 5 9 C 4 25 C 0 14 C -4 24 C
-5 10 C -5 5 C -10 5 C 87 0 8233 485 L -15 -5 8383 543 L -9 -15 C -5 -24 C 0 -14 C 5 -25 C 9 -14 C 15 -5 C 10 0 C 14 5 C 10 14 C
5 25 C 0 14 C -5 24 C -10 15 C -14 5 C -10 0 C -10 -5 C -5 -5 C -4 -10 C -5 -24 C 0 -14 C 5 -25 C 4 -9 C 5 -5 C 10 -5 C
9 5 8393 441 L 5 5 C 5 9 C 5 25 C 0 14 C -5 24 C -5 10 C -5 5 C -9 5 C -4 -5 8460 451 L 4 -5 C 5 5 C -5 5 C -10 -49 8509 543 L
10 10 C 14 5 C 15 0 C 14 -5 C 10 -10 C 5 -14 C 0 -10 C -5 -15 C -10 -9 C -14 -5 C -15 0 C -14 5 C -5 5 C -5 9 C 0 5 C 5 5 C 5 -5 C
-5 -5 C 10 -5 8538 509 L 9 -10 C 5 -14 C 0 -10 C -5 -15 C -9 -9 C -10 -5 C 48 0 8509 543 L 24 0 8509 538 L 24 5 C 87 0 8649 485 L
10 5 8784 523 L 14 15 C 0 -102 C 0 -97 8804 538 L 44 0 8784 441 L 73 0 7425 752 L 73 0 7425 1361 L 73 0 7425 1970 L 73 0 7425 2579 L
73 0 8982 752 L 73 0 8982 1361 L 73 0 8982 1970 L 73 0 8982 2579 L
1024 0 0 K 0 0 7425 1305 L 29 69 C 28 34 C 29 -9 C 29 -43 C 28 -58 C 29 -48 C 28 -19 C 29 17 C 29 51 C 28 66 C 29 59 C 28 41 C
29 23 C 29 21 C 28 36 C 29 66 C 28 99 C 29 124 C 29 133 C 28 129 C 29 114 C 28 96 C 29 81 C 28 76 C 29 75 C 29 78 C 28 79 C 29 67 C
28 41 C 29 -5 C 29 -62 C 28 -120 C 29 -167 C 28 -190 C 29 -189 C 29 -170 C 28 -145 C 29 -123 C 28 -110 C 29 -105 C 29 -104 C
28 -100 C 29 -84 C 28 -60 C 29 -27 C 29 8 C 28 38 C 29 53 C 28 51 C 29 35 C 29 13 C 28 -3 C 29 5 C 28 29 C 29 59 C 29 87 C 28 107 C
0 0 0 K 3 -3 7439 2996 L -3 -3 C -4 3 C 0 3 C 4 7 C 3 4 C 10 3 C 14 0 C 10 -3 C 3 -7 C 0 -10 C -3 -7 C -10 -4 C -10 0 C
7 -3 7466 3010 L 3 -7 C 0 -10 C -3 -7 C -7 -4 C 7 -3 C 6 -7 C 4 -6 C 0 -11 C -4 -6 C -3 -4 C -10 -3 C -14 0 C -10 3 C -3 4 C -4 6 C
0 4 C 4 3 C 3 -3 C -3 -4 C 3 -10 7476 2973 L 0 -11 C -3 -6 C -3 -4 C -7 -3 C -3 -10 7547 2986 L -7 -7 C -10 -3 C -3 0 C -11 3 C
-6 7 C -4 10 C 0 4 C 4 10 C 6 7 C 11 3 C 6 0 C 11 -3 C 6 -7 C 4 -10 C 0 -21 C -4 -13 C -3 -7 C -7 -7 C -10 -3 C -10 0 C -7 3 C
-3 7 C 0 3 C 3 4 C 3 -4 C -3 -3 C -7 3 7524 2966 L -7 7 C -3 10 C 0 4 C 3 10 C 7 7 C 7 3 C 7 -3 7530 3010 L 7 -7 C 3 -10 C 0 -21 C
-3 -13 C -3 -7 C -7 -7 C -7 -3 C 7 4 7581 2996 L 10 10 C 0 -71 C 0 -68 7595 3007 L 31 0 7581 2939 L -7 -34 7646 3010 L 7 7 C 10 3 C
10 0 C 10 -3 C 7 -7 C 3 -10 C 0 -7 C -3 -10 C -7 -7 C -10 -3 C -10 0 C -10 3 C -4 4 C -3 6 C 0 4 C 3 3 C 4 -3 C -4 -4 C
7 -3 7666 2986 L 7 -7 C 3 -10 C 0 -7 C -3 -10 C -7 -7 C -7 -3 C 34 0 7646 3010 L 17 0 7646 3007 L 17 3 C 0 -20 7707 3010 L
3 7 7707 2996 L 7 7 C 7 0 C 17 -10 C 6 0 C 4 3 C 3 7 C 7 4 7710 3003 L 7 0 C 17 -7 C 0 -10 7754 3010 L -3 -10 C -14 -17 C -3 -7 C
-4 -10 C 0 -17 C -17 -17 7751 2990 L -4 -7 C -3 -10 C 0 -17 C 0 -71 7781 3010 L 20 -61 7785 3010 L 24 -71 7781 3010 L
-24 -71 7829 3010 L 0 -71 7829 3010 L 0 -71 7832 3010 L 14 0 7771 3010 L 13 0 7829 3010 L 21 0 7771 2939 L 23 0 7819 2939 L
0 -71 7866 3010 L 0 -71 7870 3010 L 0 -71 7910 3010 L 0 -71 7914 3010 L 24 0 7856 3010 L 24 0 7900 3010 L 40 0 7870 2976 L
24 0 7856 2939 L 24 0 7900 2939 L -37 -47 7978 2986 L -37 -47 7981 2986 L -3 -13 7944 2986 L 0 13 C 40 0 C 40 0 7941 2939 L 0 13 C
-3 -13 C -10 -3 8080 2986 L -7 -7 C -4 -7 C -3 -10 C 0 -10 C 3 -7 C 11 -3 C 6 0 C 7 3 C 10 10 C 7 11 C 7 13 C 3 10 C
-7 -3 8080 2986 L -7 -7 C -3 -7 C -4 -10 C 0 -10 C 4 -7 C 7 -3 C 7 0 8080 2986 L 6 -3 C 4 -7 C 7 -27 C 3 -7 C 3 -3 C
3 -3 8087 2986 L 3 -7 C 7 -27 C 4 -7 C 6 -3 C 4 0 C 62 0 8137 2979 L 62 0 8137 2959 L 7 4 8232 2996 L 10 10 C 0 -71 C
0 -68 8246 3007 L 31 0 8232 2939 L -3 -4 8297 2946 L 3 -3 C 3 3 C -3 4 C 4 -3 8327 2996 L -4 -3 C -3 3 C 0 3 C 3 7 C 4 4 C 10 3 C
14 0 C 10 -3 C 3 -7 C 0 -10 C -3 -7 C -10 -4 C -11 0 C 6 -3 8355 3010 L 4 -7 C 0 -10 C -4 -7 C -6 -4 C 6 -3 C 7 -7 C 4 -6 C 0 -11 C
-4 -6 C -3 -4 C -10 -3 C -14 0 C -10 3 C -4 4 C -3 6 C 0 4 C 3 3 C 4 -3 C -4 -4 C 3 -10 8365 2973 L 0 -11 C -3 -6 C -4 -4 C -6 -3 C
0 1024 0 K 0 0 7425 1440 L 29 37 C 28 38 C 29 41 C 29 42 C 28 45 C 29 47 C 28 49 C 29 51 C 29 51 C 28 52 C 29 53 C 28 53 C 29 54 C
29 54 C 28 54 C 29 54 C 28 50 C 29 45 C 29 39 C 28 29 C 29 16 C 28 3 C 29 -11 C 28 -25 C 29 -37 C 29 -47 C 28 -55 C 29 -59 C
28 -61 C 29 -61 C 29 -59 C 28 -56 C 29 -54 C 28 -51 C 29 -47 C 29 -44 C 28 -40 C 29 -35 C 28 -31 C 29 -26 C 29 -20 C 28 -16 C
29 -12 C 28 -9 C 29 -6 C 29 -4 C 28 -2 C 29 -2 C 28 -2 C 29 -1 C 29 0 C 28 0 C 29 1 C 28 2 C 29 2 C 29 2 C 28 2 C
0 0 0 K 1024 0 0 K 1 3 7451 630 L 1 3 7461 650 L 2 2 7470 670 L 2 3 7480 689 L 1 2 7493 708 L 2 3 7505 725 L 3 2 7521 740 L
1 1 7539 753 L 2 0 C 3 0 7561 758 L 4 -1 7582 758 L 3 0 7604 754 L 3 -1 7626 749 L 3 0 7647 744 L 3 0 7669 743 L 3 0 7691 745 L
3 1 7712 750 L 3 1 7733 758 L 3 1 7753 766 L 3 1 7773 775 L 3 1 7794 783 L 3 1 7815 789 L 3 0 7837 793 L 3 -1 7859 794 L
2 0 7881 791 L 1 0 C 3 -1 7902 786 L 3 -1 7923 779 L 3 -2 7943 771 L 3 -2 7963 762 L 2 -2 7984 753 L 3 -1 8004 744 L 1 0 8025 736 L
2 -1 C 3 -1 8046 731 L 3 -1 8068 729 L 3 0 8090 729 L 3 1 8112 732 L 3 1 8133 738 L 3 1 8154 744 L 3 0 8175 750 L 0 0 8197 755 L
3 0 C 3 0 8219 757 L 3 0 8241 756 L 3 0 8263 754 L 3 0 8285 751 L 3 -1 8306 748 L 3 0 8328 744 L 3 0 8350 742 L 3 0 8372 740 L
3 0 8394 740 L 3 1 8416 740 L 3 1 8438 742 L 3 0 8460 746 L 2 1 8481 750 L 1 0 C 3 0 8503 757 L 3 1 8524 763 L 3 1 8545 770 L
3 1 8566 776 L 3 1 8587 781 L 3 0 8609 784 L 3 0 8631 785 L 2 0 8653 783 L 1 0 C 3 0 8675 780 L 3 -1 8697 777 L 3 -1 8718 773 L
1 0 8740 769 L 2 -1 C 3 -1 8761 764 L 3 -1 8782 757 L 3 -2 8803 749 L 3 -1 8822 738 L 3 -2 8840 726 L 3 -2 8858 713 L
2 -2 8875 699 L 2 -2 8892 684 L 3 -2 8908 670 L 2 -1 8928 659 L 3 1 8948 653 L 3 2 8970 655 L 3 1 8989 667 L 2 2 9005 681 L
2 2 9019 698 L 1 3 9032 716 L 1 2 9042 736 L 2 3 9052 755 L
0 0 0 K 1024 0 0 K 3 -31 7425 2016 L 3 -31 7430 1953 L 3 -31 7435 1890 L 2 -32 7440 1828 L 2 -32 7445 1765 L 2 -31 7450 1702 L
14 -28 7459 1640 L 20 -14 7491 1588 L 3 -7 C 12 -29 7527 1538 L 9 -30 7548 1479 L 2 -6 7566 1419 L 6 -25 C 8 -31 7582 1358 L
8 -31 7597 1297 L 8 -31 7613 1236 L 12 -29 7631 1175 L 24 -22 7657 1119 L 3 -2 7708 1083 L 26 -12 C 1 0 7767 1061 L 29 -7 C 1 -1 C
1 -1 7825 1037 L 21 -22 C 15 -17 7868 991 L 7 -6 C 27 -15 7913 948 L 1 0 C 26 -1 7971 925 L 6 1 C 20 2 8034 931 L 11 -3 C
18 -16 8093 917 L 6 -5 C 2 -2 8138 874 L 21 -20 C 7 0 8190 843 L 18 17 C 18 25 8235 884 L 9 11 8274 933 L 16 7 C 12 -3 8328 952 L
15 -11 C 15 -9 8382 920 L 13 -2 C 13 1 8442 909 L 18 3 C 9 3 8503 920 L 19 11 C 9 5 8560 948 L 21 0 C 5 0 8621 954 L 21 16 C
14 18 8669 993 L 7 6 C 26 18 8714 1037 L 14 28 8755 1082 L 10 30 8778 1140 L 1 3 8797 1201 L 8 27 C 10 29 8816 1261 L
10 13 8845 1315 L 11 -10 C 12 -29 8886 1294 L 3 -9 8909 1235 L 16 -15 C 12 29 8945 1209 L 1 2 8968 1268 L 7 28 C 7 31 8982 1329 L
2 11 8996 1391 L 3 20 C 5 31 9005 1453 L 5 31 9014 1515 L 4 24 9023 1578 L 0 7 C 2 32 9029 1640 L 3 32 9033 1703 L 2 31 9038 1766 L
2 31 9042 1829 L 3 31 9046 1892 L 2 31 9051 1955 L
0 0 0 K 0 0 1024 K 20 24 7425 1432 L 17 23 7465 1481 L 2 2 C 9 13 7502 1531 L 9 13 C 2 2 7538 1583 L 16 24 C 17 27 7573 1635 L
15 27 7605 1690 L 15 28 7635 1745 L 15 27 7665 1801 L 15 27 7696 1856 L 13 23 7727 1910 L 2 5 C 11 20 7757 1965 L 5 8 C
10 18 7787 2021 L 5 10 C 10 18 7816 2077 L 4 10 C 9 19 7845 2133 L 5 9 C 10 20 7873 2189 L 4 8 C 9 19 7902 2245 L 5 9 C
9 16 7931 2301 L 7 11 C 5 8 7964 2355 L 13 17 C 23 18 8003 2404 L 2 0 C 24 -12 8059 2423 L 3 -4 C 4 -5 8107 2384 L 14 -21 C
15 -27 8142 2331 L 14 -28 8172 2276 L 12 -29 8199 2219 L 4 -9 8222 2161 L 8 -21 C 9 -24 8245 2102 L 3 -5 C 12 -23 8271 2045 L 3 -5 C
12 -24 8300 1988 L 1 -4 C 13 -28 8327 1932 L 0 -1 C 13 -24 8356 1876 L 2 -4 C 10 -19 8387 1821 L 6 -8 C 7 -11 8419 1767 L 10 -16 C
2 -3 8453 1713 L 15 -23 C 19 -25 8489 1662 L 10 -11 8530 1614 L 12 -11 C 22 -16 8576 1572 L 4 -2 C 24 -9 8631 1541 L 6 -1 C
21 -2 8691 1525 L 11 -1 C 15 -1 8754 1520 L 17 0 C 9 0 8817 1517 L 23 -1 C 4 0 8880 1515 L 28 0 C 26 2 8943 1517 L 5 0 C
21 2 9006 1523 L 10 1 C
0 0 0 K
PGPLOT restore showpage
%%PageTrailer
%%PageBoundingBox: 53 49 678 236
 
%%Trailer
%%BoundingBox: 53 49 678 236
%%DocumentFonts: 
%%Pages: 1
%%EOF
