\relax 
\bibstyle{mn2e}
\citation{dra98}
\citation{2010ApJ...715.1462H,2010A&A...509A..12Y,2011MNRAS.411.2750S}
\citation{2006ApJS..164..506L}
\citation{cas08}
\citation{cas08}
\newlabel{firstpage}{{}{1}}
\@writefile{toc}{\contentsline {section}{\numberline {1}Introduction}{1}}
\@writefile{toc}{\contentsline {section}{\numberline {2}CABB Observations}{1}}
\newlabel{sec:cabbobs}{{2}{1}}
\@writefile{toc}{\contentsline {section}{\numberline {3}CABB-{\em  IRAC}\nobreakspace  {}8$\mu $m cross-correlations}{1}}
\newlabel{sec:xcorr}{{3}{1}}
\@writefile{lof}{\contentsline {figure}{\numberline {1}{\ignorespaces  ***pending: remove 2 point sources at 5,8GHz*** ATCA CABB observations in in $\rho $\nobreakspace  {}Oph\nobreakspace  {}W, and comparison with 8\nobreakspace  {}$\mu $m emission. The CABB restored mosaics are shown in grey scale. Identical restorations of {\em  IRAC}\nobreakspace  {}8\nobreakspace  {}$\mu $m visibilities, obtained by simulating CABB observations, are shown in white contours, with levels at 0.25, 0.5, and 0.75 times the peak IRAC\nobreakspace  {}8\nobreakspace  {}$\mu $m restored intensities. All grey scales range linearly from 0 to 1, and all images have been linearly scaled and normalised so that their entire intensity range, shown in parenthesis at the bottom of each image, is matched by the grey scale. Frequencies are given in MHz at the bottom left of each image. $x-$ and $y-$axis show offset RA and DEC from $\rho $\nobreakspace  {}Oph\nobreakspace  {}W (J2000 16h25m57s, -24d20m50s), in degrees of arc. }}{2}}
\newlabel{fig:ATCA}{{1}{2}}
\@writefile{lot}{\contentsline {table}{\numberline {1}{\ignorespaces Log of observations. We give the centre frequency of both CABB correlator IF settings. Each IF counts 2048 channels. The spectral resolution is 1\nobreakspace  {}MHz.}}{2}}
\newlabel{table:log}{{1}{2}}
\@writefile{toc}{\contentsline {section}{\numberline {4}Spectral variations }{2}}
\newlabel{sec:specvar}{{4}{2}}
\@writefile{lot}{\contentsline {table}{\numberline {2}{\ignorespaces CABB-{\em  IRAC}\nobreakspace  {}8\nobreakspace  {}$\mu $m correlation statistics}}{2}}
\newlabel{table:xcorr}{{2}{2}}
\citation{cas08}
\citation{dra98}
\citation{cas08}
\citation{1974ApJ...189..253B,pan78}
\citation{pan78}
\citation{pan78}
\citation{cas08}
\@writefile{lof}{\contentsline {figure}{\numberline {2}{\ignorespaces  Profiles from the restored CABB mosaics, extracted perpendicularly to the $\rho $\nobreakspace  {}Oph\nobreakspace  {}W PDR. Frequencies are indicated on the top left. The following number is the radio-IR correlation slope, for a parametrization described in Sec.\nobreakspace  {}3\hbox {}. The $x-$axis shows offset in arcmin from the reference position, at J2000 16:25:57.984 -24:20:37.760. $y-$axis shows specific intensities averaged in a region $\pm $1\nobreakspace  {}arcmin. The ATCA profiles are shown in {\bf  red}, with the restored image in solid line, and its average residuals in dotted line, and the rms-dispersion of residuals in dashed line. The {\bf  blue} dashed line is the average profile of the original {\em  IRAC}\nobreakspace  {}8$\mu $m intensity, and {\bf  green} dashed line is the equivalent for a simulation of the CABB observations. }}{3}}
\newlabel{fig:prof}{{2}{3}}
\@writefile{toc}{\contentsline {section}{\numberline {5}Local excitation of spinning dust}{3}}
\newlabel{sec:local}{{5}{3}}
\@writefile{toc}{\contentsline {section}{\numberline {6}carbon RRL search}{3}}
\newlabel{sec:crrls}{{6}{3}}
\@writefile{toc}{\contentsline {section}{\numberline {7}Rough estimates of carbon RRL intensities in $\rho $\nobreakspace  {}Oph\nobreakspace  {}W}{3}}
\newlabel{sec:crrlsprev}{{7}{3}}
\@writefile{toc}{\contentsline {subsection}{\numberline {7.1}Previous carbon RRL searches}{3}}
\newlabel{subsec:crrlsprev}{{7.1}{3}}
\bibdata{/Users/simon/common/texinputs/merged.bib}
\bibcite{1974ApJ...189..253B}{{1}{1974}{{{Brown} \& {Knapp}}}{{{Brown} \& {Knapp}}}}
\bibcite{cas08}{{2}{2008}{{{Casassus} et~al.}}{{{Casassus}, {Dickinson}, {Cleary}, {Paladini}, {Etxaluze}, {Lim}, {White}, {Burton}, {Indermuehle}, {Stahl} \& {Roche}}}}
\bibcite{dra98}{{3}{1998}{{{Draine} \& {Lazarian}}}{{{Draine} \& {Lazarian}}}}
\bibcite{2010ApJ...715.1462H}{{4}{2010}{{{Hoang} et~al.}}{{{Hoang}, {Draine} \& {Lazarian}}}}
\bibcite{2006ApJS..164..506L}{{5}{2006}{{{Le Petit} et~al.}}{{{Le Petit}, {Nehm{\'e}}, {Le Bourlot} \& {Roueff}}}}
\bibcite{pan78}{{6}{1978}{{{Pankonin} \& {Walmsley}}}{{{Pankonin} \& {Walmsley}}}}
\bibcite{2011MNRAS.411.2750S}{{7}{2011}{{{Silsbee} et~al.}}{{{Silsbee}, {Ali-Ha{\"i}moud} \& {Hirata}}}}
\bibcite{2010A&A...509A..12Y}{{8}{2010}{{{Ysard} \& {Verstraete}}}{{{Ysard} \& {Verstraete}}}}
\@writefile{lof}{\contentsline {figure}{\numberline {3}{\ignorespaces  The $\rho $\nobreakspace  {}Oph\nobreakspace  {}W filament shifts towards the exciting star with incresaing frequency, as illustrated in these best fit sky models for CABB. This RGB image is linearly scaled to cover the whole range of intensities at each frequency: {\bf  17481 in red}, {\bf  20169 in green}, and {\bf  33157\nobreakspace  {}GHz in blue}. Although the green and red overlap, the blue stands out. The contours are chosen at half maximum. The y-axis coincides with the filament's direction (sky position angle of -40 East of North)}}{4}}
\newlabel{fig:shiftrgb}{{3}{4}}
\@writefile{toc}{\contentsline {section}{\numberline {A}}{4}}
\newlabel{sec:appendix}{{A}{4}}
\newlabel{lastpage}{{A}{4}}
