\relax 
\bibstyle{mn2e}
\citation{kog96}
\citation{dav06}
\citation{lei97}
\citation{dra98}
\citation{fin04,wat05,2006ApJ...639..951C,2008MNRAS.391.1075C,2009MNRAS.394L..46A,dic09,vid10}
\citation{cas08}
\citation{mat83}
\newlabel{firstpage}{{}{1}}
\@writefile{toc}{\contentsline {section}{\numberline {1}Introduction}{1}}
\citation{cas08}
\citation{dl98b}
\citation{cas08}
\@writefile{toc}{\contentsline {section}{\numberline {2}sec:cbiobs}{2}}
\@writefile{toc}{\contentsline {section}{\numberline {3}sec:cabbobs}{2}}
\@writefile{toc}{\contentsline {section}{\numberline {4}sec:discussion}{2}}
\@writefile{toc}{\contentsline {section}{\numberline {5}sec:conc}{2}}
\@writefile{toc}{\contentsline {section}{\numberline {6}CBI2 Observations}{2}}
\newlabel{sec:cbiobs}{{6}{2}}
\@writefile{toc}{\contentsline {section}{\numberline {7}CABB Observations}{2}}
\newlabel{sec:cabbobs}{{7}{2}}
\@writefile{lof}{\contentsline {figure}{\numberline {1}{\ignorespaces  Overview of the $\rho $\nobreakspace  {}Oph cloud. Red: MIPS\nobreakspace  {}24\nobreakspace  {}$\mu $m, green: IRAC\nobreakspace  {}8\nobreakspace  {}$\mu $m, blue: processed 2MASS\nobreakspace  {}Ks. The circles indicate the locations of the 3 earliest stars in the field - HD147889 is the westernmost. S\nobreakspace  {}1 lies towards the East, and SR\nobreakspace  {}3 towards the South. Countours follow an MEM model of the 31\nobreakspace  {}GHz continuum measured by CBI2, and the black and white rectangles are the available Spitzer apertures. $x-$ and $y-$ axis are offset J2000 RA and DEC, in degrees of arc. }}{2}}
\newlabel{fig:globalrgb}{{1}{2}}
\@writefile{lot}{\contentsline {table}{\numberline {1}{\ignorespaces Log of observations. We give the centred frequency of both CABB correlator IFs setting. Each IF counts 2048 channels. The spectral resolution is 1\nobreakspace  {}MHz.}}{2}}
\newlabel{table:log}{{1}{2}}
\@writefile{toc}{\contentsline {section}{\numberline {8}CABB-{\em  IRAC}\nobreakspace  {}8$\mu $m cross-correlations}{2}}
\newlabel{sec:xcorr}{{8}{2}}
\newlabel{fig:ATCA}{{8}{2}}
\@writefile{lof}{\contentsline {figure}{\numberline {2}{\ignorespaces  ***pending: remove 2 point sources at 5,8GHz*** ATCA CABB observations in in $\rho $\nobreakspace  {}Oph\nobreakspace  {}W, and comparison with 8\nobreakspace  {}$\mu $m emission. The CABB restored mosaics are shown in grey scale. Identical restorations of {\em  IRAC}\nobreakspace  {}8\nobreakspace  {}$\mu $m visibilities, obtained by simulating CABB observations, are shown in white contours, with levels at 0.25, 0.5, and 0.75 times the peak IRAC\nobreakspace  {}8\nobreakspace  {}$\mu $m restored intensities. All grey scales range linearly from 0 to 1, and all images have been linearly scaled and normalised so that their entire intensity range, shown in parenthesis at the bottom of each image, is matched by the grey scale. Frequencies are given in MHz at the bottom left of each image. $x-$ and $y-$axis show offset RA and DEC from $\rho $\nobreakspace  {}Oph\nobreakspace  {}W (J2000 16h25m57s, -24d20m50s), in degrees of arc. }}{3}}
\newlabel{fig:ATCA}{{2}{3}}
\citation{cas08}
\citation{dra98}
\citation{cas08}
\citation{1974ApJ...189..253B,pan78}
\citation{pan78}
\citation{pan78}
\citation{cas08}
\@writefile{lot}{\contentsline {table}{\numberline {2}{\ignorespaces CABB-{\em  IRAC}\nobreakspace  {}8\nobreakspace  {}$\mu $m correlation statistics}}{4}}
\newlabel{table:xcorr}{{2}{4}}
\@writefile{toc}{\contentsline {section}{\numberline {9}Spectral variations }{4}}
\newlabel{sec:specvar}{{9}{4}}
\@writefile{toc}{\contentsline {section}{\numberline {10}Local excitation of spinning dust}{4}}
\newlabel{sec:local}{{10}{4}}
\@writefile{toc}{\contentsline {section}{\numberline {11}carbon RRL search}{4}}
\newlabel{sec:crrls}{{11}{4}}
\@writefile{toc}{\contentsline {section}{\numberline {12}Rough estimates of carbon RRL intensities in $\rho $\nobreakspace  {}Oph\nobreakspace  {}W}{4}}
\newlabel{sec:crrlsprev}{{12}{4}}
\@writefile{toc}{\contentsline {subsection}{\numberline {12.1}Previous carbon RRL searches}{4}}
\newlabel{subsec:crrlsprev}{{12.1}{4}}
\@writefile{toc}{\contentsline {section}{\numberline {A}}{4}}
\newlabel{sec:appendix}{{A}{4}}
\bibdata{/Users/simon/texinputs/adssample.bib}
\@writefile{lof}{\contentsline {figure}{\numberline {3}{\ignorespaces  Profiles from the restored CABB mosaics, extracted perpendicularly to the $\rho $\nobreakspace  {}Oph\nobreakspace  {}W PDR. Frequencies are indicated on the top left. The following number is the radio-IR correlation slope, for a parametrization described in Sec.\nobreakspace  {}8\hbox {}. The $x-$axis shows offset in arcmin from the reference position, at J2000 16:25:57.984 -24:20:37.760. $y-$axis shows specific intensities averaged in a region $\pm $1\nobreakspace  {}arcmin. The ATCA profiles are shown in {\bf  red}, with the restored image in solid line, and its average residuals in dotted line, and the rms-dispersion of residuals in dashed line. The {\bf  black} dashed line is the average profile of the original {\em  IRAC}\nobreakspace  {}8$\mu $m intensity, and {\bf  green} dashed line is the equivalent for a simulation of the CABB observations. }}{5}}
\newlabel{fig:prof}{{3}{5}}
\newlabel{lastpage}{{A}{5}}
\@writefile{lof}{\contentsline {figure}{\numberline {4}{\ignorespaces  The $\rho $\nobreakspace  {}Oph\nobreakspace  {}W filament shifts towards the exciting star with incresaing frequency, as illustrated in these best fit sky models for CABB. This RGB image is linearly scaled to cover the whole range of intensities at each frequency: {\bf  17481 in red}, {\bf  20169 in green}, and {\bf  33157\nobreakspace  {}GHz in blue}. Although the green and red overlap, the blue stands out. The contours are chosen at half maximum. The y-axis coincides with the filament's direction (sky position angle of -40 East of North)}}{5}}
\newlabel{fig:shiftrgb}{{4}{5}}
