\relax 
\providecommand\hyper@newdestlabel[2]{}
\providecommand\HyperFirstAtBeginDocument{\AtBeginDocument}
\HyperFirstAtBeginDocument{\ifx\hyper@anchor\@undefined
\global\let\oldcontentsline\contentsline
\gdef\contentsline#1#2#3#4{\oldcontentsline{#1}{#2}{#3}}
\global\let\oldnewlabel\newlabel
\gdef\newlabel#1#2{\newlabelxx{#1}#2}
\gdef\newlabelxx#1#2#3#4#5#6{\oldnewlabel{#1}{{#2}{#3}}}
\AtEndDocument{\ifx\hyper@anchor\@undefined
\let\contentsline\oldcontentsline
\let\newlabel\oldnewlabel
\fi}
\fi}
\global\let\hyper@last\relax 
\gdef\HyperFirstAtBeginDocument#1{#1}
\providecommand\HyField@AuxAddToFields[1]{}
\providecommand\HyField@AuxAddToCoFields[2]{}
\citation{kog96}
\citation{dav06}
\citation{lei97}
\citation{dra98}
\citation{fin04,wat05,2006ApJ...639..951C,2008MNRAS.391.1075C,2009MNRAS.394L..46A,dic09,vid10}
\citation{1999A&A...344..342L,2003A&A...397..623H}
\citation{rid06}
\citation{cas08}
\citation{mat83}
\newlabel{firstpage}{{}{1}{}{Doc-Start}{}}
\newlabel{firstpage}{{}{1}{}{Doc-Start}{}}
\@writefile{toc}{\contentsline {section}{\numberline {1}Introduction}{1}{section.1}}
\citation{cas08}
\citation{dl98b}
\citation{cas08}
\citation{dra98}
\citation{cas08}
\@writefile{lof}{\contentsline {figure}{\numberline {1}{\ignorespaces  Overview of the $\rho $\nobreakspace  {}Oph cloud. Red: MIPS\nobreakspace  {}24\nobreakspace  {}$\mu $m, green: IRAC\nobreakspace  {}8\nobreakspace  {}$\mu $m, blue: processed 2MASS\nobreakspace  {}Ks. The circles indicate the locations of the 3 earliest stars in the field - HD147889 is the westernmost. S\nobreakspace  {}1 lies towards the East, and SR\nobreakspace  {}3 towards the South. Countours follow an MEM model of the 31\nobreakspace  {}GHz continuum measured by CBI2, and the black and white rectangles are the available Spitzer apertures. $x-$ and $y-$ axis are offset J2000 RA and DEC, in degrees of arc. }}{2}{figure.1}}
\newlabel{fig:globalrgb}{{1}{2}{Overview of the $\rho $~Oph cloud. Red: MIPS~24~$\mu $m, green: IRAC~8~$\mu $m, blue: processed 2MASS~Ks. The circles indicate the locations of the 3 earliest stars in the field - HD147889 is the westernmost. S~1 lies towards the East, and SR~3 towards the South. Countours follow an MEM model of the 31~GHz continuum measured by CBI2, and the black and white rectangles are the available Spitzer apertures. $x-$ and $y-$ axis are offset J2000 RA and DEC, in degrees of arc}{figure.1}{}}
\@writefile{toc}{\contentsline {section}{\numberline {2}CBI2 Observations}{2}{section.2}}
\newlabel{sec:cbiobs}{{2}{2}{CBI2 Observations}{section.2}{}}
\@writefile{toc}{\contentsline {section}{\numberline {3}Local excitation of spinning dust}{2}{section.3}}
\newlabel{sec:local}{{3}{2}{Local excitation of spinning dust}{section.3}{}}
\@writefile{toc}{\contentsline {section}{\numberline {A}}{2}{section.A1}}
\newlabel{sec:appendix}{{A}{2}{}{section.A1}{}}
\bibstyle{mnras}
\bibdata{/Users/simon/common/texinputs/merged.bib}
\bibcite{2009MNRAS.394L..46A}{{1}{2009}{{{Ami Consortium} et~al.}}{{{Ami Consortium} et~al.,}}}
\bibcite{2006ApJ...639..951C}{{2}{2006}{{{Casassus} et~al.}}{{{Casassus}, {Cabrera}, {F{\"o}rster}, {Pearson}, {Readhead} \& {Dickinson}}}}
\bibcite{2008MNRAS.391.1075C}{{3}{2008a}{{{Casassus} et~al.}}{{{Casassus} et~al.,}}}
\bibcite{cas08}{{4}{2008b}{{{Casassus} et~al.}}{{{Casassus} et~al.,}}}
\bibcite{dav06}{{5}{2006}{{{Davies} et~al.}}{{{Davies}, {Dickinson}, {Banday}, {Jaffe}, {G{\'o}rski} \& {Davis}}}}
\bibcite{dic09}{{6}{2009}{{{Dickinson} et~al.}}{{{Dickinson} et~al.,}}}
\bibcite{dra98}{{7}{1998a}{{{Draine} \& {Lazarian}}}{{{Draine} \& {Lazarian}}}}
\bibcite{dl98b}{{8}{1998b}{{{Draine} \& {Lazarian}}}{{{Draine} \& {Lazarian}}}}
\bibcite{fin04}{{9}{2004}{{{Finkbeiner}}}{{{Finkbeiner}}}}
\bibcite{2003A&A...397..623H}{{10}{2003}{{{Habart} et~al.}}{{{Habart}, {Boulanger}, {Verstraete}, {Pineau des For{\^e}ts}, {Falgarone} \& {Abergel}}}}
\bibcite{kog96}{{11}{1996}{{{Kogut} et~al.}}{{{Kogut}, {Banday}, {Bennett}, {Gorski}, {Hinshaw} \& {Reach}}}}
\bibcite{lei97}{{12}{1997}{{{Leitch} et~al.}}{{{Leitch}, {Readhead}, {Pearson} \& {Myers}}}}
\bibcite{1999A&A...344..342L}{{13}{1999}{{{Liseau} et~al.}}{{{Liseau} et~al.,}}}
\bibcite{mat83}{{14}{1983}{{{Mathis} et~al.}}{{{Mathis}, {Mezger} \& {Panagia}}}}
\bibcite{rid06}{{15}{2006}{{{Ridge} et~al.}}{{{Ridge} et~al.,}}}
\bibcite{wat05}{{16}{2005}{{{Watson} et~al.}}{{{Watson}, {Rebolo}, {Rubi{\~n}o-Mart{\'{\i }}n}, {Hildebrandt}, {Guti{\'e}rrez}, {Fern{\'a}ndez-Cerezo}, {Hoyland} \& {Battistelli}}}}
\newlabel{lastpage}{{A}{3}{}{equation.A1.1}{}}
