\begin{thebibliography}{}

\bibitem[\protect\citeauthoryear{{Brown} \& {Knapp}}{{Brown} \&
  {Knapp}}{1974}]{1974ApJ...189..253B}
{Brown} R.~L.,  {Knapp} G.~R.,  1974, \apj, 189, 253

\bibitem[\protect\citeauthoryear{{Casassus}, {Dickinson}, {Cleary}, {Paladini},
  {Etxaluze}, {Lim}, {White}, {Burton}, {Indermuehle}, {Stahl} \&
  {Roche}}{{Casassus} et~al.}{2008}]{cas08}
{Casassus} S.,  {Dickinson} C.,  {Cleary} K.,  {Paladini} R.,  {Etxaluze} M.,
  {Lim} T.,  {White} G.~J.,  {Burton} M.,  {Indermuehle} B.,  {Stahl} O.,
  {Roche} P.,  2008, \mnras, 391, 1075

\bibitem[\protect\citeauthoryear{{Draine} \& {Lazarian}}{{Draine} \&
  {Lazarian}}{1998}]{dra98}
{Draine} B.~T.,  {Lazarian} A.,  1998, \apjl, 494, L19+

\bibitem[\protect\citeauthoryear{{Hoang}, {Draine} \& {Lazarian}}{{Hoang}
  et~al.}{2010}]{2010ApJ...715.1462H}
{Hoang} T.,  {Draine} B.~T.,    {Lazarian} A.,  2010, \apj, 715, 1462

\bibitem[\protect\citeauthoryear{{Le Petit}, {Nehm{\'e}}, {Le Bourlot} \&
  {Roueff}}{{Le Petit} et~al.}{2006}]{2006ApJS..164..506L}
{Le Petit} F.,  {Nehm{\'e}} C.,  {Le Bourlot} J.,    {Roueff} E.,  2006, \apjs,
  164, 506

\bibitem[\protect\citeauthoryear{{Pankonin} \& {Walmsley}}{{Pankonin} \&
  {Walmsley}}{1978}]{pan78}
{Pankonin} V.,  {Walmsley} C.~M.,  1978, \aap, 64, 333

\bibitem[\protect\citeauthoryear{{Silsbee}, {Ali-Ha{\"i}moud} \&
  {Hirata}}{{Silsbee} et~al.}{2011}]{2011MNRAS.411.2750S}
{Silsbee} K.,  {Ali-Ha{\"i}moud} Y.,    {Hirata} C.~M.,  2011, \mnras, 411,
  2750

\bibitem[\protect\citeauthoryear{{Ysard} \& {Verstraete}}{{Ysard} \&
  {Verstraete}}{2010}]{2010A&A...509A..12Y}
{Ysard} N.,  {Verstraete} L.,  2010, \aap, 509, A12

\end{thebibliography}
