This is BibTeX, Version 0.99d (TeX Live 2015)
Capacity: max_strings=35307, hash_size=35307, hash_prime=30011
The top-level auxiliary file: roph2.aux
The style file: mn2e.bst
I couldn't open database file /Users/simon/texinputs/adssample.bib.bib
---line 53 of file roph2.aux
 : \bibdata{/Users/simon/texinputs/adssample.bib
 :                                              }
I'm skipping whatever remains of this command
I found no database files---while reading file roph2.aux
Warning--I didn't find a database entry for "kog96"
Warning--I didn't find a database entry for "dav06"
Warning--I didn't find a database entry for "lei97"
Warning--I didn't find a database entry for "dra98"
Warning--I didn't find a database entry for "fin04"
Warning--I didn't find a database entry for "wat05"
Warning--I didn't find a database entry for "2006ApJ...639..951C"
Warning--I didn't find a database entry for "2008MNRAS.391.1075C"
Warning--I didn't find a database entry for "2009MNRAS.394L..46A"
Warning--I didn't find a database entry for "dic09"
Warning--I didn't find a database entry for "vid10"
Warning--I didn't find a database entry for "cas08"
Warning--I didn't find a database entry for "mat83"
Warning--I didn't find a database entry for "dl98b"
Warning--I didn't find a database entry for "1974ApJ...189..253B"
Warning--I didn't find a database entry for "pan78"
You've used 0 entries,
            2601 wiz_defined-function locations,
            559 strings with 3772 characters,
and the built_in function-call counts, 17 in all, are:
= -- 0
> -- 0
< -- 0
+ -- 0
- -- 0
* -- 0
:= -- 7
add.period$ -- 0
call.type$ -- 0
change.case$ -- 0
chr.to.int$ -- 0
cite$ -- 0
duplicate$ -- 0
empty$ -- 1
format.name$ -- 0
if$ -- 1
int.to.chr$ -- 1
int.to.str$ -- 0
missing$ -- 0
newline$ -- 3
num.names$ -- 0
pop$ -- 0
preamble$ -- 1
purify$ -- 0
quote$ -- 0
skip$ -- 1
stack$ -- 0
substring$ -- 0
swap$ -- 0
text.length$ -- 0
text.prefix$ -- 0
top$ -- 0
type$ -- 0
warning$ -- 0
while$ -- 0
width$ -- 0
write$ -- 2
(There were 2 error messages)
